BitnerPumpTest_102_3_JP_Scope.csv

#Digilent WaveForms Oscilloscope Acquisition
#Device Name: Discovery2
#Serial Number: SN:210321A29E56
#Date Time: 2023-12-04 16:10:30.502
#Sample rate: 1600Hz
#Samples: 44164
#Trigger: Source: Channel 1 Type: Edge Condition: Rising Level: 0 V Hyst.: Auto HoldOff: 0 s
#Channel 1: Range: 500 mV/div Offset: 0 V Attenuation: 1 X Sample Mode: Average
#Channel 2: Range: 500 mV/div Offset: 0 V Attenuation: 1 X Sample Mode: Average

Time (s),Channel 1 (V),Channel 2 (V)
-81.92,0.1660549474197723,0.2074451142199739
-81.919375,1.547349813356787,1.93046085134947
-81.91875,1.547349813358043,1.930123402127158
-81.918125,1.547349813358043,1.930123402127157
-81.9175,1.546681875801983,1.929785952903279
-81.916875,1.54668187580198,1.930123402127156
-81.91625000000001,1.54668187580198,1.930123402127157
-81.91562500000001,1.54701584458001,1.92978595290328
-81.91500000000001,1.546347907023954,1.929785952903277
-81.91437500000001,1.546347907023949,1.929785952903277
-81.91375000000001,1.546347907023949,1.9294485036794
-81.91312500000001,1.546347907023949,1.929448503679397
-81.91250000000001,1.546681875801977,1.929448503679397
-81.91187499999999,1.546681875801984,1.929785952903281
-81.91125,1.547015844580012,1.930123402127161
-81.910625,1.547015844580018,1.930460851351037
-81.91,1.547683782136072,1.930460851351035
-81.909375,1.547349813358041,1.930123402127157
-81.90875,1.547015844580012,1.930123402127157
-81.908125,1.547015844580012,1.930123402127157
-81.9075,1.547015844580012,1.930123402127157
-81.906875,1.547015844580011,1.930123402127156
-81.90625,1.546681875801979,1.929785952903277
-81.905625,1.546347907023948,1.929785952903278
-81.905,1.546013938245917,1.930123402127157
-81.904375,1.546013938245917,1.930123402127157
-81.90375,1.546013938245917,1.930460851351037
-81.903125,1.546347907023948,1.930460851351037
-81.9025,1.546347907023949,1.930798300574916
-81.901875,1.546347907023949,1.930460851351039
-81.90125,1.546681875801979,1.930798300574916
-81.90062500000001,1.546347907023951,1.930460851351039
-81.90000000000001,1.54567996946789,1.93012340212716
-81.89937500000001,1.545346000689857,1.930460851351035
-81.89875000000001,1.545346000689854,1.930798300574915
-81.89812500000001,1.546013938245911,1.930123402127164
-81.89750000000001,1.545346000689861,1.929785952903281
-81.89687500000001,1.545679969467882,1.929785952903277
-81.89624999999999,1.546347907023938,1.930460851351037
-81.895625,1.545346000689864,1.930460851351031
-81.895,1.546347907023958,1.929785952903284
-81.894375,1.547349813358032,1.930460851351037
-81.89375,1.546013938245922,1.930460851351032
-81.893125,1.546681875801978,1.92978595290328
-81.8925,1.546347907023956,1.930123402127159
-81.891875,1.547683782136075,1.930460851351036
-81.89125,1.54768378213607,1.930123402127159
-81.890625,1.546347907023951,1.930460851351039
-81.89,1.547015844580012,1.931135749798796
-81.889375,1.547015844580012,1.930460851351037
-81.88875,1.547015844580012,1.930460851351037
-81.888125,1.547015844580012,1.930460851351037
-81.8875,1.54634790702395,1.930123402127158
-81.886875,1.54701584458001,1.930460851351036
-81.88625,1.547015844580012,1.930123402127159
-81.885625,1.546681875801982,1.930460851351036
-81.88500000000001,1.54668187580198,1.929448503679403
-81.88437500000001,1.54668187580198,1.929448503679397
-81.88375000000001,1.547015844580009,1.929448503679397
-81.88312500000001,1.546681875801983,1.929448503679397
-81.88250000000001,1.546347907023952,1.929785952903274
-81.88187500000001,1.546681875801977,1.930460851351031
-81.88125000000001,1.54668187580198,1.930798300574913
-81.88062499999999,1.5456799694679,1.929785952903285
-81.88,1.547015844580008,1.930460851351041
-81.879375,1.546681875801974,1.930798300574914
-81.87875,1.54601393824592,1.930460851351037
-81.878125,1.546347907023944,1.93046085135104
-81.8775,1.545679969467892,1.930798300574915
-81.876875,1.54668187580198,1.930460851351037
-81.87625,1.546681875801977,1.930460851351037
-81.875625,1.546013938245921,1.930460851351037
-81.875,1.547015844580012,1.930460851351035
-81.874375,1.547015844580012,1.929448503679397
-81.87375,1.547349813358043,1.929448503679397
-81.873125,1.547349813358043,1.929448503679397
-81.8725,1.546681875801981,1.929448503679397
-81.871875,1.547349813358042,1.929785952903277
-81.87125,1.547349813358043,1.930123402127156
-81.870625,1.547015844580013,1.929785952903279
-81.87,1.547015844580012,1.930123402127156
-81.86937500000001,1.547015844580012,1.930460851351036
-81.86875000000001,1.547349813358041,1.93012340212716
-81.86812500000001,1.547015844580014,1.930123402127157
-81.86750000000001,1.547015844580012,1.929448503679403
-81.86687500000001,1.546681875801983,1.929448503679397
-81.86625000000001,1.546013938245924,1.929785952903274
-81.86562500000001,1.546013938245917,1.930123402127154
-81.86499999999999,1.547015844580008,1.930123402127157
-81.864375,1.54668187580198,1.930123402127157
-81.86375,1.546681875801977,1.930123402127154
-81.863125,1.546347907023949,1.929785952903275
-81.8625,1.546347907023954,1.9294485036794
-81.861875,1.54701584458001,1.92978595290328
-81.86125,1.546681875801977,1.930123402127157
-81.860625,1.546013938245917,1.930123402127156
-81.86,1.546013938245918,1.929785952903277
-81.859375,1.546347907023951,1.929785952903277
-81.85875,1.547015844580012,1.929785952903276
-81.858125,1.547015844580012,1.929111054455518
-81.8575,1.54668187580198,1.929448503679397
-81.856875,1.547015844580012,1.929785952903277
-81.85625,1.547015844580012,1.930123402127157
-81.855625,1.547349813358042,1.929448503679399
-81.855,1.547015844580013,1.929448503679397
-81.854375,1.546681875801982,1.929448503679397
-81.85375000000001,1.54701584458001,1.929785952903276
-81.85312500000001,1.546681875801982,1.929785952903277
-81.85250000000001,1.546347907023951,1.929785952903277
-81.85187500000001,1.547015844580006,1.930460851351032
-81.85125000000001,1.546347907023955,1.930798300574914
-81.85062500000001,1.546347907023949,1.930460851351041
-81.85000000000001,1.546347907023949,1.930123402127161
-81.84937499999999,1.546347907023952,1.930460851351041
-81.84875,1.546681875801977,1.930798300574917
-81.848125,1.546347907023946,1.930798300574917
-81.8475,1.546013938245925,1.93079830057492
-81.846875,1.547015844580007,1.931135749798795
-81.84625,1.546347907023949,1.930798300574911
-81.845625,1.546347907023954,1.929785952903276
-81.845,1.54734981335804,1.929448503679399
-81.844375,1.54668187580198,1.92978595290328
-81.84375,1.546681875801978,1.930460851351038
-81.843125,1.545679969467884,1.930798300574915
-81.8425,1.545012031911823,1.929785952903277
-81.841875,1.545346000689854,1.928773605231638
-81.84125,1.545346000689854,1.927761257559998
-81.840625,1.545012031911823,1.927423808336118
-81.84,1.544344094355761,1.926748909888359
-81.839375,1.54467806313379,1.927086359112236
-81.83875,1.544344094355761,1.927086359112238
-81.83812500000001,1.5436761567997,1.926748909888359
-81.83750000000001,1.544678063133785,1.926074011440602
-81.83687500000001,1.545346000689849,1.926074011440598
-81.83625000000001,1.544678063133797,1.926074011440598
-81.83562500000001,1.545012031911819,1.926748909888351
-81.83500000000001,1.545012031911823,1.927086359112234
-81.83437500000001,1.544344094355767,1.926748909888361
-81.83374999999999,1.544344094355756,1.926074011440598
-81.833125,1.544010125577728,1.926074011440601
-81.8325,1.544010125577728,1.926411460664481
-81.831875,1.544010125577725,1.926748909888358
-81.83125,1.543676156799701,1.92674890988836
-81.830625,1.544344094355764,1.92708635911224
-81.83,1.545012031911826,1.927423808336119
-81.829375,1.545679969467886,1.927761257559999
-81.82875,1.545679969467884,1.928098706783878
-81.828125,1.545346000689856,1.928098706783879
-81.8275,1.546013938245917,1.928773605231638
-81.826875,1.545679969467885,1.929111054455518
-81.82625,1.545346000689854,1.929785952903277
-81.825625,1.546013938245917,1.929448503679398
-81.825,1.546347907023948,1.929111054455518
-81.824375,1.546347907023949,1.929111054455517
-81.82375,1.546681875801979,1.929111054455517
-81.823125,1.54701584458001,1.929448503679396
-81.82250000000001,1.547349813358041,1.929785952903276
-81.82187500000001,1.546681875801984,1.930460851351033
-81.82125000000001,1.546347907023951,1.930460851351037
-81.82062500000001,1.547015844580006,1.929785952903283
-81.82000000000001,1.547683782136069,1.929111054455524
-81.81937500000001,1.547683782136075,1.928773605231641
-81.81875000000001,1.548017750914103,1.929111054455514
-81.81812499999999,1.547683782136071,1.929785952903277
-81.8175,1.547349813358043,1.929785952903277
-81.816875,1.54734981335804,1.929785952903277
-81.81625,1.547015844580017,1.929785952903272
-81.815625,1.547683782136072,1.929111054455517
-81.815,1.547349813358041,1.92911105445552
-81.814375,1.54701584458001,1.929448503679399
-81.81375,1.546681875801979,1.929785952903279
-81.813125,1.54634790702395,1.930123402127156
-81.8125,1.546681875801979,1.929785952903277
-81.811875,1.546347907023948,1.929785952903277
-81.81125,1.546013938245917,1.929448503679397
-81.810625,1.546347907023949,1.929448503679397
-81.81,1.545679969467886,1.929111054455518
-81.809375,1.546013938245917,1.929111054455517
-81.80875,1.546013938245917,1.929111054455517
-81.808125,1.546013938245917,1.929448503679396
-81.8075,1.546013938245917,1.929785952903276
-81.80687500000001,1.546347907023947,1.929785952903277
-81.80625000000001,1.546681875801978,1.929785952903277
-81.80562500000001,1.547015844580009,1.930123402127155
-81.80500000000001,1.547015844580012,1.930123402127157
-81.80437500000001,1.54734981335804,1.929785952903281
-81.80375000000001,1.547349813358043,1.929785952903277
-81.80312500000001,1.547349813358043,1.929111054455525
-81.80249999999999,1.547683782136075,1.929448503679397
-81.801875,1.547683782136075,1.929448503679397
-81.80125,1.547683782136069,1.929448503679404
-81.800625,1.547015844580012,1.930123402127157
-81.8,1.547015844580014,1.930123402127157
-81.799375,1.547349813358041,1.93012340212716
-81.79875,1.547015844580012,1.930460851351037
-81.798125,1.547015844580013,1.930460851351036
-81.7975,1.547349813358043,1.930123402127157
-81.796875,1.547349813358042,1.930123402127159
-81.79625,1.547015844580011,1.930798300574917
-81.795625,1.54668187580198,1.930798300574916
-81.795,1.546347907023949,1.929785952903277
-81.794375,1.546347907023949,1.930123402127157
-81.79375,1.54668187580198,1.930123402127157
-81.793125,1.54668187580198,1.930123402127157
-81.7925,1.547015844580011,1.930123402127157
-81.791875,1.547015844580012,1.929785952903279
-81.79125000000001,1.547349813358041,1.929448503679399
-81.79062500000001,1.547349813358043,1.929448503679397
-81.79000000000001,1.547349813358043,1.929785952903275
-81.78937500000001,1.547015844580014,1.9294485036794
-81.78875000000001,1.546681875801983,1.929448503679397
-81.78812500000001,1.54668187580198,1.929448503679397
-81.78750000000001,1.547015844580008,1.929785952903274
-81.78687499999999,1.546681875801984,1.929785952903281
-81.78625,1.547015844580012,1.930123402127161
-81.785625,1.547015844580015,1.930460851351037
-81.785,1.547349813358043,1.93046085135104
-81.784375,1.547349813358043,1.930798300574915
-81.78375,1.547349813358045,1.930460851351037
-81.783125,1.547683782136073,1.930460851351036
-81.7825,1.547349813358043,1.930123402127156
-81.781875,1.547349813358043,1.929785952903279
-81.78125,1.547349813358043,1.930123402127158
-81.780625,1.547349813358043,1.930460851351037
-81.78,1.547349813358043,1.930460851351037
-81.779375,1.547015844580012,1.930123402127157
-81.77875,1.547349813358043,1.929785952903278
-81.778125,1.547349813358043,1.929448503679398
-81.7775,1.547349813358043,1.929785952903277
-81.776875,1.547349813358043,1.930460851351035
-81.77625,1.546681875801983,1.930798300574916
-81.77562500000001,1.54668187580198,1.930460851351039
-81.77500000000001,1.54668187580198,1.930460851351037
-81.77437500000001,1.546347907023951,1.930460851351037
-81.77375000000001,1.546681875801978,1.929785952903283
-81.77312500000001,1.54668187580198,1.929785952903277
-81.77250000000001,1.547015844580008,1.929785952903277
-81.77187500000001,1.546681875801984,1.930123402127154
-81.77124999999999,1.547015844580008,1.930460851351037
-81.770625,1.546681875801984,1.930460851351037
-81.77,1.547015844580012,1.930460851351037
-81.769375,1.547015844580012,1.930460851351037
-81.76875,1.547015844580012,1.930460851351037
-81.768125,1.547015844580012,1.930460851351035
-81.7675,1.547015844580012,1.930123402127159
-81.766875,1.547015844580012,1.930460851351036
-81.76625,1.547015844580014,1.930123402127157
-81.765625,1.547683782136074,1.930123402127156
-81.765,1.547349813358043,1.929448503679398
-81.764375,1.547349813358043,1.929785952903278
-81.76375,1.547015844580012,1.930123402127157
-81.763125,1.547015844580012,1.930123402127157
-81.7625,1.547015844580012,1.930123402127157
-81.761875,1.547015844580012,1.930460851351036
-81.76125,1.547683782136072,1.930460851351037
-81.760625,1.547349813358045,1.930460851351037
-81.76000000000001,1.547015844580014,1.930460851351037
-81.75937500000001,1.547349813358041,1.930460851351037
-81.75875000000001,1.547683782136072,1.93012340212716
-81.75812500000001,1.547683782136075,1.930123402127157
-81.75750000000001,1.547349813358046,1.929785952903281
-81.75687500000001,1.547349813358043,1.929785952903277
-81.75625000000001,1.547349813358043,1.930123402127154
-81.75562499999999,1.547015844580008,1.929785952903277
-81.755,1.546681875801977,1.929785952903277
-81.754375,1.546347907023952,1.929785952903277
-81.75375,1.546681875801983,1.929785952903277
-81.753125,1.547015844580012,1.929785952903275
-81.7525,1.54701584458001,1.929448503679397
-81.751875,1.54668187580198,1.929448503679399
-81.75125,1.54668187580198,1.929785952903281
-81.750625,1.546681875801978,1.930460851351036
-81.75,1.546013938245917,1.930123402127158
-81.749375,1.546013938245917,1.930460851351037
-81.74875,1.546013938245918,1.930123402127157
-81.748125,1.54668187580198,1.929785952903277
-81.7475,1.54668187580198,1.930123402127157
-81.746875,1.54668187580198,1.930460851351037
-81.74625,1.54668187580198,1.930460851351037
-81.745625,1.547015844580011,1.930798300574916
-81.745,1.547015844580012,1.930798300574917
-81.74437500000001,1.547015844580012,1.930460851351039
-81.74375000000001,1.547015844580012,1.93012340212716
-81.74312500000001,1.547015844580012,1.930123402127157
-81.74250000000001,1.547015844580012,1.930460851351035
-81.74187500000001,1.547015844580012,1.930460851351037
-81.74125000000001,1.547015844580012,1.930460851351037
-81.74062500000001,1.54734981335804,1.930123402127161
-81.73999999999999,1.547015844580012,1.930798300574917
-81.739375,1.547015844580005,1.930798300574917
-81.73875,1.546347907023949,1.930798300574917
-81.738125,1.546347907023946,1.930798300574917
-81.7375,1.54601393824592,1.930798300574917
-81.736875,1.546347907023949,1.930798300574917
-81.73625,1.546347907023947,1.930798300574915
-81.735625,1.546013938245916,1.930460851351034
-81.735,1.545679969467887,1.929785952903277
-81.734375,1.546013938245917,1.929785952903277
-81.73375,1.546013938245917,1.929785952903278
-81.733125,1.546013938245917,1.930123402127157
-81.7325,1.546347907023949,1.930123402127157
-81.731875,1.546347907023949,1.930460851351037
-81.73125,1.54668187580198,1.930123402127158
-81.730625,1.54668187580198,1.929785952903278
-81.73,1.547683782136071,1.929448503679399
-81.729375,1.547683782136075,1.930123402127154
-81.72875000000001,1.547683782136075,1.930123402127157
-81.72812500000001,1.548017750914104,1.930123402127157
-81.72750000000001,1.547683782136077,1.930123402127157
-81.72687500000001,1.548017750914104,1.930123402127157
-81.72625000000001,1.547683782136078,1.930460851351034
-81.72562500000001,1.547683782136075,1.930460851351037
-81.72500000000001,1.547683782136075,1.930460851351037
-81.72437499999999,1.547683782136075,1.930460851351034
-81.72375,1.547683782136075,1.930123402127157
-81.723125,1.547683782136069,1.930123402127157
-81.7225,1.547015844580012,1.930123402127155
-81.721875,1.547015844580009,1.929785952903277
-81.72125,1.54668187580198,1.929785952903277
-81.720625,1.54668187580198,1.929785952903277
-81.72,1.546681875801982,1.929785952903276
-81.719375,1.547015844580013,1.929448503679397
-81.71875,1.547349813358042,1.929448503679398
-81.718125,1.547015844580011,1.929785952903277
-81.7175,1.546347907023949,1.929785952903278
-81.716875,1.546347907023949,1.930123402127157
-81.71625,1.546347907023949,1.930460851351037
-81.715625,1.546347907023949,1.930798300574917
-81.715,1.546681875801979,1.930798300574917
-81.714375,1.54668187580198,1.931135749798796
-81.71375,1.54668187580198,1.931135749798797
-81.71312500000001,1.54668187580198,1.930798300574919
-81.71250000000001,1.54701584458001,1.93046085135104
-81.71187500000001,1.547349813358041,1.93012340212716
-81.71125000000001,1.547015844580014,1.930123402127157
-81.71062500000001,1.546681875801983,1.930123402127157
-81.71000000000001,1.547015844580008,1.930123402127157
-81.70937500000001,1.54734981335804,1.930123402127157
-81.70874999999999,1.547349813358043,1.930123402127157
-81.708125,1.547349813358043,1.930123402127161
-81.7075,1.54734981335804,1.930460851351037
-81.706875,1.547015844580012,1.93046085135104
-81.70625,1.547015844580012,1.930798300574917
-81.705625,1.54701584458001,1.930798300574915
-81.705,1.54668187580198,1.930460851351036
-81.704375,1.54668187580198,1.930123402127156
-81.70375,1.54668187580198,1.929785952903279
-81.703125,1.546681875801981,1.930123402127156
-81.7025,1.547015844580012,1.929785952903277
-81.701875,1.547015844580012,1.929785952903277
-81.70125,1.547015844580012,1.929785952903277
-81.700625,1.547015844580012,1.930123402127157
-81.7,1.546681875801981,1.930123402127157
-81.699375,1.54634790702395,1.930460851351036
-81.69875,1.546347907023949,1.930460851351037
-81.698125,1.546347907023949,1.930460851351037
-81.69750000000001,1.546347907023949,1.930460851351037
-81.69687500000001,1.546681875801978,1.93012340212716
-81.69625000000001,1.54668187580198,1.930123402127157
-81.69562500000001,1.546347907023951,1.930123402127157
-81.69500000000001,1.54601393824592,1.930123402127157
-81.69437500000001,1.546681875801974,1.930460851351034
-81.69375000000001,1.54668187580198,1.930460851351037
-81.69312499999999,1.546347907023949,1.930460851351037
-81.6925,1.546347907023945,1.930460851351037
-81.691875,1.54601393824592,1.930460851351034
-81.69125,1.546347907023949,1.930123402127155
-81.690625,1.546347907023949,1.92978595290328
-81.69,1.546347907023949,1.930123402127157
-81.689375,1.546347907023952,1.930123402127157
-81.68875,1.547015844580013,1.930123402127156
-81.688125,1.547349813358042,1.929785952903277
-81.6875,1.547015844580012,1.929785952903277
-81.686875,1.547015844580012,1.929785952903278
-81.68625,1.547349813358043,1.930123402127157
-81.685625,1.547015844580012,1.930123402127157
-81.685,1.54668187580198,1.929785952903278
-81.684375,1.54668187580198,1.930123402127157
-81.68375,1.54668187580198,1.930123402127157
-81.683125,1.54668187580198,1.930460851351036
-81.6825,1.54668187580198,1.930123402127159
-81.68187500000001,1.54701584458001,1.930123402127157
-81.68125000000001,1.547015844580012,1.930460851351035
-81.68062500000001,1.547015844580012,1.93012340212716
-81.68000000000001,1.547015844580012,1.930460851351035
-81.67937500000001,1.547015844580012,1.93012340212716
-81.67875000000001,1.547015844580012,1.929785952903281
-81.67812500000001,1.547015844580012,1.930123402127154
-81.67749999999999,1.54668187580198,1.930460851351034
-81.676875,1.546681875801984,1.930123402127161
-81.67625,1.547015844580015,1.930460851351037
-81.675625,1.547349813358041,1.930460851351035
-81.675,1.547015844580009,1.930123402127157
-81.674375,1.546681875801978,1.930123402127157
-81.67375,1.546347907023951,1.930123402127157
-81.673125,1.54668187580198,1.930123402127156
-81.6725,1.546681875801979,1.929785952903279
-81.671875,1.546347907023948,1.930123402127158
-81.67125,1.546013938245917,1.930460851351037
-81.670625,1.546013938245917,1.930123402127157
-81.67,1.546013938245917,1.929785952903277
