BitnerPumpTest_102_2_JP_Scope.csv

#Digilent WaveForms Oscilloscope Acquisition
#Device Name: Discovery2
#Serial Number: SN:210321A29E56
#Date Time: 2023-12-04 16:08:57.334
#Sample rate: 1600Hz
#Samples: 48258
#Trigger: Source: Channel 1 Type: Edge Condition: Rising Level: 0 V Hyst.: Auto HoldOff: 0 s
#Channel 1: Range: 500 mV/div Offset: 0 V Attenuation: 1 X Sample Mode: Average
#Channel 2: Range: 500 mV/div Offset: 0 V Attenuation: 1 X Sample Mode: Average

Time (s),Channel 1 (V),Channel 2 (V)
-81.92,1.109182776580719,1.395603831501305
-81.919375,1.531319312012147,1.927086359111754
-81.91875,1.5309853432345,1.927423808336117
-81.918125,1.53131931201253,1.927423808336118
-81.9175,1.530985343234501,1.927761257559996
-81.916875,1.53131931201253,1.927423808336119
-81.91625000000001,1.531653280790561,1.927423808336118
-81.91562500000001,1.531653280790563,1.927423808336118
-81.91500000000001,1.532321218346621,1.927423808336118
-81.91437500000001,1.532321218346626,1.92708635911224
-81.91375000000001,1.532655187124654,1.927423808336115
-81.91312500000001,1.532321218346629,1.927086359112241
-81.91250000000001,1.532321218346626,1.927086359112238
-81.91187499999999,1.532321218346626,1.927086359112238
-81.91125,1.532321218346622,1.927086359112244
-81.910625,1.531987249568594,1.927761257559998
-81.91,1.531987249568594,1.927761257559998
-81.909375,1.531987249568594,1.927761257559998
-81.90875,1.531987249568596,1.927761257559998
-81.908125,1.532321218346626,1.927761257559996
-81.9075,1.532321218346624,1.927423808336116
-81.906875,1.531987249568594,1.927086359112239
-81.90625,1.531987249568594,1.927423808336118
-81.905625,1.531987249568594,1.927423808336118
-81.905,1.531987249568594,1.927423808336118
-81.904375,1.531653280790563,1.927423808336118
-81.90375,1.531653280790563,1.927761257559997
-81.903125,1.531987249568594,1.927761257559998
-81.9025,1.531319312012533,1.928098706783877
-81.901875,1.531319312012531,1.927761257559999
-81.90125,1.531653280790561,1.927423808336119
-81.90062500000001,1.531319312012533,1.927761257559996
-81.90000000000001,1.531319312012531,1.927761257559998
-81.89937500000001,1.531319312012531,1.927761257559998
-81.89875000000001,1.53165328079056,1.927761257559998
-81.89812500000001,1.531987249568591,1.927761257559998
-81.89750000000001,1.532321218346622,1.927761257559998
-81.89687500000001,1.531987249568598,1.928098706783874
-81.89624999999999,1.532321218346622,1.927761257560001
-81.895625,1.531987249568594,1.928098706783878
-81.895,1.531987249568594,1.928098706783878
-81.894375,1.531987249568594,1.928098706783875
-81.89375,1.531987249568594,1.927761257559998
-81.893125,1.531987249568592,1.927761257560002
-81.8925,1.531653280790561,1.928436156007754
-81.891875,1.53131931201253,1.927761257560001
-81.89125,1.5309853432345,1.928436156007756
-81.890625,1.5309853432345,1.928098706783877
-81.89,1.530985343234499,1.927761257559998
-81.889375,1.530651374456468,1.928098706783878
-81.88875,1.5309853432345,1.928436156007758
-81.888125,1.5309853432345,1.928098706783878
-81.8875,1.5309853432345,1.927423808336119
-81.886875,1.5309853432345,1.927423808336118
-81.88625,1.529983436900409,1.927761257559996
-81.885625,1.529649468122375,1.928098706783876
-81.88500000000001,1.529983436900404,1.928098706783878
-81.88437500000001,1.529983436900405,1.92776125756
-81.88375000000001,1.530651374456463,1.92742380833612
-81.88312500000001,1.531319312012526,1.927423808336118
-81.88250000000001,1.530985343234503,1.927423808336118
-81.88187500000001,1.5309853432345,1.928098706783871
-81.88125000000001,1.5309853432345,1.928098706783878
-81.88062499999999,1.531319312012531,1.928098706783878
-81.88,1.531319312012531,1.928098706783878
-81.879375,1.531319312012531,1.928098706783874
-81.87875,1.531319312012534,1.927761257559998
-81.878125,1.53165328079056,1.927761257559998
-81.8775,1.531319312012527,1.927761257559993
-81.876875,1.53065137445647,1.927086359112242
-81.87625,1.5309853432345,1.927761257559999
-81.875625,1.5309853432345,1.928098706783878
-81.875,1.5309853432345,1.928098706783878
-81.874375,1.5309853432345,1.928098706783877
-81.87375,1.531319312012531,1.927761257559997
-81.873125,1.531319312012531,1.927423808336118
-81.8725,1.531319312012531,1.927423808336118
-81.871875,1.531653280790562,1.927423808336118
-81.87125,1.531987249568593,1.927086359112239
-81.870625,1.531987249568594,1.927086359112238
-81.87,1.531653280790564,1.927423808336116
-81.86937500000001,1.531653280790563,1.927423808336118
-81.86875000000001,1.531319312012533,1.928098706783873
-81.86812500000001,1.530985343234502,1.928436156007755
-81.86750000000001,1.5309853432345,1.92809870678388
-81.86687500000001,1.5309853432345,1.927761257560001
-81.86625000000001,1.531319312012528,1.927761257559998
-81.86562500000001,1.531653280790559,1.927761257559998
-81.86499999999999,1.531319312012531,1.927761257559998
-81.864375,1.531319312012535,1.927761257559998
-81.86375,1.531653280790569,1.927761257559998
-81.863125,1.532321218346626,1.927761257559998
-81.8625,1.532321218346618,1.927761257559998
-81.861875,1.531319312012529,1.927761257560002
-81.86125,1.5309853432345,1.928436156007759
-81.860625,1.5309853432345,1.928773605231638
-81.86,1.530985343234501,1.928773605231636
-81.859375,1.531319312012531,1.928436156007757
-81.85875,1.531319312012531,1.928098706783878
-81.858125,1.531319312012531,1.928098706783878
-81.8575,1.5309853432345,1.928436156007758
-81.856875,1.531319312012531,1.928436156007758
-81.85625,1.531319312012531,1.928098706783878
-81.855625,1.531653280790562,1.928436156007757
-81.855,1.531653280790563,1.928098706783879
-81.854375,1.531653280790563,1.927761257559999
-81.85375000000001,1.531653280790563,1.927761257559998
-81.85312500000001,1.531653280790563,1.927761257559998
-81.85250000000001,1.531653280790563,1.927761257559998
-81.85187500000001,1.531653280790563,1.927761257559998
-81.85125000000001,1.531319312012534,1.928098706783874
-81.85062500000001,1.531319312012531,1.928098706783878
-81.85000000000001,1.530985343234503,1.928436156007754
-81.84937499999999,1.5309853432345,1.927761257559998
-81.84875,1.530985343234503,1.927761257559998
-81.848125,1.531319312012528,1.927761257560001
-81.8475,1.530985343234494,1.928098706783878
-81.846875,1.530317405678437,1.928098706783878
-81.84625,1.530317405678439,1.928098706783873
-81.845625,1.530651374456472,1.927423808336119
-81.845,1.531319312012533,1.927761257559996
-81.844375,1.531653280790564,1.927423808336118
-81.84375,1.531987249568594,1.927423808336119
-81.843125,1.531987249568594,1.927761257559998
-81.8425,1.531987249568594,1.927761257559998
-81.841875,1.531653280790563,1.928098706783878
-81.84125,1.531653280790563,1.927761257559998
-81.840625,1.531319312012532,1.928098706783877
-81.84,1.531319312012531,1.928436156007757
-81.839375,1.531653280790562,1.928436156007758
-81.83875,1.531987249568593,1.928436156007758
-81.83812500000001,1.532321218346624,1.927761257560001
-81.83750000000001,1.532321218346626,1.92742380833612
-81.83687500000001,1.531987249568597,1.927423808336118
-81.83625000000001,1.531987249568594,1.927423808336118
-81.83562500000001,1.532321218346623,1.927423808336118
-81.83500000000001,1.531987249568598,1.927761257559994
-81.83437500000001,1.531653280790566,1.927761257559998
-81.83374999999999,1.531319312012528,1.928098706783878
-81.833125,1.5309853432345,1.928098706783874
-81.8325,1.530985343234503,1.927761257559995
-81.831875,1.531319312012534,1.927423808336118
-81.83125,1.531653280790563,1.927423808336123
-81.830625,1.531653280790563,1.928098706783878
-81.83,1.531653280790563,1.928098706783876
-81.829375,1.531653280790563,1.927761257559998
-81.82875,1.531653280790564,1.927761257559998
-81.828125,1.531987249568595,1.927761257559998
-81.8275,1.532321218346625,1.927761257559998
-81.826875,1.531987249568594,1.928098706783878
-81.82625,1.531987249568594,1.928098706783878
-81.825625,1.531987249568594,1.927761257559998
-81.825,1.531653280790563,1.927761257559998
-81.824375,1.531987249568593,1.927761257559998
-81.82375,1.531987249568594,1.927423808336119
-81.823125,1.531653280790564,1.927761257559996
-81.82250000000001,1.531653280790563,1.927761257559998
-81.82187500000001,1.531653280790563,1.928098706783875
-81.82125000000001,1.531653280790563,1.928098706783878
-81.82062500000001,1.531319312012534,1.928436156007755
-81.82000000000001,1.531319312012531,1.928773605231634
-81.81937500000001,1.531319312012531,1.928436156007761
-81.81875000000001,1.531319312012531,1.928436156007758
-81.81812499999999,1.531653280790566,1.92809870678387
-81.8175,1.531987249568594,1.927423808336114
-81.816875,1.531987249568597,1.927086359112241
-81.81625,1.532321218346626,1.92742380833612
-81.815625,1.532321218346626,1.927761257559998
-81.815,1.532321218346623,1.927761257559998
-81.814375,1.531987249568592,1.927761257559999
-81.81375,1.531653280790564,1.928098706783874
-81.813125,1.531987249568594,1.927423808336119
-81.8125,1.531987249568594,1.927761257559997
-81.811875,1.531987249568594,1.927423808336118
-81.81125,1.531653280790563,1.927423808336118
-81.810625,1.531653280790563,1.927761257559998
-81.81,1.531319312012531,1.927761257559998
-81.809375,1.5309853432345,1.928098706783877
-81.80875,1.5309853432345,1.928098706783878
-81.808125,1.53131931201253,1.927761257559999
-81.8075,1.530985343234501,1.928098706783876
-81.80687500000001,1.5309853432345,1.928098706783878
-81.80625000000001,1.5309853432345,1.928098706783878
-81.80562500000001,1.5309853432345,1.928436156007755
-81.80500000000001,1.531319312012529,1.92809870678388
-81.80437500000001,1.531319312012531,1.928098706783878
-81.80375000000001,1.530985343234503,1.928773605231631
-81.80312500000001,1.5309853432345,1.928773605231638
-81.80249999999999,1.5309853432345,1.92843615600775
-81.801875,1.530985343234503,1.927761257559998
-81.80125,1.531319312012531,1.927761257560001
-81.800625,1.531319312012531,1.92809870678388
-81.8,1.531319312012529,1.928436156007758
-81.799375,1.530985343234502,1.928436156007758
-81.79875,1.531319312012533,1.928436156007756
-81.798125,1.531653280790561,1.928098706783878
-81.7975,1.531319312012532,1.928098706783878
-81.796875,1.531653280790562,1.928098706783878
-81.79625,1.531319312012531,1.928098706783878
-81.795625,1.531319312012531,1.928098706783878
-81.795,1.531653280790563,1.928098706783878
-81.794375,1.531653280790563,1.928098706783878
-81.79375,1.531653280790563,1.927761257559998
-81.793125,1.531987249568593,1.928098706783877
-81.7925,1.531987249568594,1.928098706783878
-81.791875,1.531653280790564,1.928098706783878
-81.79125000000001,1.532321218346622,1.927761257559999
-81.79062500000001,1.532321218346626,1.928436156007753
-81.79000000000001,1.532321218346626,1.928436156007758
-81.78937500000001,1.532321218346626,1.92809870678388
-81.78875000000001,1.532655187124654,1.928436156007755
-81.78812500000001,1.532655187124657,1.928436156007758
-81.78750000000001,1.531987249568602,1.928436156007758
-81.78687499999999,1.531653280790559,1.927761257560001
-81.78625,1.531319312012531,1.928098706783881
-81.785625,1.531319312012528,1.928436156007758
-81.785,1.5309853432345,1.928436156007758
-81.784375,1.5309853432345,1.928436156007755
-81.78375,1.530985343234498,1.92809870678388
-81.783125,1.530651374456468,1.928436156007758
-81.7825,1.53065137445647,1.928436156007756
-81.781875,1.530985343234501,1.928098706783878
-81.78125,1.531319312012531,1.928098706783878
-81.780625,1.531319312012531,1.928098706783878
-81.78,1.531319312012531,1.928098706783878
-81.779375,1.531653280790563,1.928436156007758
-81.77875,1.531653280790563,1.928098706783878
-81.778125,1.531653280790563,1.928098706783878
-81.7775,1.531653280790563,1.928436156007757
-81.776875,1.531653280790563,1.928436156007758
-81.77625,1.531653280790563,1.928436156007758
-81.77562500000001,1.531319312012533,1.928773605231636
-81.77500000000001,1.531319312012531,1.928773605231638
-81.77437500000001,1.53165328079056,1.928098706783882
-81.77375000000001,1.531987249568592,1.92776125756
-81.77312500000001,1.531653280790566,1.927761257559998
-81.77250000000001,1.531653280790563,1.927761257559998
-81.77187500000001,1.531319312012535,1.927086359112245
-81.77124999999999,1.531319312012535,1.927423808336118
-81.770625,1.531653280790563,1.927423808336121
-81.77,1.531653280790563,1.927761257560001
-81.769375,1.531653280790563,1.928098706783875
-81.76875,1.531653280790563,1.927761257559998
-81.768125,1.531653280790563,1.927761257559998
-81.7675,1.531653280790563,1.927761257559998
-81.766875,1.531653280790566,1.927761257559996
-81.76625,1.532321218346625,1.927423808336119
-81.765625,1.531987249568593,1.927761257559997
-81.765,1.531653280790563,1.927423808336118
-81.764375,1.531987249568594,1.927761257559998
-81.76375,1.531987249568594,1.927761257559998
-81.763125,1.531987249568594,1.927761257559998
-81.7625,1.531653280790563,1.928098706783877
-81.761875,1.531653280790563,1.928098706783878
-81.76125,1.531653280790563,1.928436156007756
-81.760625,1.531319312012533,1.928098706783879
-81.76000000000001,1.531319312012531,1.928436156007756
-81.75937500000001,1.531319312012531,1.928436156007758
-81.75875000000001,1.530985343234502,1.92809870678388
-81.75812500000001,1.530651374456471,1.928436156007755
-81.75750000000001,1.530985343234497,1.928436156007758
-81.75687500000001,1.530317405678443,1.928098706783881
-81.75625000000001,1.530651374456465,1.928098706783878
-81.75562499999999,1.530651374456472,1.928098706783878
-81.755,1.5309853432345,1.928098706783878
-81.754375,1.5309853432345,1.928098706783874
-81.75375,1.5309853432345,1.927761257559995
-81.753125,1.5309853432345,1.927423808336118
-81.7525,1.5309853432345,1.927423808336118
-81.751875,1.5309853432345,1.927423808336119
-81.75125,1.5309853432345,1.927761257559998
-81.750625,1.5309853432345,1.927761257559998
-81.75,1.5309853432345,1.927761257559997
-81.749375,1.5309853432345,1.927423808336118
-81.74875,1.531319312012531,1.927761257559998
-81.748125,1.531653280790563,1.927761257559998
-81.7475,1.531987249568594,1.927423808336118
-81.746875,1.531987249568594,1.927761257559997
-81.74625,1.531987249568594,1.927423808336119
-81.745625,1.531987249568594,1.927761257559996
-81.745,1.531987249568594,1.927761257559998
-81.74437500000001,1.531319312012535,1.927761257559998
-81.74375000000001,1.530985343234502,1.927761257559998
-81.74312500000001,1.531653280790558,1.927761257559998
-81.74250000000001,1.531653280790563,1.927761257559998
-81.74187500000001,1.531319312012534,1.927423808336121
-81.74125000000001,1.531319312012531,1.927086359112241
-81.74062500000001,1.531319312012531,1.927086359112238
-81.73999999999999,1.531319312012531,1.927423808336121
-81.739375,1.531319312012535,1.927761257559998
-81.73875,1.53165328079056,1.927761257559998
-81.738125,1.531319312012531,1.927761257559998
-81.7375,1.531319312012531,1.927761257559998
-81.736875,1.531319312012533,1.927761257559998
-81.73625,1.531653280790561,1.927761257559999
-81.735625,1.531319312012533,1.928098706783878
-81.735,1.531653280790563,1.928098706783876
-81.734375,1.531653280790564,1.927761257559998
-81.73375,1.531987249568594,1.927761257559997
-81.733125,1.531987249568594,1.927423808336118
-81.7325,1.531987249568594,1.927761257559998
-81.731875,1.531653280790563,1.927761257559998
-81.73125,1.531653280790563,1.928098706783877
-81.730625,1.531653280790563,1.928773605231636
-81.73,1.531319312012532,1.928773605231638
-81.729375,1.530985343234501,1.928436156007759
-81.72875000000001,1.531319312012529,1.928098706783879
-81.72812500000001,1.532321218346619,1.927423808336122
-81.72750000000001,1.531987249568597,1.927761257559995
-81.72687500000001,1.531653280790565,1.92742380833612
-81.72625000000001,1.531319312012534,1.927761257559995
-81.72562500000001,1.531319312012531,1.928098706783874
-81.72500000000001,1.531319312012531,1.928098706783878
-81.72437499999999,1.531319312012535,1.928098706783874
-81.72375,1.531653280790566,1.927761257559994
-81.723125,1.531987249568597,1.927423808336115
-81.7225,1.532321218346626,1.927086359112238
-81.721875,1.532321218346623,1.92708635911224
-81.72125,1.53198724956859,1.92742380833612
-81.720625,1.531319312012531,1.927761257559998
-81.72,1.531319312012531,1.927761257559998
-81.719375,1.531319312012534,1.927761257559996
-81.71875,1.531987249568593,1.927423808336119
-81.718125,1.531653280790562,1.927761257559998
-81.7175,1.531319312012531,1.928098706783878
-81.716875,1.531653280790563,1.928098706783878
-81.71625,1.531653280790563,1.928098706783878
-81.715625,1.531653280790563,1.927761257559998
-81.715,1.531987249568593,1.927761257559998
-81.714375,1.532321218346625,1.927761257559998
-81.71375,1.531653280790566,1.927761257559998
-81.71312500000001,1.531987249568592,1.928098706783876
-81.71250000000001,1.531653280790565,1.928098706783878
-81.71187500000001,1.531319312012534,1.92776125756
-81.71125000000001,1.53165328079056,1.92742380833612
-81.71062500000001,1.531987249568591,1.927761257559995
-81.71000000000001,1.531987249568594,1.927761257559998
-81.70937500000001,1.531653280790566,1.928098706783874
-81.70874999999999,1.531653280790566,1.927761257559998
-81.708125,1.531987249568594,1.927761257559998
-81.7075,1.531987249568594,1.927761257560001
-81.706875,1.531987249568594,1.928098706783875
-81.70625,1.531987249568594,1.927761257559995
-81.705625,1.531987249568594,1.927423808336118
-81.705,1.531987249568594,1.927423808336119
-81.704375,1.531987249568594,1.927761257559998
-81.70375,1.531987249568594,1.927761257559999
-81.703125,1.531987249568594,1.928098706783878
-81.7025,1.531987249568594,1.928098706783879
-81.701875,1.531653280790563,1.928773605231637
-81.70125,1.531653280790563,1.928436156007758
-81.700625,1.531319312012531,1.928436156007758
-81.7,1.531319312012531,1.928773605231637
-81.699375,1.531319312012531,1.928098706783879
-81.69875,1.531653280790562,1.927761257559999
-81.698125,1.531319312012533,1.928098706783876
-81.69750000000001,1.531319312012531,1.928436156007756
-81.69687500000001,1.530985343234502,1.92809870678388
-81.69625000000001,1.5309853432345,1.928098706783878
-81.69562500000001,1.531319312012529,1.928098706783878
-81.69500000000001,1.530985343234503,1.928098706783878
-81.69437500000001,1.530651374456472,1.927761257560001
-81.69375000000001,1.53031740567844,1.927423808336121
-81.69312499999999,1.529983436900398,1.927086359112234
-81.6925,1.529315499344339,1.926748909888351
-81.691875,1.528981530566308,1.926074011440589
-81.69125,1.528647561788279,1.925061663768958
-81.690625,1.528647561788279,1.925061663768953
-81.69,1.528647561788279,1.924386765321198
-81.689375,1.528647561788279,1.924386765321198
-81.68875,1.528647561788279,1.924386765321198
-81.688125,1.528647561788278,1.924386765321197
-81.6875,1.528313593010248,1.924049316097319
-81.686875,1.528313593010248,1.924386765321198
-81.68625,1.528647561788279,1.924386765321197
-81.685625,1.528647561788279,1.923711866873438
-81.685,1.528313593010248,1.923711866873438
-81.684375,1.528313593010248,1.923711866873438
-81.68375,1.528313593010248,1.923711866873438
-81.683125,1.527979624232217,1.923711866873438
-81.6825,1.528647561788276,1.924724214545073
-81.68187500000001,1.528981530566309,1.925061663768956
-81.68125000000001,1.52931549934434,1.925399112992836
-81.68062500000001,1.529649468122371,1.926074011440593
-81.68000000000001,1.529983436900403,1.926748909888352
-81.67937500000001,1.529983436900405,1.927423808336111
-81.67875000000001,1.530317405678433,1.927086359112241
-81.67812500000001,1.530985343234492,1.927423808336114
-81.67749999999999,1.531319312012531,1.927423808336118
-81.676875,1.531319312012535,1.927423808336118
-81.67625,1.531653280790563,1.927423808336121
-81.675625,1.531653280790565,1.927761257559995
-81.675,1.531987249568592,1.92742380833612
-81.674375,1.531653280790563,1.927761257559998
-81.67375,1.531653280790561,1.927761257559999
-81.673125,1.531319312012531,1.928098706783876
-81.6725,1.531319312012531,1.927761257559998
-81.671875,1.531319312012531,1.927761257559998
-81.67125,1.531319312012531,1.927761257559999
-81.670625,1.531319312012531,1.928436156007758
-81.67,1.531319312012531,1.928436156007758
-81.669375,1.531319312012531,1.928436156007758
