Tests/day19_trial4.csv

#Digilent WaveForms Oscilloscope Acquisition
#Device Name: Discovery2
#Serial Number: SN:210321A29E56
#Date Time: 2023-05-19 03:48:12.886
#Sample rate: 1600Hz
#Samples: 56405
#Trigger: Source: Channel 1 Type: Edge Condition: Rising Level: 1.7 V Hyst.: Auto HoldOff: 100 ns
#Channel 1: Range: 200 mV/div Offset: -1.5 V Attenuation: 1 X Sample Mode: Average
#Channel 2: Range: 200 mV/div Offset: -1.5 V Attenuation: 1 X Sample Mode: Average

Time (s),Channel 1 (V),Channel 2 (V)
0,1.700219655040762,1.946336950559223
0.0006249999999994316,1.702557400815269,1.94701183870885
0.001249999999998863,1.700553618722835,1.950386279456984
0.001874999999998295,1.702891364497341,1.94802417093329
0.002499999999997726,1.700553618722835,1.94903650315773
0.003124999999997158,1.69988569135869,1.94802417093329
0.003749999999996589,1.699217763994555,1.94566206240963
0.004374999999996021,1.693540381399398,1.946674394634022
0.004999999999995453,1.69287245403518,1.953085832055398
0.005624999999994884,1.692538490353103,1.950723723531832
0.006250000000008527,1.693206417717209,1.94903650315774
0.006875000000007958,1.690868671942731,1.949711391307298
0.00750000000000739,1.690534708260664,1.94566206240965
0.008125000000006821,1.690534708260674,1.949373947232554
0.008750000000006253,1.691202635624809,1.950048835382171
0.009375000000005684,1.695210199809677,1.949373947232544
0.01000000000000512,1.694876236127605,1.947686726858477
0.01062500000000455,1.696546054537966,1.947686726858477
0.01125000000000398,1.69988569135869,1.94701183870885
0.01187500000000341,1.69988569135869,1.94903650315773
0.01250000000000284,1.703893255543558,1.951061167606611
0.01312500000000227,1.70556307395392,1.945324618334783
0.01375000000000171,1.70689892868221,1.94701183870885
0.01437500000000114,1.708234783410499,1.948699059082917
0.01500000000000057,1.707232892364282,1.945324618334783
0.015625,1.70689892868221,1.945662062409596
0.01624999999999943,1.706564965000137,1.945662062409596
0.01687499999999886,1.705229110271848,1.943974842035529
0.01749999999999829,1.703225328179414,1.945662062409596
0.01812499999999773,1.70122154608698,1.941275289437021
0.01874999999999716,1.69988569135869,1.942287621661462
0.01937499999999659,1.697881909266285,1.943974842035504
0.01999999999999602,1.698549836630391,1.938575736838593
0.02062499999999545,1.695544163491793,1.938575736838514
0.02124999999999488,1.693874345081412,1.933176631641578
0.02187500000000853,1.699217763994526,1.926090306070442
0.02250000000000796,1.69788190926628,1.927777526444543
0.02312500000000739,1.699551727676613,1.93182685534226
0.02375000000000682,1.699217763994545,1.932839187566735
0.02437500000000625,1.699217763994545,1.93621362831482
0.02500000000000568,1.702223437133197,1.939925513137768
0.02562500000000512,1.70556307395392,1.941612733511835
0.02625000000000455,1.707566856046354,1.944312286110342
0.02687500000000398,1.710572529185006,1.945324618334783
0.02750000000000341,1.710906492867078,1.947349282783663
0.02812500000000284,1.713244238641584,1.943299953885902
0.02875000000000227,1.719923512283032,1.943299953885902
0.02937500000000171,1.719923512283032,1.943974842035529
0.03000000000000114,1.722261258057538,1.945999506484409
0.03062500000000057,1.7239310764679,1.938238292763701
0.03125,1.721927294375466,1.937563404614074
0.03187499999999943,1.721593330693393,1.939925513137768
0.03249999999999886,1.720925403329249,1.935876184240007
0.03312499999999829,1.71825369387267,1.933851519791126
0.03374999999999773,1.717251802826453,1.936551072389633
0.03437499999999716,1.713912166005729,1.933176631641499
0.03499999999999659,1.708568747092649,1.936213628314776
0.03562499999999602,1.707566856046369,1.937225960539245
0.03624999999999545,1.706564965000152,1.93722596053926
0.03687499999999488,1.705229110271867,1.938238292763686
0.03750000000000853,1.704561182907664,1.936888516464442
0.03812500000000796,1.701889473451153,1.936551072389619
0.03875000000000739,1.703893255543626,1.935538740165183
0.03937500000000682,1.708568747092552,1.934863852015556
0.04000000000000625,1.707232892364282,1.934188963865939
0.04062500000000568,1.708568747092571,1.933851519791126
0.04125000000000512,1.709904601820861,1.932501743491872
0.04187500000000455,1.711908383913295,1.933176631641499
0.04250000000000398,1.716583875462308,1.932164299417059
0.04312500000000341,1.717251802826453,1.934526407940753
0.04375000000000284,1.716249911780236,1.935538740165193
0.04437500000000227,1.719589548600959,1.93722596053926
0.04500000000000171,1.720257475965104,1.934188963865939
0.04562500000000114,1.721259367011321,1.933176631641499
0.04625000000000057,1.721259367011321,1.934188963865939
0.046875,1.717919730190598,1.938913180913327
0.04749999999999943,1.717919730190598,1.93621362831482
0.04812499999999886,1.719923512283032,1.932501743491872
0.04874999999999829,1.717251802826453,1.929802190893365
0.04937499999999773,1.714914057051946,1.93621362831482
0.04999999999999716,1.711908383913295,1.938575736838514
0.05062499999999659,1.71124045654916,1.937563404614088
0.05124999999999602,1.712910274959488,1.937563404614074
0.05187499999999545,1.71057252918504,1.938238292763691
0.05249999999999488,1.707566856046398,1.938913180913318
0.05312500000000853,1.708234783410484,1.941950177586678
0.05375000000000796,1.707232892364306,1.943974842035553
0.05437500000000739,1.708902710774673,1.945662062409566
0.05500000000000682,1.710906492867068,1.94363739796071
0.05562500000000625,1.710238565502933,1.943299953885902
0.05625000000000568,1.711908383913295,1.941950177586648
0.05687500000000512,1.714580093369874,1.937563404614074
0.05750000000000455,1.713912166005729,1.937563404614074
0.05812500000000398,1.71691783914438,1.939925513137768
0.05875000000000341,1.718587657554742,1.93722596053926
0.05937500000000284,1.717251802826453,1.935538740165193
0.06000000000000227,1.71691783914438,1.934188963865939
0.06062500000000171,1.715581984416091,1.932501743491872
0.06125000000000114,1.715248020734019,1.932839187566685
0.06187500000000057,1.71691783914438,1.933514075716313
0.0625,1.713244238641584,1.935201296090379
0.06312499999999943,1.709236674456716,1.936551072389633
0.06374999999999886,1.707900819728427,1.939588069062954
0.06437499999999829,1.706231001318065,1.938575736838514
0.06499999999999773,1.705229110271848,1.938575736838514
0.06562499999999716,1.705229110271848,1.941275289437021
0.06624999999999659,1.702891364497375,1.942625065736256
0.06687499999999602,1.702223437133206,1.944649730185126
0.06749999999999545,1.702891364497332,1.944312286110347
0.06812499999999488,1.703225328179409,1.943299953885917
0.06875000000000853,1.706564965000176,1.942287621661496
0.06937500000000796,1.709236674456711,1.944649730185111
0.07000000000000739,1.708902710774673,1.941612733511869
0.07062500000000682,1.710906492867097,1.943974842035504
0.07125000000000625,1.712242347595367,1.942287621661462
0.07187500000000568,1.714580093369874,1.944987174259969
0.07250000000000512,1.715581984416091,1.942962509811089
0.07312500000000455,1.715581984416091,1.940600401287395
0.07375000000000398,1.713244238641584,1.939925513137768
0.07437500000000341,1.713912166005729,1.941612733511835
0.07500000000000284,1.713244238641584,1.939925513137768
0.07562500000000227,1.712910274959512,1.939588069062954
0.07625000000000171,1.711574420231223,1.93722596053926
0.07687500000000114,1.708234783410499,1.938913180913327
0.07750000000000057,1.705897037635993,1.940600401287395
0.078125,1.70556307395392,1.941612733511835
0.07874999999999943,1.702557400815269,1.943299953885902
0.07937499999999886,1.702223437133197,1.945999506484409
0.07999999999999829,1.700219655040762,1.940600401287395
0.08062499999999773,1.699217763994545,1.944312286110342
0.08124999999999716,1.700553618722835,1.944312286110342
0.08187499999999659,1.70122154608697,1.942962509811108
0.08249999999999602,1.701555509769047,1.944312286110323
0.08312499999999545,1.703225328179389,1.945999506484385
0.08374999999999488,1.704227219225616,1.94363739796075
0.08437500000000853,1.706898928682229,1.943974842035553
0.08500000000000796,1.708234783410489,1.945662062409576
0.08562500000000739,1.707566856046398,1.944312286110313
0.08625000000000682,1.71057252918502,1.942287621661501
0.08687500000000625,1.711574420231223,1.944987174259969
0.08750000000000568,1.710572529185006,1.946674394634036
0.08812500000000512,1.712910274959512,1.946336950559223
0.08875000000000455,1.712242347595367,1.944312286110342
0.08937500000000398,1.710906492867078,1.943637397960715
0.09000000000000341,1.710238565502933,1.943974842035529
0.09062500000000284,1.707900819728427,1.944312286110342
0.09125000000000227,1.70689892868221,1.943299953885902
0.09187500000000171,1.706564965000137,1.945324618334783
0.09250000000000114,1.704561182907703,1.943637397960715
0.09312500000000057,1.701889473451124,1.944312286110342
0.09375,1.699217763994545,1.945662062409596
0.09437499999999943,1.697881909266256,1.942962509811089
0.09499999999999886,1.69988569135869,1.942962509811089
0.09562499999999829,1.698883800312473,1.944649730185156
0.09624999999999773,1.696212090855894,1.947686726858477
0.09687499999999716,1.698549836630401,1.94802417093329
0.09749999999999659,1.698549836630401,1.945324618334822
0.09812499999999602,1.700553618722806,1.947349282783634
0.09874999999999545,1.701889473451105,1.943299953885961
0.09937499999999488,1.702223437133192,1.944987174259944
0.1000000000000085,1.703559291861535,1.947686726858457
0.100625000000008,1.706898928682219,1.946336950559179
0.1012500000000074,1.707566856046379,1.943299953885882
0.1018750000000068,1.709236674456731,1.941950177586648
0.1025000000000063,1.710238565502933,1.941950177586648
0.1031250000000057,1.710238565502933,1.943299953885902
0.1037500000000051,1.710906492867078,1.945324618334783
0.1043750000000045,1.708902710774644,1.944987174259969
0.105000000000004,1.707900819728427,1.944987174259969
0.1056250000000034,1.70689892868221,1.943974842035529
0.1062500000000028,1.704561182907703,1.947686726858477
0.1068750000000023,1.702557400815269,1.947686726858477
0.1075000000000017,1.702223437133197,1.945662062409596
0.1081250000000011,1.700887582404907,1.944987174259969
0.1087500000000006,1.699217763994545,1.948699059082917
0.109375,1.697881909266256,1.950723723531797
0.1099999999999994,1.696212090855894,1.951061167606611
0.1106249999999989,1.698549836630401,1.950386279456984
0.1112499999999983,1.699551727676618,1.950048835382171
0.1118749999999977,1.700219655040762,1.946674394634036
0.1124999999999972,1.70122154608698,1.947349282783663
0.1131249999999966,1.70122154608698,1.945999506484429
0.113749999999996,1.703559291861452,1.945324618334792
0.1143749999999955,1.704227219225621,1.948699059082868
0.1149999999999949,1.704227219225631,1.9480241709333
0.1156250000000085,1.705563073953925,1.945324618334817
0.116250000000008,1.705897037635988,1.947686726858535
0.1168750000000074,1.70556307395394,1.951736055756228
0.1175000000000068,1.706898928682205,1.951061167606537
0.1181250000000063,1.706564965000137,1.945999506484409
0.1187500000000057,1.707566856046354,1.94802417093329
0.1193750000000051,1.704895146589775,1.950386279456984
0.1200000000000045,1.703893255543558,1.949711391307357
0.120625000000004,1.702891364497341,1.948699059082917
0.1212500000000034,1.700219655040762,1.952748387980678
0.1218750000000028,1.70122154608698,1.950723723531797
0.1225000000000023,1.700219655040762,1.947349282783663
0.1231250000000017,1.698549836630401,1.94802417093329
0.1237500000000011,1.695544163491749,1.952073499831051
0.1243750000000006,1.696880018220039,1.948361615008103
0.125,1.697213981902111,1.949711391307357
0.1256249999999994,1.695878127173822,1.953760720205118
0.1262499999999989,1.696880018220039,1.953760720205118
0.1268749999999983,1.696546054537966,1.947686726858477
0.1274999999999977,1.696212090855894,1.952410943905865
0.1281249999999972,1.698215872948328,1.952748387980678
0.1287499999999966,1.700553618722801,1.953423276130295
0.129374999999996,1.700553618722835,1.952073499831071
0.1299999999999955,1.702223437133172,1.955447940579136
0.1306249999999949,1.699217763994589,1.949373947232632
0.1312500000000085,1.706564965000118,1.949036503157671
0.131875000000008,1.705229110271794,1.944987174260185
0.1325000000000074,1.701555509769037,1.959834713551618
0.1331250000000068,1.700553618722859,1.950048835382161
0.1337500000000063,1.702223437133197,1.949373947232544
0.1343750000000057,1.70122154608698,1.951398611681424
0.1350000000000051,1.69988569135869,1.945999506484409
0.1356250000000045,1.701889473451124,1.958147493177693
0.136250000000004,1.693206417717243,1.947686726858477
0.1368750000000034,1.697547945584184,1.94903650315773
0.1375000000000028,1.688196962486157,1.95983471355176
0.1381250000000023,1.690868671942736,1.945324618334783
0.1387500000000017,1.700219655040762,1.946336950559223
0.1393750000000011,1.691202635624809,1.955785384653999
0.1400000000000006,1.695878127173822,1.956797716878439
0.140625,1.690534708260664,1.946674394634036
0.1412499999999994,1.690200744578592,1.957135160953253
0.1418749999999989,1.697547945584184,1.94903650315773
0.1424999999999983,1.70122154608698,1.949373947232544
0.1431249999999977,1.700219655040762,1.949711391307357
0.1437499999999972,1.697213981902111,1.954098164279932
0.1443749999999966,1.697881909266246,1.950048835382229
0.144999999999996,1.703225328179336,1.955110496504298
0.1456249999999955,1.702891364497346,1.958484937252457
0.1462499999999949,1.698549836630464,1.95544794057923
0.1468750000000085,1.701555509769042,1.953085832055433
0.147500000000008,1.700887582404907,1.949036503157819
0.1481250000000074,1.700887582404917,1.955110496504367
0.1487500000000068,1.701555509769008,1.954773052429539
0.1493750000000063,1.698549836630401,1.953423276130305
0.1500000000000057,1.696880018220039,1.951736055756238
0.1506250000000051,1.702891364497341,1.952410943905865
0.1512500000000045,1.702557400815269,1.948699059082917
0.151875000000004,1.694542272445532,1.953423276130305
0.1525000000000034,1.70122154608698,1.949373947232544
0.1531250000000028,1.698549836630401,1.947686726858477
0.1537500000000023,1.696546054537966,1.960172157626574
0.1543750000000017,1.697547945584184,1.949373947232544
0.1550000000000011,1.691536599306881,1.950386279456984
0.1556250000000006,1.691536599306881,1.952748387980678
0.15625,1.695544163491749,1.953085832055491
0.1568749999999994,1.689532817214447,1.952410943905865
0.1574999999999989,1.693540381399315,1.955110496504372
0.1581249999999983,1.692872454035171,1.954773052429559
0.1587499999999977,1.692538490353098,1.953760720205118
0.1593749999999972,1.700553618722835,1.956122828728812
0.1599999999999966,1.694876236127687,1.950386279457067
0.160624999999996,1.699885691358617,1.954773052429495
0.1612499999999955,1.703225328179365,1.952748387980707
0.1618749999999949,1.703225328179414,1.952073499831061
0.1625000000000085,1.701889473451197,1.952410943905825
0.163125000000008,1.706898928682142,1.949711391307333
0.1637500000000074,1.702223437133226,1.948024170933349
0.1643750000000068,1.704227219225602,1.952073499831081
0.1650000000000063,1.702223437133197,1.954098164279932
0.1656250000000057,1.697881909266256,1.957472605028066
0.1662500000000051,1.700553618722835,1.947349282783663
0.1668750000000045,1.701889473451124,1.951061167606611
0.167500000000004,1.695210199809677,1.94802417093329
0.1681250000000034,1.696546054537966,1.952073499831051
0.1687500000000028,1.693540381399315,1.951736055756238
0.1693750000000023,1.69420830876346,1.947686726858477
0.1700000000000017,1.697881909266256,1.955785384653999
0.1706250000000011,1.693874345081388,1.952073499831051
0.1712500000000006,1.694876236127605,1.948699059082917
0.171875,1.693206417717243,1.949711391307357
0.1724999999999994,1.694542272445532,1.947686726858477
0.1731249999999989,1.696880018220039,1.947349282783663
0.1737499999999983,1.697881909266256,1.952410943905865
0.1743749999999977,1.697881909266256,1.950723723531797
0.1749999999999972,1.699551727676618,1.951736055756238
0.1756249999999966,1.702223437133158,1.950723723531812
0.176249999999996,1.701221546086994,1.950386279456989
0.1768749999999955,1.706231001317992,1.953423276130261
0.1774999999999949,1.707566856046335,1.949036503157794
0.1781250000000085,1.707566856046364,1.95004883538221
0.178750000000008,1.708234783410431,1.952748387980663
0.1793750000000074,1.703559291861515,1.951736055756228
0.1800000000000068,1.705563073953944,1.951061167606527
0.1806250000000063,1.707232892364282,1.945324618334783
0.1812500000000057,1.703559291861486,1.948361615008103
0.1818750000000051,1.702557400815269,1.950048835382171
0.1825000000000045,1.699551727676618,1.947686726858477
0.183125000000004,1.698215872948328,1.950386279456984
0.1837500000000034,1.700553618722835,1.946336950559223
0.1843750000000028,1.697213981902111,1.947686726858477
0.1850000000000023,1.695210199809677,1.950723723531797
0.1856250000000017,1.693206417717243,1.94903650315773
0.1862500000000011,1.694876236127605,1.951398611681424
0.1868750000000006,1.696546054537966,1.945662062409596
0.1875,1.698883800312473,1.949711391307357
0.1881249999999994,1.697547945584184,1.948361615008103
0.1887499999999989,1.698549836630401,1.950386279456984
0.1893749999999983,1.69988569135869,1.953085832055491
0.1899999999999977,1.702891364497341,1.947349282783663
0.1906249999999972,1.705229110271848,1.951061167606611
0.1912499999999966,1.705563073953915,1.94903650315776
0.191874999999996,1.707232892364258,1.948361615008113
0.1924999999999955,1.70890271077462,1.946336950559252
0.1931249999999949,1.706231001318104,1.949036503157691
0.1937500000000085,1.708234783410504,1.948361615008098
0.194375000000008,1.708568747092537,1.948024170933309
0.1950000000000074,1.70623100131807,1.949373947232563
0.1956250000000068,1.706564965000079,1.950723723531743
0.1962500000000063,1.702557400815269,1.94701183870885
0.1968750000000057,1.69988569135869,1.952073499831051
0.1975000000000051,1.699551727676618,1.949711391307357
0.1981250000000045,1.70122154608698,1.947349282783663
0.198750000000004,1.696546054537966,1.952073499831051
0.1993750000000034,1.695544163491749,1.953423276130305
0.2000000000000028,1.695544163491749,1.945662062409596
0.2006250000000023,1.695210199809677,1.953085832055491
0.2012500000000017,1.696212090855894,1.950386279456984
0.2018750000000011,1.697881909266256,1.94701183870885
0.2025000000000006,1.696546054537966,1.950386279456984
0.203125,1.695544163491749,1.954098164279932
0.2037499999999994,1.702891364497341,1.943974842035529
0.2043749999999989,1.70556307395392,1.944649730185156
0.2049999999999983,1.700553618722835,1.958147493177693
0.2056249999999977,1.699551727676618,1.950048835382171
0.2062499999999972,1.707566856046354,1.945999506484409
0.2068749999999966,1.707232892364287,1.948361615008069
0.207499999999996,1.708234783410484,1.950386279456954
0.2081249999999955,1.704561182907757,1.948024170933324
0.2087499999999949,1.704227219225636,1.951061167606567
0.2093750000000085,1.704895146589839,1.95274838798058
0.210000000000008,1.709236674456687,1.945999506484409
0.2106250000000074,1.707232892364165,1.945999506484507
0.2112500000000068,1.699217763994536,1.952748387980678
0.2118750000000063,1.698549836630401,1.952748387980678
0.2125000000000057,1.702557400815269,1.948699059082917
0.2131250000000051,1.70122154608698,1.946336950559223
0.2137500000000045,1.698883800312473,1.950048835382171
0.214375000000004,1.698215872948328,1.94701183870885
0.2150000000000034,1.696880018220039,1.951061167606611
0.2156250000000028,1.696880018220039,1.949711391307357
0.2162500000000023,1.700553618722835,1.947686726858477
0.2168750000000017,1.697547945584184,1.948699059082917
0.2175000000000011,1.697213981902111,1.951398611681424
0.2181250000000006,1.701555509769052,1.947349282783663
0.21875,1.702557400815269,1.946336950559223
0.2193749999999994,1.701555509769052,1.949373947232544
0.2199999999999989,1.702891364497341,1.946674394634036
0.2206249999999983,1.703225328179414,1.943974842035529
0.2212499999999977,1.705229110271848,1.945324618334783
0.2218749999999972,1.706231001318065,1.945324618334783
