Tests/day19_trial8.csv

#Digilent WaveForms Oscilloscope Acquisition
#Device Name: Discovery2
#Serial Number: SN:210321A29E56
#Date Time: 2023-05-19 04:01:59.724
#Sample rate: 1600Hz
#Samples: 33571
#Trigger: Source: Channel 1 Type: Edge Condition: Rising Level: 1.7 V Hyst.: Auto HoldOff: 100 ns
#Channel 1: Range: 200 mV/div Offset: -1.5 V Attenuation: 1 X Sample Mode: Average
#Channel 2: Range: 200 mV/div Offset: -1.5 V Attenuation: 1 X Sample Mode: Average

Time (s),Channel 1 (V),Channel 2 (V)
0,1.693206417717243,1.947349282783663
0.0006249999999994316,1.695878127173822,1.947686726858477
0.001249999999998863,1.701889473451124,1.94903650315773
0.001874999999998295,1.702223437133197,1.944649730185156
0.002499999999997726,1.699217763994545,1.950723723531797
0.003124999999997158,1.699217763994545,1.946336950559223
0.003749999999996589,1.702223437133153,1.944987174259989
0.004374999999996021,1.703225328179399,1.949711391307288
0.004999999999995453,1.702891364497346,1.948024170933315
0.005624999999994884,1.700553618722869,1.949373947232524
0.006250000000008527,1.69921776399455,1.948024170933295
0.006875000000007958,1.699551727676593,1.948361615008089
0.00750000000000739,1.697881909266241,1.947349282783653
0.008125000000006821,1.696880018220019,1.946674394634061
0.008750000000006253,1.695544163491749,1.948361615008103
0.009375000000005684,1.694542272445532,1.950723723531797
0.01000000000000512,1.695544163491749,1.947349282783663
0.01062500000000455,1.69420830876346,1.947686726858477
0.01125000000000398,1.692538490353098,1.94701183870885
0.01187500000000341,1.693206417717243,1.94903650315773
0.01250000000000284,1.694876236127605,1.948361615008103
0.01312500000000227,1.694876236127605,1.947686726858477
0.01375000000000171,1.695544163491749,1.948699059082917
0.01437500000000114,1.695878127173822,1.94701183870885
0.01500000000000057,1.697881909266256,1.947349282783663
0.015625,1.699551727676618,1.949711391307357
0.01624999999999943,1.700887582404907,1.948361615008103
0.01687499999999886,1.703225328179414,1.947686726858477
0.01749999999999829,1.704895146589775,1.944987174259969
0.01812499999999773,1.704895146589775,1.94802417093329
0.01874999999999716,1.705229110271848,1.947686726858477
0.01937499999999659,1.70623100131805,1.947686726858477
0.01999999999999602,1.705229110271862,1.946336950559242
0.02062499999999545,1.705897037635983,1.947686726858457
0.02124999999999488,1.70623100131806,1.947349282783668
0.02187500000000853,1.703893255543573,1.948024170933231
0.02250000000000796,1.704895146589742,1.943974842035568
0.02312500000000739,1.702557400815254,1.946674394634041
0.02375000000000682,1.701555509769062,1.947011838708825
0.02437500000000625,1.702223437133197,1.945324618334783
0.02500000000000568,1.69988569135869,1.946674394634036
0.02562500000000512,1.698883800312473,1.94802417093329
0.02625000000000455,1.698549836630401,1.945662062409596
0.02687500000000398,1.697547945584184,1.94802417093329
0.02750000000000341,1.698215872948328,1.947686726858477
0.02812500000000284,1.699551727676618,1.945999506484409
0.02875000000000227,1.700219655040762,1.946336950559223
0.02937500000000171,1.700553618722835,1.946336950559223
0.03000000000000114,1.702223437133197,1.948361615008103
0.03062500000000057,1.704227219225631,1.946674394634036
0.03125,1.706564965000137,1.945662062409596
0.03187499999999943,1.707900819728427,1.946336950559223
0.03249999999999886,1.708568747092571,1.945324618334783
0.03312499999999829,1.710906492867078,1.946674394634036
0.03374999999999773,1.710906492867078,1.944649730185156
0.03437499999999716,1.711908383913295,1.944649730185156
0.03499999999999659,1.71124045654916,1.944312286110347
0.03562499999999602,1.711908383913285,1.944987174259959
0.03624999999999545,1.710572529185025,1.944312286110352
0.03687499999999488,1.708234783410533,1.946674394634002
0.03750000000000853,1.707900819728412,1.944312286110342
0.03812500000000796,1.706898928682195,1.944312286110377
0.03875000000000739,1.705897037635988,1.946674394634012
0.03937500000000682,1.705563073953891,1.944987174259994
0.04000000000000625,1.703559291861486,1.946674394634036
0.04062500000000568,1.701555509769052,1.94701183870885
0.04125000000000512,1.701889473451124,1.945662062409596
0.04187500000000455,1.702557400815269,1.945999506484409
0.04250000000000398,1.702891364497341,1.946674394634036
0.04312500000000341,1.703225328179414,1.944987174259969
0.04375000000000284,1.703225328179414,1.946336950559223
0.04437500000000227,1.704561182907703,1.945324618334783
0.04500000000000171,1.706231001318065,1.944649730185156
0.04562500000000114,1.708902710774644,1.945662062409596
0.04625000000000057,1.709236674456716,1.944312286110342
0.046875,1.71124045654915,1.945999506484409
0.04749999999999943,1.71257631127744,1.943974842035529
0.04812499999999886,1.713578202323657,1.945324618334783
0.04874999999999829,1.713912166005729,1.944312286110342
0.04937499999999773,1.713578202323657,1.945999506484409
0.04999999999999716,1.714246129687802,1.943974842035529
0.05062499999999659,1.714246129687802,1.945324618334763
0.05124999999999602,1.712576311277464,1.946674394634017
0.05187499999999545,1.710238565502967,1.945324618334802
0.05249999999999488,1.709570638138798,1.942962509811123
0.05312500000000853,1.708234783410514,1.944312286110352
0.05375000000000796,1.709236674456701,1.944987174259959
0.05437500000000739,1.708234783410484,1.944312286110357
0.05500000000000682,1.707232892364282,1.945324618334768
0.05562500000000625,1.707232892364282,1.944312286110342
0.05625000000000568,1.707232892364282,1.945324618334783
0.05687500000000512,1.707900819728427,1.946336950559223
0.05750000000000455,1.707566856046354,1.944312286110342
0.05812500000000398,1.707900819728427,1.94701183870885
0.05875000000000341,1.707566856046354,1.944312286110342
0.05937500000000284,1.707566856046354,1.94802417093329
0.06000000000000227,1.707900819728427,1.945324618334783
0.06062500000000171,1.709904601820861,1.945999506484409
0.06125000000000114,1.711574420231223,1.945662062409596
0.06187500000000057,1.711574420231223,1.945999506484409
0.0625,1.713578202323657,1.946674394634036
0.06312499999999943,1.714580093369874,1.944987174259969
0.06374999999999886,1.716249911780236,1.944987174259969
0.06437499999999829,1.715581984416091,1.945999506484409
0.06499999999999773,1.717251802826453,1.945324618334783
0.06562499999999716,1.716583875462308,1.943299953885902
0.06624999999999659,1.714580093369903,1.947349282783604
0.06687499999999602,1.712910274959536,1.947011838708855
0.06749999999999545,1.711574420231242,1.946336950559233
0.06812499999999488,1.711240456549155,1.946674394634031
0.06875000000000853,1.710572529184991,1.945324618334753
0.06937500000000796,1.709570638138764,1.943299953885941
0.07000000000000739,1.707900819728412,1.94599950648439
0.07062500000000682,1.70689892868221,1.944649730185185
0.07125000000000625,1.70689892868221,1.946674394634036
0.07187500000000568,1.706564965000137,1.947349282783663
0.07250000000000512,1.707566856046354,1.943637397960715
0.07312500000000455,1.708234783410499,1.94701183870885
0.07375000000000398,1.70689892868221,1.945662062409596
0.07437500000000341,1.708568747092571,1.944312286110342
0.07500000000000284,1.709570638138789,1.947349282783663
0.07562500000000227,1.709904601820861,1.948699059082917
0.07625000000000171,1.713244238641584,1.944649730185156
0.07687500000000114,1.713244238641584,1.944312286110342
0.07750000000000057,1.713244238641584,1.943974842035529
0.078125,1.715581984416091,1.948361615008103
0.07874999999999943,1.714914057051946,1.946336950559223
0.07937499999999886,1.71691783914438,1.943637397960715
0.07999999999999829,1.717251802826453,1.944649730185156
0.08062499999999773,1.715915948098163,1.94802417093329
0.08124999999999716,1.715248020734019,1.947349282783663
0.08187499999999659,1.713912166005749,1.945662062409621
0.08249999999999602,1.714246129687797,1.943974842035553
0.08312499999999545,1.712576311277464,1.947011838708806
0.08374999999999488,1.710238565502967,1.947686726858467
0.08437500000000853,1.709904601820851,1.947686726858457
0.08500000000000796,1.709236674456731,1.946336950559237
0.08562500000000739,1.710238565502904,1.947349282783653
0.08625000000000682,1.708234783410514,1.946674394634017
0.08687500000000625,1.709236674456716,1.945324618334783
0.08750000000000568,1.707900819728427,1.94903650315773
0.08812500000000512,1.709904601820861,1.946674394634036
0.08875000000000455,1.71257631127744,1.945324618334783
0.08937500000000398,1.71124045654915,1.947349282783663
0.09000000000000341,1.712910274959512,1.946674394634036
0.09062500000000284,1.714580093369874,1.946336950559223
0.09125000000000227,1.714580093369874,1.944987174259969
0.09187500000000171,1.715915948098163,1.943299953885902
0.09250000000000114,1.71691783914438,1.945662062409596
0.09312500000000057,1.718921621236815,1.944987174259969
0.09375,1.719923512283032,1.945324618334783
0.09437499999999943,1.717585766508525,1.944312286110342
0.09499999999999886,1.717919730190598,1.938575736838514
0.09562499999999829,1.717251802826453,1.945324618334783
0.09624999999999773,1.717251802826453,1.949373947232544
0.09687499999999716,1.717585766508525,1.945999506484409
0.09749999999999659,1.713244238641648,1.947011838708835
0.09812499999999602,1.712242347595382,1.946336950559233
0.09874999999999545,1.71324423864157,1.942962509811138
0.09937499999999488,1.711908383913314,1.951398611681302
0.1000000000000085,1.712910274959497,1.945999506484454
0.100625000000008,1.71190838391331,1.949036503157622
0.1012500000000074,1.712910274959536,1.941612733511913
0.1018750000000068,1.714580093369825,1.947011838708869
0.1025000000000063,1.71124045654915,1.948361615008103
0.1031250000000057,1.71691783914438,1.941275289437021
0.1037500000000051,1.717585766508525,1.94701183870885
0.1043750000000045,1.714914057051946,1.947349282783663
0.105000000000004,1.720591439647176,1.944312286110342
0.1056250000000034,1.714246129687802,1.948361615008103
0.1062500000000028,1.719923512283032,1.945324618334783
0.1068750000000023,1.721927294375466,1.942962509811089
0.1075000000000017,1.718587657554742,1.946674394634036
0.1081250000000011,1.721927294375466,1.945324618334783
0.1087500000000006,1.718587657554742,1.942962509811089
0.109375,1.719589548600959,1.94701183870885
0.1099999999999994,1.719923512283032,1.940937845362208
0.1106249999999989,1.719255584918887,1.947686726858477
0.1112499999999983,1.715248020734019,1.942962509811089
0.1118749999999977,1.715581984416091,1.945999506484409
0.1124999999999972,1.71691783914438,1.944312286110342
0.1131249999999966,1.714914057051975,1.944987174259959
0.113749999999996,1.715581984416081,1.947349282783629
0.1143749999999955,1.714914057051956,1.942962509811152
0.1149999999999949,1.716249911780216,1.945324618334748
0.1156250000000085,1.718921621236795,1.945999506484429
0.116250000000008,1.71758576650851,1.947349282783663
0.1168750000000074,1.716583875462342,1.947349282783644
0.1175000000000068,1.718921621236824,1.945999506484454
0.1181250000000063,1.719589548600959,1.94903650315773
0.1187500000000057,1.719255584918887,1.942287621661462
0.1193750000000051,1.720591439647176,1.947686726858477
0.1200000000000045,1.716249911780236,1.944649730185156
0.120625000000004,1.719923512283032,1.942962509811089
0.1212500000000034,1.720257475965104,1.946336950559223
0.1218750000000028,1.716249911780236,1.943299953885902
0.1225000000000023,1.719589548600959,1.946674394634036
0.1231250000000017,1.716583875462308,1.942962509811089
0.1237500000000011,1.717919730190598,1.944312286110342
0.1243750000000006,1.717919730190598,1.94802417093329
0.125,1.71691783914438,1.945324618334783
0.1256249999999994,1.718587657554742,1.945662062409596
0.1262499999999989,1.719255584918887,1.945662062409596
0.1268749999999983,1.720257475965104,1.942625065736275
0.1274999999999977,1.719589548600959,1.945324618334783
0.1281249999999972,1.720591439647176,1.945662062409596
0.1287499999999966,1.720925403329244,1.945324618334787
0.129374999999996,1.720925403329249,1.947349282783634
0.1299999999999955,1.723263149103721,1.943637397960769
0.1306249999999949,1.71992351228308,1.943299953885907
0.1312500000000085,1.722929185421654,1.94464973018516
0.131875000000008,1.720925403329244,1.944987174259979
0.1325000000000074,1.720591439647196,1.945662062409566
0.1331250000000068,1.721927294375437,1.94363739796075
0.1337500000000063,1.719923512283032,1.945999506484409
0.1343750000000057,1.719255584918887,1.943637397960715
0.1350000000000051,1.719589548600959,1.947349282783663
0.1356250000000045,1.717919730190598,1.944987174259969
0.136250000000004,1.719255584918887,1.944987174259969
0.1368750000000034,1.719589548600959,1.94701183870885
0.1375000000000028,1.71825369387267,1.943637397960715
0.1381250000000023,1.719589548600959,1.944987174259969
0.1387500000000017,1.718921621236815,1.945662062409596
0.1393750000000011,1.719589548600959,1.943974842035529
0.1400000000000006,1.719923512283032,1.942962509811089
0.140625,1.719923512283032,1.945999506484409
0.1412499999999994,1.720591439647176,1.943974842035529
0.1418749999999989,1.721927294375466,1.94701183870885
0.1424999999999983,1.721593330693393,1.943974842035529
0.1431249999999977,1.721593330693393,1.943299953885902
0.1437499999999972,1.721593330693393,1.949373947232544
0.1443749999999966,1.722261258057528,1.942962509811182
0.144999999999996,1.724932967514078,1.942962509811089
0.1456249999999955,1.721259367011374,1.942962509811089
0.1462499999999949,1.720591439647186,1.945999506484365
0.1468750000000085,1.720257475965109,1.943974842035514
0.147500000000008,1.720591439647201,1.942962509811128
0.1481250000000074,1.722261258057533,1.945662062409547
0.1487500000000068,1.721927294375437,1.942287621661531
0.1493750000000063,1.719923512283032,1.94701183870885
0.1500000000000057,1.719255584918887,1.945662062409596
0.1506250000000051,1.722595221739611,1.945662062409596
0.1512500000000045,1.722261258057538,1.944649730185156
0.151875000000004,1.722261258057538,1.945324618334783
0.1525000000000034,1.721927294375466,1.945662062409596
0.1531250000000028,1.719923512283032,1.944987174259969
0.1537500000000023,1.722929185421683,1.946336950559223
0.1543750000000017,1.721927294375466,1.944987174259969
0.1550000000000011,1.721927294375466,1.943299953885902
0.1556250000000006,1.723597112785828,1.946336950559223
0.15625,1.724265040149972,1.944312286110342
0.1568749999999994,1.722929185421683,1.944312286110342
0.1574999999999989,1.722929185421683,1.944987174259969
0.1581249999999983,1.724265040149972,1.942625065736275
0.1587499999999977,1.724265040149972,1.944987174259969
0.1593749999999972,1.725266931196189,1.944987174259969
0.1599999999999966,1.722929185421717,1.941950177586692
0.160624999999996,1.72326314910375,1.942962509811074
0.1612499999999955,1.724932967514093,1.944649730185131
0.1618749999999949,1.725266931196185,1.944312286110347
0.1625000000000085,1.724265040149967,1.944649730185151
0.163125000000008,1.72393107646788,1.944312286110367
0.1637500000000074,1.72259522173963,1.94599950648439
0.1643750000000068,1.72393107646789,1.944649730185146
0.1650000000000063,1.723263149103755,1.943974842035529
0.1656250000000057,1.722595221739611,1.942962509811089
0.1662500000000051,1.721593330693393,1.945662062409596
0.1668750000000045,1.722261258057538,1.944312286110342
0.167500000000004,1.721593330693393,1.943299953885902
0.1681250000000034,1.722595221739611,1.944312286110342
0.1687500000000028,1.722595221739611,1.942287621661462
0.1693750000000023,1.722261258057538,1.943974842035529
0.1700000000000017,1.723263149103755,1.944312286110342
0.1706250000000011,1.722595221739611,1.945999506484409
0.1712500000000006,1.724265040149972,1.942625065736275
0.171875,1.724265040149972,1.944649730185156
0.1724999999999994,1.724265040149972,1.933851519791126
0.1731249999999989,1.734951877976288,1.914954651601574
0.1737499999999983,1.726268822242407,1.93621362831482
0.1743749999999977,1.716583875462308,1.970970368020603
0.1749999999999972,1.726268822242407,1.944987174259969
0.1756249999999966,1.723263149103799,1.931489411267628
0.176249999999996,1.728272604334768,1.939588069062836
0.1768749999999955,1.727938640652773,1.934863852015635
0.1774999999999949,1.718253693872811,1.940262957212502
0.1781250000000085,1.720925403329322,1.964558930598957
0.178750000000008,1.725934858560344,1.951398611681292
0.1793750000000074,1.726602785924464,1.942287621661565
0.1800000000000068,1.725600894878267,1.949373947232593
0.1806250000000063,1.725934858560334,1.952748387980678
0.1812500000000057,1.727938640652768,1.938913180913327
0.1818750000000051,1.733282059565926,1.938575736838514
0.1825000000000045,1.724599003832045,1.945999506484409
0.183125000000004,1.725600894878262,1.946674394634036
0.1837500000000034,1.732614132201781,1.950048835382171
0.1843750000000028,1.734283950612143,1.932501743491872
0.1850000000000023,1.732614132201781,1.925077973845977
0.1856250000000017,1.72960845906313,1.941612733511835
0.1862500000000011,1.722929185421683,1.944987174259969
0.1868750000000006,1.727270713288624,1.94903650315773
0.1875,1.726936749606551,1.952410943905865
0.1881249999999994,1.721259367011321,1.952073499831051
0.1887499999999989,1.7239310764679,1.941275289437021
0.1893749999999983,1.721259367011321,1.938575736838514
0.1899999999999977,1.720257475965104,1.943637397960715
0.1906249999999972,1.722595221739611,1.936888516464447
0.1912499999999966,1.724932967514083,1.928452414594234
0.191874999999996,1.724265040149982,1.920353756798707
0.1924999999999955,1.72994242274512,1.893358230813907
0.1931249999999949,1.729942422745202,1.887621681541769
0.1937500000000085,1.724932967514141,1.904831329357264
0.194375000000008,1.726602785924557,1.911242766778567
0.1950000000000074,1.73194620483769,1.907193437880899
0.1956250000000068,1.73561980534034,1.909555546404593
0.1962500000000063,1.729274495381058,1.911917654928253
0.1968750000000057,1.73094431379142,1.916304427900827
0.1975000000000051,1.73094431379142,1.924740529771163
0.1981250000000045,1.734283950612143,1.929127302743738
0.198750000000004,1.742633042663952,1.92541541792079
0.1993750000000034,1.746974570530893,1.92541541792079
0.2000000000000028,1.749312316305399,1.929464746818551
0.2006250000000023,1.755657626264774,1.920691200873402
0.2012500000000017,1.762670863588294,1.917654204200081
0.2018750000000011,1.764340681998655,1.92541541792079
0.2025000000000006,1.766010500409017,1.927440082369671
0.203125,1.769684100911813,1.927102638294857
0.2037499999999994,1.76634446409109,1.92541541792079
0.2043749999999989,1.76634446409109,1.923728197546723
0.2049999999999983,1.762670863588294,1.92642775014523
0.2056249999999977,1.756993480993064,1.937563404614074
0.2062499999999972,1.755991589946846,1.935201296090379
0.2068749999999966,1.753653844172374,1.933851519791145
0.207499999999996,1.749312316305462,1.933176631641509
0.2081249999999955,1.749980243669534,1.928789858668988
0.2087499999999949,1.744970788438531,1.935201296090286
0.2093750000000085,1.740963224253566,1.933514075716268
0.210000000000008,1.73929340584317,1.930477079043016
0.2106250000000074,1.73528584165836,1.932164299417118
0.2112500000000068,1.735285841658336,1.936213628314815
0.2118750000000063,1.733616023247998,1.935876184240007
0.2125000000000057,1.729942422745202,1.935538740165193
0.2131250000000051,1.728940531698985,1.936551072389633
0.2137500000000045,1.729942422745202,1.936551072389633
0.214375000000004,1.731612241155564,1.941950177586648
0.2150000000000034,1.733949986930071,1.943974842035529
0.2156250000000028,1.735619805340433,1.942287621661462
0.2162500000000023,1.738291514797011,1.936551072389633
0.2168750000000017,1.738959442161156,1.93722596053926
0.2175000000000011,1.739627369525301,1.938575736838514
0.2181250000000006,1.738959442161156,1.934863852015566
0.21875,1.739293405843229,1.941950177586648
0.2193749999999994,1.738625478479084,1.938575736838514
0.2199999999999989,1.737623587432867,1.938913180913327
0.2206249999999983,1.73528584165836,1.942625065736275
0.2212499999999977,1.732948095883854,1.941950177586648
0.2218749999999972,1.730610350109347,1.942962509811089
