Tests/day19_trial5.csv

#Digilent WaveForms Oscilloscope Acquisition
#Device Name: Discovery2
#Serial Number: SN:210321A29E56
#Date Time: 2023-05-19 03:50:50.762
#Sample rate: 1600Hz
#Samples: 45544
#Trigger: Source: Channel 1 Type: Edge Condition: Rising Level: 1.7 V Hyst.: Auto HoldOff: 100 ns
#Channel 1: Range: 200 mV/div Offset: -1.5 V Attenuation: 1 X Sample Mode: Average
#Channel 2: Range: 200 mV/div Offset: -1.5 V Attenuation: 1 X Sample Mode: Average

Time (s),Channel 1 (V),Channel 2 (V)
0,1.69988569135869,1.944649730185156
0.0006249999999994316,1.700887582404907,1.942625065736275
0.001249999999998863,1.703225328179414,1.941950177586648
0.001874999999998295,1.702557400815269,1.938238292763701
0.002499999999997726,1.703225328179414,1.939250624988141
0.003124999999997158,1.702891364497341,1.938913180913327
0.003749999999996589,1.700887582404936,1.937900848688902
0.004374999999996021,1.69921776399457,1.935201296090419
0.004999999999995453,1.696880018220073,1.938238292763656
0.005624999999994884,1.693874345081431,1.938913180913318
0.006250000000008527,1.691536599306867,1.937900848688877
0.006875000000007958,1.69053470826063,1.937225960539255
0.00750000000000739,1.688196962486143,1.936888516464456
0.008125000000006821,1.687195071439931,1.937563404614054
0.008750000000006253,1.686527144075796,1.93621362831482
0.009375000000005684,1.685859216711651,1.935201296090379
0.01000000000000512,1.68719507143994,1.935538740165193
0.01062500000000455,1.688864889850302,1.935876184240007
0.01125000000000398,1.690200744578592,1.93722596053926
0.01187500000000341,1.692538490353098,1.938238292763701
0.01250000000000284,1.693874345081388,1.937563404614074
0.01312500000000227,1.696212090855894,1.938913180913327
0.01375000000000171,1.697881909266256,1.938913180913327
0.01437500000000114,1.69988569135869,1.940600401287395
0.01500000000000057,1.700553618722835,1.939925513137768
0.015625,1.702557400815269,1.938238292763701
0.01624999999999943,1.702223437133197,1.940262957212581
0.01687499999999886,1.703893255543558,1.93722596053926
0.01749999999999829,1.704895146589775,1.939250624988141
0.01812499999999773,1.702223437133197,1.938913180913327
0.01874999999999716,1.702557400815269,1.935876184240007
0.01937499999999659,1.700887582404931,1.938913180913283
0.01999999999999602,1.699885691358705,1.938575736838519
0.02062499999999545,1.699551727676623,1.939250624988131
0.02124999999999488,1.695544163491808,1.942962509811035
0.02187500000000853,1.694876236127595,1.938575736838529
0.02250000000000796,1.69420830876345,1.939588069062949
0.02312500000000739,1.693540381399359,1.939250624988121
0.02375000000000682,1.696546054537923,1.937900848688966
0.02437500000000625,1.693540381399315,1.943299953885902
0.02500000000000568,1.693540381399315,1.942625065736275
0.02562500000000512,1.694542272445532,1.93722596053926
0.02625000000000455,1.695210199809677,1.939588069062954
0.02687500000000398,1.697881909266256,1.938913180913327
0.02750000000000341,1.699551727676618,1.937563404614074
0.02812500000000284,1.697547945584184,1.940937845362208
0.02875000000000227,1.699551727676618,1.938575736838514
0.02937500000000171,1.702557400815269,1.93722596053926
0.03000000000000114,1.701889473451124,1.940600401287395
0.03062500000000057,1.704895146589775,1.938238292763701
0.03125,1.702891364497341,1.939250624988141
0.03187499999999943,1.702223437133197,1.942625065736275
0.03249999999999886,1.705229110271848,1.939925513137768
0.03312499999999829,1.703225328179414,1.940262957212581
0.03374999999999773,1.701889473451124,1.942625065736275
0.03437499999999716,1.70122154608698,1.940600401287395
0.03499999999999659,1.697547945584237,1.941950177586629
0.03562499999999602,1.698883800312454,1.942625065736265
0.03624999999999545,1.696880018220068,1.942962509811084
0.03687499999999488,1.693874345081431,1.947686726858408
0.03750000000000853,1.691536599306896,1.943299953885853
0.03812500000000796,1.692538490353088,1.939925513137841
0.03875000000000739,1.691870562988949,1.94498717425995
0.03937500000000682,1.691536599306901,1.943637397960681
0.04000000000000625,1.692872454035171,1.941275289437021
0.04062500000000568,1.689866780896519,1.944987174259969
0.04125000000000512,1.694542272445532,1.941612733511835
0.04187500000000455,1.697547945584184,1.937900848688887
0.04250000000000398,1.696546054537966,1.945999506484409
0.04312500000000341,1.699217763994545,1.940600401287395
0.04375000000000284,1.702223437133197,1.937563404614074
0.04437500000000227,1.702891364497341,1.939588069062954
0.04500000000000171,1.705897037635993,1.938913180913327
0.04562500000000114,1.703893255543558,1.938238292763701
0.04625000000000057,1.704561182907703,1.939588069062954
0.046875,1.704227219225631,1.93722596053926
0.04749999999999943,1.702557400815269,1.941275289437021
0.04812499999999886,1.701889473451124,1.942287621661462
0.04874999999999829,1.699551727676618,1.939250624988141
0.04937499999999773,1.697213981902111,1.945999506484409
0.04999999999999716,1.697547945584184,1.939588069062954
0.05062499999999659,1.696880018220049,1.944312286110273
0.05124999999999602,1.693874345081431,1.945324618334768
0.05187499999999545,1.695878127173793,1.940937845362272
0.05249999999999488,1.694542272445552,1.944649730185102
0.05312500000000853,1.693540381399349,1.945662062409517
0.05375000000000796,1.695878127173831,1.94026295721263
0.05437500000000739,1.696546054537986,1.94363739796073
0.05500000000000682,1.697881909266275,1.944649730185141
0.05562500000000625,1.699217763994545,1.943637397960715
0.05625000000000568,1.700553618722835,1.941612733511835
0.05687500000000512,1.702557400815269,1.941950177586648
0.05750000000000455,1.703559291861486,1.944987174259969
0.05812500000000398,1.704227219225631,1.941950177586648
0.05875000000000341,1.705897037635993,1.945999506484409
0.05937500000000284,1.70689892868221,1.941612733511835
0.06000000000000227,1.707566856046354,1.936551072389633
0.06062500000000171,1.706564965000137,1.943974842035529
0.06125000000000114,1.704561182907703,1.943637397960715
0.06187500000000057,1.706564965000137,1.939250624988141
0.0625,1.707232892364282,1.936888516464447
0.06312499999999943,1.702891364497341,1.941612733511835
0.06374999999999886,1.70122154608698,1.940937845362208
0.06437499999999829,1.701555509769052,1.940262957212581
0.06499999999999773,1.698215872948328,1.940262957212581
0.06562499999999716,1.698215872948328,1.942962509811089
0.06624999999999659,1.696880018220058,1.939588069063003
0.06687499999999602,1.695210199809701,1.942962509811039
0.06749999999999545,1.695544163491745,1.945324618334748
0.06812499999999488,1.695210199809682,1.936888516464569
0.06875000000000853,1.695210199809706,1.943974842035499
0.06937500000000796,1.697213981902145,1.941950177586668
0.07000000000000739,1.699551727676657,1.943299953885912
0.07062500000000682,1.702223437133197,1.943974842035489
0.07125000000000625,1.702223437133197,1.941275289437021
0.07187500000000568,1.702223437133197,1.945324618334783
0.07250000000000512,1.705897037635993,1.942287621661462
0.07312500000000455,1.708234783410499,1.941612733511835
0.07375000000000398,1.707232892364282,1.943974842035529
0.07437500000000341,1.707900819728427,1.943974842035529
0.07500000000000284,1.708568747092571,1.943637397960715
0.07562500000000227,1.707900819728427,1.944649730185156
0.07625000000000171,1.708234783410499,1.942962509811089
0.07687500000000114,1.70689892868221,1.940937845362208
0.07750000000000057,1.705229110271848,1.943299953885902
0.078125,1.70556307395392,1.941950177586648
0.07874999999999943,1.702891364497341,1.943637397960715
0.07937499999999886,1.699551727676618,1.943299953885902
0.07999999999999829,1.699217763994545,1.942962509811089
0.08062499999999773,1.698215872948328,1.941612733511835
0.08124999999999716,1.697881909266256,1.944649730185156
0.08187499999999659,1.697213981902121,1.944987174259964
0.08249999999999602,1.695210199809706,1.943637397960735
0.08312499999999545,1.695210199809677,1.943637397960715
0.08374999999999488,1.695210199809677,1.943299953885907
0.08437500000000853,1.695210199809711,1.943637397960725
0.08500000000000796,1.697547945584208,1.944312286110323
0.08562500000000739,1.699217763994574,1.942962509811079
0.08625000000000682,1.701221546087009,1.942287621661481
0.08687500000000625,1.703225328179414,1.943637397960715
0.08750000000000568,1.704561182907703,1.941612733511835
0.08812500000000512,1.705229110271848,1.943637397960715
0.08875000000000455,1.708902710774644,1.945324618334783
0.08937500000000398,1.709904601820861,1.940262957212581
0.09000000000000341,1.709236674456716,1.947686726858477
0.09062500000000284,1.707900819728427,1.943637397960715
0.09125000000000227,1.709570638138789,1.942962509811089
0.09187500000000171,1.707900819728427,1.946336950559223
0.09250000000000114,1.707900819728427,1.941275289437021
0.09312500000000057,1.707232892364282,1.941950177586648
0.09375,1.704227219225631,1.942962509811089
0.09437499999999943,1.702223437133197,1.946336950559223
0.09499999999999886,1.69988569135869,1.947349282783663
0.09562499999999829,1.700219655040762,1.943974842035529
0.09624999999999773,1.699551727676618,1.942625065736275
0.09687499999999716,1.696880018220039,1.942962509811089
0.09749999999999659,1.696880018220039,1.943637397960706
0.09812499999999602,1.695878127173836,1.94262506573629
0.09874999999999545,1.699885691358632,1.940600401287424
0.09937499999999488,1.701889473451095,1.94397484203548
0.1000000000000085,1.700553618722849,1.940937845362262
0.100625000000008,1.701555509769081,1.944649730185141
0.1012500000000074,1.703559291861549,1.943637397960642
0.1018750000000068,1.707900819728461,1.938575736838588
0.1025000000000063,1.710238565502933,1.943637397960715
0.1031250000000057,1.708902710774644,1.938913180913327
0.1037500000000051,1.709904601820861,1.939250624988141
0.1043750000000045,1.709904601820861,1.938913180913327
0.105000000000004,1.713578202323657,1.940262957212581
0.1056250000000034,1.713578202323657,1.939925513137768
0.1062500000000028,1.712242347595367,1.941612733511835
0.1068750000000023,1.709236674456716,1.944312286110342
0.1075000000000017,1.707232892364282,1.941950177586648
0.1081250000000011,1.708568747092571,1.941950177586648
0.1087500000000006,1.70689892868221,1.944987174259969
0.109375,1.706564965000137,1.946674394634036
0.1099999999999994,1.705897037635993,1.939925513137768
0.1106249999999989,1.702223437133197,1.944987174259969
0.1112499999999983,1.701555509769052,1.941275289437021
0.1118749999999977,1.703893255543558,1.939250624988141
0.1124999999999972,1.702891364497341,1.943637397960715
0.1131249999999966,1.704227219225611,1.943299953885907
0.113749999999996,1.703559291861496,1.940262957212625
0.1143749999999955,1.702223437133216,1.939588069062964
0.1149999999999949,1.705563073953872,1.938913180913337
0.1156250000000085,1.708902710774649,1.944649730185156
0.116250000000008,1.70923667445677,1.944649730185023
0.1168750000000074,1.712910274959497,1.935538740165212
0.1175000000000068,1.711908383913305,1.936888516464501
0.1181250000000063,1.71257631127744,1.940600401287395
0.1187500000000057,1.715248020734019,1.942287621661462
0.1193750000000051,1.714914057051946,1.941612733511835
0.1200000000000045,1.717251802826453,1.939250624988141
0.120625000000004,1.717585766508525,1.938238292763701
0.1212500000000034,1.712910274959512,1.939925513137768
0.1218750000000028,1.711908383913295,1.941612733511835
0.1225000000000023,1.71124045654915,1.939588069062954
0.1231250000000017,1.713912166005729,1.939925513137768
0.1237500000000011,1.712910274959512,1.943299953885902
0.1243750000000006,1.708234783410499,1.945999506484409
0.125,1.705229110271848,1.939588069062954
0.1256249999999994,1.70556307395392,1.938238292763701
0.1262499999999989,1.705897037635993,1.944312286110342
0.1268749999999983,1.704227219225631,1.944312286110342
0.1274999999999977,1.703559291861486,1.943299953885902
0.1281249999999972,1.701555509769052,1.941612733511835
0.1287499999999966,1.702891364497322,1.9402629572126
0.129374999999996,1.705897037635949,1.937563404614113
0.1299999999999955,1.705563073953925,1.943974842035435
0.1306249999999949,1.70556307395392,1.942962509811103
0.1312500000000085,1.705897037636027,1.942625065736241
0.131875000000008,1.708234783410548,1.940262957212581
0.1325000000000074,1.711574420231247,1.940262957212596
0.1331250000000068,1.713244238641604,1.9412752894371
0.1337500000000063,1.714580093369874,1.946674394634036
0.1343750000000057,1.715248020734019,1.945662062409596
0.1350000000000051,1.715581984416091,1.939925513137768
0.1356250000000045,1.718587657554742,1.944649730185156
0.136250000000004,1.715581984416091,1.943974842035529
0.1368750000000034,1.715581984416091,1.941275289437021
0.1375000000000028,1.714580093369874,1.940262957212581
0.1381250000000023,1.708902710774644,1.945662062409596
0.1387500000000017,1.707566856046354,1.944987174259969
0.1393750000000011,1.707566856046354,1.940262957212581
0.1400000000000006,1.703225328179414,1.941612733511835
0.140625,1.702891364497341,1.944312286110342
0.1412499999999994,1.702891364497341,1.942287621661462
0.1418749999999989,1.699551727676618,1.944649730185156
0.1424999999999983,1.701889473451124,1.943299953885902
0.1431249999999977,1.704895146589775,1.949711391307357
0.1437499999999972,1.703893255543558,1.942962509811089
0.1443749999999966,1.706898928682166,1.944312286110323
0.144999999999996,1.702557400815332,1.949036503157661
0.1456249999999955,1.703225328179404,1.942625065736368
0.1462499999999949,1.706898928682156,1.940262957212615
0.1468750000000085,1.707232892364306,1.94701183870884
0.147500000000008,1.708902710774663,1.946336950559213
0.1481250000000074,1.710238565502928,1.945662062409508
0.1487500000000068,1.709904601820861,1.939588069063082
0.1493750000000063,1.709904601820861,1.948361615008103
0.1500000000000057,1.714580093369874,1.941950177586648
0.1506250000000051,1.709236674456716,1.944312286110342
0.1512500000000045,1.70689892868221,1.949373947232544
0.151875000000004,1.709236674456716,1.941950177586648
0.1525000000000034,1.709904601820861,1.945662062409596
0.1531250000000028,1.703559291861486,1.951061167606611
0.1537500000000023,1.704227219225631,1.940937845362208
0.1543750000000017,1.698215872948328,1.946336950559223
0.1550000000000011,1.701889473451124,1.947686726858477
0.1556250000000006,1.703559291861486,1.944312286110342
0.15625,1.699217763994545,1.944987174259969
0.1568749999999994,1.696546054537966,1.948361615008103
0.1574999999999989,1.698215872948328,1.941275289437021
0.1581249999999983,1.703225328179414,1.940937845362208
0.1587499999999977,1.701889473451124,1.950048835382171
0.1593749999999972,1.703225328179414,1.94802417093329
0.1599999999999966,1.705563073953886,1.940600401287503
0.160624999999996,1.710238565502865,1.949373947232416
0.1612499999999955,1.708568747092596,1.948361615008118
0.1618749999999949,1.711574420231179,1.940262957212699
0.1625000000000085,1.712242347595372,1.947686726858565
0.163125000000008,1.712576311277508,1.953760720205
0.1637500000000074,1.717251802826419,1.945662062409571
0.1643750000000068,1.714914057051873,1.943974842035568
0.1650000000000063,1.709904601820861,1.946674394634036
0.1656250000000057,1.713912166005729,1.949373947232544
0.1662500000000051,1.711574420231223,1.948361615008103
0.1668750000000045,1.708902710774644,1.945999506484409
0.167500000000004,1.704895146589775,1.947686726858477
0.1681250000000034,1.701555509769052,1.945999506484409
0.1687500000000028,1.700553618722835,1.949373947232544
0.1693750000000023,1.698215872948328,1.947349282783663
0.1700000000000017,1.695210199809677,1.943637397960715
0.1706250000000011,1.695878127173822,1.943974842035529
0.1712500000000006,1.695878127173822,1.94903650315773
0.171875,1.696546054537966,1.947686726858477
0.1724999999999994,1.698549836630401,1.949373947232544
0.1731249999999989,1.697213981902111,1.945324618334783
0.1737499999999983,1.703225328179414,1.942287621661462
0.1743749999999977,1.706231001318065,1.94701183870885
0.1749999999999972,1.70689892868221,1.949373947232544
0.1756249999999966,1.709236674456682,1.943974842035607
0.176249999999996,1.711908383913256,1.950386279456891
0.1768749999999955,1.712242347595363,1.943637397960813
0.1774999999999949,1.71591594809811,1.945662062409566
0.1781250000000085,1.713244238641589,1.9493739472325
0.178750000000008,1.713578202323691,1.946336950559242
0.1793750000000074,1.715915948098144,1.947686726858437
0.1800000000000068,1.714580093369859,1.944987174259954
0.1806250000000063,1.713578202323657,1.943974842035529
0.1812500000000057,1.711908383913295,1.946674394634036
0.1818750000000051,1.707232892364282,1.94802417093329
0.1825000000000045,1.705897037635993,1.944649730185156
0.183125000000004,1.707566856046354,1.948361615008103
0.1837500000000034,1.70122154608698,1.946674394634036
0.1843750000000028,1.69988569135869,1.94802417093329
0.1850000000000023,1.700887582404907,1.940262957212581
0.1856250000000017,1.692204526671026,1.94802417093329
0.1862500000000011,1.70122154608698,1.93621362831482
0.1868750000000006,1.696880018220039,1.946336950559223
0.1875,1.691870562988953,1.944987174259969
0.1881249999999994,1.701555509769052,1.940600401287395
0.1887499999999989,1.700553618722835,1.944312286110342
0.1893749999999983,1.702223437133197,1.948361615008103
0.1899999999999977,1.703893255543558,1.939250624988141
0.1906249999999972,1.703225328179414,1.945662062409596
0.1912499999999966,1.712910274959371,1.943299953885936
0.191874999999996,1.716917839144322,1.94599950648437
0.1924999999999955,1.71291027495957,1.942625065736324
0.1931249999999949,1.71458009336985,1.944987174259935
0.1937500000000085,1.713244238641623,1.946674394634076
0.194375000000008,1.715915948098144,1.94937394723245
0.1950000000000074,1.71458009336985,1.942962509811093
0.1956250000000068,1.71291027495942,1.943299953885872
0.1962500000000063,1.706564965000137,1.941275289437021
0.1968750000000057,1.707566856046354,1.946674394634036
0.1975000000000051,1.708568747092571,1.94701183870885
0.1981250000000045,1.703559291861486,1.950386279456984
0.198750000000004,1.703225328179414,1.94802417093329
0.1993750000000034,1.703559291861486,1.943299953885902
0.2000000000000028,1.701555509769052,1.945999506484409
0.2006250000000023,1.703225328179414,1.950048835382171
0.2012500000000017,1.699217763994545,1.948361615008103
0.2018750000000011,1.697881909266256,1.944987174259969
0.2025000000000006,1.702223437133197,1.945662062409596
0.203125,1.700887582404907,1.94701183870885
0.2037499999999994,1.704895146589775,1.950386279456984
0.2043749999999989,1.698549836630401,1.950048835382171
0.2049999999999983,1.703559291861486,1.945999506484409
0.2056249999999977,1.709904601820861,1.945662062409596
0.2062499999999972,1.708902710774644,1.950723723531797
0.2068749999999966,1.711908383913251,1.947349282783712
0.207499999999996,1.714246129687768,1.945999506484429
0.2081249999999955,1.715248020734004,1.946674394634027
0.2087499999999949,1.719923512282964,1.949036503157696
0.2093750000000085,1.712910274959463,1.944987174259979
0.210000000000008,1.709570638138798,1.945662062409576
0.2106250000000074,1.710238565502967,1.944312286110323
0.2112500000000068,1.712576311277372,1.942962509811167
0.2118750000000063,1.707900819728427,1.948361615008103
0.2125000000000057,1.701555509769052,1.946674394634036
0.2131250000000051,1.698549836630401,1.951398611681424
0.2137500000000045,1.697213981902111,1.947686726858477
0.214375000000004,1.703559291861486,1.94701183870885
0.2150000000000034,1.701889473451124,1.945324618334783
0.2156250000000028,1.697213981902111,1.94903650315773
0.2162500000000023,1.699551727676618,1.946336950559223
0.2168750000000017,1.698549836630401,1.952410943905865
0.2175000000000011,1.69988569135869,1.950048835382171
0.2181250000000006,1.705229110271848,1.94903650315773
0.21875,1.706231001318065,1.944312286110342
0.2193749999999994,1.709904601820861,1.946336950559223
0.2199999999999989,1.710238565502933,1.951061167606611
0.2206249999999983,1.706231001318065,1.945324618334783
0.2212499999999977,1.710906492867078,1.944649730185156
0.2218749999999972,1.71124045654915,1.950386279456984
