Tests/Test-11-7.csv

#Digilent WaveForms Oscilloscope Acquisition
#Device Name: Discovery2
#Serial Number: SN:210321A29E56
#Date Time: 2023-11-07 11:34:22.216
#Sample rate: 1600Hz
#Samples: 54073
#Trigger: Source: Channel 1 Type: Edge Condition: Rising Level: 0 V Hyst.: Auto HoldOff: 0 s
#Channel 1: Range: 500 mV/div Offset: 0 V Attenuation: 1 X Sample Mode: Average
#Channel 2: Range: 500 mV/div Offset: 0 V Attenuation: 1 X Sample Mode: Average

Time (s),Channel 1 (V),Channel 2 (V)
-81.92,0.9568930137983568,0.9791914892334369
-81.919375,1.559372689366629,1.595711221261559
-81.91875,1.559038720589146,1.595711221262119
-81.918125,1.559038720589146,1.59537377203824
-81.9175,1.558704751811115,1.595373772038239
-81.916875,1.558704751811114,1.595711221262118
-81.91625000000001,1.558704751811114,1.595711221262119
-81.91562500000001,1.558370783033085,1.595373772038242
-81.91500000000001,1.558036814255054,1.595373772038239
-81.91437500000001,1.557702845477022,1.595373772038239
-81.91375000000001,1.55770284547702,1.595373772038239
-81.91312500000001,1.557368876698991,1.595373772038239
-81.91250000000001,1.557368876698988,1.595373772038239
-81.91187499999999,1.557368876698992,1.595711221262116
-81.91125,1.55770284547702,1.595373772038236
-81.910625,1.557702845477023,1.595036322814359
-81.91,1.558036814255054,1.595036322814359
-81.909375,1.558370783033085,1.595036322814357
-81.90875,1.558704751811116,1.594698873590479
-81.908125,1.559038720589146,1.594698873590481
-81.9075,1.559038720589146,1.595036322814359
-81.906875,1.559038720589147,1.595036322814359
-81.90625,1.559372689367178,1.59503632281436
-81.905625,1.559706658145208,1.59537377203824
-81.905,1.559372689367177,1.59571122126212
-81.904375,1.559372689367177,1.596048670485999
-81.90375,1.559038720589146,1.59571122126212
-81.903125,1.559038720589146,1.595711221262119
-81.9025,1.559706658145207,1.59537377203824
-81.901875,1.560040626923239,1.595711221262118
-81.90125,1.56004062692324,1.595711221262119
-81.90062500000001,1.56004062692324,1.595711221262119
-81.90000000000001,1.559706658145211,1.595711221262119
-81.89937500000001,1.55937268936718,1.595711221262119
-81.89875000000001,1.559372689367177,1.595373772038242
-81.89812500000001,1.559038720589149,1.595711221262116
-81.89750000000001,1.558704751811117,1.595711221262119
-81.89687500000001,1.559038720589142,1.595711221262119
-81.89624999999999,1.558704751811114,1.595373772038239
-81.895625,1.558704751811114,1.595373772038239
-81.895,1.558704751811111,1.595373772038243
-81.894375,1.558370783033085,1.595711221262119
-81.89375,1.558704751811114,1.595711221262122
-81.893125,1.558704751811116,1.596048670485997
-81.8925,1.559038720589146,1.595711221262119
-81.891875,1.559038720589146,1.595711221262121
-81.89125,1.559038720589146,1.596048670486001
-81.890625,1.559038720589146,1.596386119709879
-81.89,1.559038720589146,1.596386119709879
-81.889375,1.559038720589146,1.596386119709879
-81.88875,1.559038720589146,1.596723568933759
-81.888125,1.559372689367177,1.596723568933759
-81.8875,1.559706658145208,1.596723568933759
-81.886875,1.559706658145209,1.596723568933759
-81.88625,1.560040626923239,1.596723568933759
-81.885625,1.56004062692324,1.596386119709881
-81.88500000000001,1.5607085644793,1.596386119709879
-81.88437500000001,1.560374595701274,1.596723568933757
-81.88375000000001,1.560040626923243,1.596723568933759
-81.88312500000001,1.559706658145211,1.596386119709882
-81.88250000000001,1.55937268936718,1.596386119709879
-81.88187500000001,1.559372689367177,1.596386119709879
-81.88125000000001,1.559706658145205,1.596048670486003
-81.88062499999999,1.559038720589142,1.596048670485999
-81.88,1.558704751811114,1.596048670485999
-81.879375,1.558704751811114,1.596048670485999
-81.87875,1.558704751811114,1.596048670485997
-81.878125,1.558704751811114,1.595711221262122
-81.8775,1.558704751811112,1.596048670485997
-81.876875,1.558370783033084,1.595711221262119
-81.87625,1.558704751811114,1.595711221262121
-81.875625,1.558704751811114,1.596048670485999
-81.875,1.558704751811115,1.596048670485999
-81.874375,1.559038720589146,1.596048670485999
-81.87375,1.559038720589146,1.596048670485999
-81.873125,1.559706658145209,1.595711221262119
-81.8725,1.559706658145209,1.59537377203824
-81.871875,1.559706658145209,1.595711221262119
-81.87125,1.559706658145209,1.596386119709877
-81.870625,1.559372689367178,1.596386119709879
-81.87,1.559372689367177,1.596386119709879
-81.86937500000001,1.559372689367177,1.596386119709879
-81.86875000000001,1.559706658145206,1.596386119709879
-81.86812500000001,1.559706658145209,1.596048670486002
-81.86750000000001,1.55937268936718,1.595711221262122
-81.86687500000001,1.559372689367177,1.595711221262119
-81.86625000000001,1.559372689367177,1.595711221262119
-81.86562500000001,1.559038720589149,1.595711221262119
-81.86499999999999,1.558370783033079,1.595373772038236
-81.864375,1.558036814255054,1.595036322814359
-81.86375,1.558370783033083,1.595036322814359
-81.863125,1.558370783033083,1.595036322814362
-81.8625,1.558370783033085,1.595373772038237
-81.861875,1.558704751811116,1.595036322814357
-81.86125,1.559038720589144,1.594698873590483
-81.860625,1.558704751811113,1.595373772038239
-81.86,1.558370783033083,1.595373772038239
-81.859375,1.558370783033081,1.595373772038239
-81.85875,1.55770284547702,1.595373772038239
-81.858125,1.55770284547702,1.595373772038239
-81.8575,1.558036814255051,1.595373772038239
-81.856875,1.558036814255051,1.59503632281436
-81.85625,1.558036814255051,1.595036322814359
-81.855625,1.558036814255051,1.595373772038239
-81.855,1.558370783033082,1.595373772038239
-81.854375,1.558370783033083,1.595373772038239
-81.85375000000001,1.558370783033083,1.595711221262118
-81.85312500000001,1.558370783033083,1.595373772038242
-81.85250000000001,1.558370783033083,1.595373772038239
-81.85187500000001,1.558370783033083,1.595711221262117
-81.85125000000001,1.558036814255054,1.595373772038243
-81.85062500000001,1.557702845477023,1.595373772038239
-81.85000000000001,1.558036814255048,1.595036322814363
-81.84937499999999,1.558370783033083,1.594698873590476
-81.84875,1.558370783033079,1.5943614243666
-81.848125,1.558036814255045,1.5943614243666
-81.8475,1.557368876698988,1.594361424366602
-81.846875,1.557368876698986,1.594698873590477
-81.84625,1.557034907920959,1.5943614243666
-81.845625,1.557368876698988,1.5943614243666
-81.845,1.557368876698988,1.5943614243666
-81.844375,1.557368876698989,1.5943614243666
-81.84375,1.55770284547702,1.5943614243666
-81.843125,1.557702845477019,1.5943614243666
-81.8425,1.557368876698988,1.594698873590479
-81.841875,1.557034907920956,1.594698873590479
-81.84125,1.557034907920956,1.594698873590479
-81.840625,1.557702845477019,1.594698873590479
-81.84,1.55770284547702,1.595036322814358
-81.839375,1.55770284547702,1.595036322814359
-81.83875,1.55803681425505,1.595036322814359
-81.83812500000001,1.558370783033081,1.595373772038238
-81.83750000000001,1.558036814255053,1.595373772038239
-81.83687500000001,1.55837078303308,1.595373772038239
-81.83625000000001,1.558704751811111,1.595036322814362
-81.83562500000001,1.558370783033086,1.594698873590483
-81.83500000000001,1.558036814255054,1.594698873590479
-81.83437500000001,1.557702845477023,1.595036322814356
-81.83374999999999,1.557368876698992,1.595373772038239
-81.833125,1.55770284547702,1.595373772038236
-81.8325,1.557702845477017,1.595036322814359
-81.831875,1.557368876698991,1.595036322814359
-81.83125,1.557702845477017,1.595036322814362
-81.830625,1.557368876698988,1.595373772038239
-81.83,1.557368876698986,1.595373772038238
-81.829375,1.557034907920955,1.595036322814359
-81.82875,1.556700939142925,1.595036322814359
-81.828125,1.556700939142925,1.595036322814358
-81.8275,1.556700939142925,1.594698873590479
-81.826875,1.556700939142926,1.594698873590479
-81.82625,1.557368876698988,1.5943614243666
-81.825625,1.557702845477019,1.59402397514272
-81.825,1.55770284547702,1.59402397514272
-81.824375,1.55803681425505,1.59402397514272
-81.82375,1.558370783033082,1.59402397514272
-81.823125,1.558370783033083,1.59402397514272
-81.82250000000001,1.558704751811112,1.594361424366598
-81.82187500000001,1.559372689367173,1.594023975142722
-81.82125000000001,1.559706658145206,1.594698873590475
-81.82062500000001,1.55937268936718,1.594698873590479
-81.82000000000001,1.55870475181112,1.594698873590479
-81.81937500000001,1.558704751811114,1.595036322814356
-81.81875000000001,1.558370783033086,1.595373772038236
-81.81812499999999,1.558370783033079,1.595373772038243
-81.8175,1.558036814255051,1.595711221262116
-81.816875,1.558036814255048,1.595373772038239
-81.81625,1.55770284547702,1.595373772038242
-81.815625,1.557702845477017,1.595711221262117
-81.815,1.557368876698988,1.595373772038239
-81.814375,1.557368876698986,1.595373772038239
-81.81375,1.557034907920956,1.595373772038238
-81.813125,1.557034907920956,1.595036322814358
-81.8125,1.557034907920956,1.594698873590479
-81.811875,1.557034907920956,1.5943614243666
-81.81125,1.557034907920956,1.594698873590479
-81.810625,1.557034907920956,1.594698873590479
-81.81,1.557368876698988,1.5943614243666
-81.809375,1.557368876698988,1.5943614243666
-81.80875,1.557702845477019,1.5943614243666
-81.808125,1.55803681425505,1.5943614243666
-81.8075,1.558370783033081,1.5943614243666
-81.80687500000001,1.558370783033083,1.5943614243666
-81.80625000000001,1.558370783033083,1.594698873590477
-81.80562500000001,1.558704751811112,1.594698873590479
-81.80500000000001,1.558370783033085,1.595036322814357
-81.80437500000001,1.558704751811111,1.595373772038236
-81.80375000000001,1.558704751811114,1.595373772038239
-81.80312500000001,1.559038720589142,1.595036322814363
-81.80249999999999,1.559038720589149,1.595036322814367
-81.801875,1.55937268936717,1.595711221262119
-81.80125,1.558704751811114,1.595711221262119
-81.800625,1.558704751811114,1.595711221262117
-81.8,1.558704751811109,1.595373772038239
-81.799375,1.558036814255051,1.595373772038239
-81.79875,1.558036814255051,1.595373772038241
-81.798125,1.55803681425505,1.595711221262118
-81.7975,1.55770284547702,1.595373772038238
-81.796875,1.557702845477019,1.595036322814359
-81.79625,1.557368876698987,1.595036322814359
-81.795625,1.557034907920957,1.59503632281436
-81.795,1.557368876698988,1.595373772038239
-81.794375,1.557368876698988,1.59503632281436
-81.79375,1.557702845477019,1.59469887359048
-81.793125,1.55770284547702,1.594698873590479
-81.7925,1.55770284547702,1.594361424366601
-81.791875,1.55803681425505,1.594698873590478
-81.79125000000001,1.558370783033081,1.594698873590479
-81.79062500000001,1.558370783033083,1.595036322814357
-81.79000000000001,1.558036814255054,1.594698873590482
-81.78937500000001,1.55837078303308,1.595036322814357
-81.78875000000001,1.558370783033083,1.595036322814359
-81.78812500000001,1.558370783033083,1.595036322814359
-81.78750000000001,1.558370783033083,1.595036322814359
-81.78687499999999,1.558370783033086,1.595036322814359
-81.78625,1.558704751811114,1.595036322814359
-81.785625,1.55870475181112,1.595036322814359
-81.785,1.559372689367177,1.595036322814359
-81.784375,1.559372689367175,1.595036322814362
-81.78375,1.559038720589146,1.595373772038239
-81.783125,1.559038720589146,1.595373772038238
-81.7825,1.559038720589144,1.595036322814359
-81.781875,1.558704751811114,1.595036322814361
-81.78125,1.558704751811114,1.595373772038239
-81.780625,1.558704751811113,1.595373772038239
-81.78,1.558036814255051,1.59537377203824
-81.779375,1.55770284547702,1.595711221262119
-81.77875,1.55770284547702,1.596048670485999
-81.778125,1.55770284547702,1.596048670485999
-81.7775,1.55770284547702,1.59571122126212
-81.776875,1.557368876698989,1.595373772038241
-81.77625,1.558036814255048,1.595711221262118
-81.77562500000001,1.558370783033081,1.595711221262119
-81.77500000000001,1.558036814255053,1.595373772038242
-81.77437500000001,1.558036814255051,1.595373772038239
-81.77375000000001,1.55837078303308,1.595711221262117
-81.77312500000001,1.558370783033083,1.595711221262119
-81.77250000000001,1.558370783033083,1.596048670485996
-81.77187500000001,1.558370783033083,1.596386119709875
-81.77124999999999,1.558370783033086,1.596723568933756
-81.770625,1.558704751811117,1.596386119709876
-81.77,1.559038720589149,1.596048670485996
-81.769375,1.559372689367177,1.595711221262119
-81.76875,1.559372689367177,1.595711221262117
-81.768125,1.559372689367179,1.595373772038239
-81.7675,1.559706658145209,1.595373772038241
-81.766875,1.559706658145205,1.595711221262119
-81.76625,1.559038720589146,1.595711221262119
-81.765625,1.559038720589145,1.595711221262119
-81.765,1.558704751811113,1.595373772038239
-81.764375,1.558370783033083,1.595373772038239
-81.76375,1.558370783033083,1.595373772038239
-81.763125,1.558036814255051,1.59503632281436
-81.7625,1.558370783033082,1.595036322814359
-81.761875,1.558370783033083,1.595036322814359
-81.76125,1.558370783033083,1.595373772038238
-81.760625,1.558036814255053,1.595711221262118
-81.76000000000001,1.557702845477021,1.595036322814363
-81.75937500000001,1.55770284547702,1.595036322814359
-81.75875000000001,1.558036814255049,1.595036322814359
-81.75812500000001,1.55837078303308,1.595373772038237
-81.75750000000001,1.558704751811111,1.595711221262116
-81.75687500000001,1.559038720589142,1.595711221262119
-81.75625000000001,1.559038720589146,1.596048670485996
-81.75562499999999,1.559372689367181,1.596386119709879
-81.755,1.559706658145209,1.596386119709879
-81.754375,1.559706658145205,1.596386119709879
-81.75375,1.559372689367177,1.596386119709877
-81.753125,1.559372689367175,1.596048670485999
-81.7525,1.559038720589148,1.596048670486002
-81.751875,1.559372689367174,1.596386119709879
-81.75125,1.558704751811113,1.596386119709878
-81.750625,1.558370783033084,1.596048670486001
-81.75,1.558704751811115,1.596386119709878
-81.749375,1.559038720589146,1.596048670485998
-81.74875,1.559372689367177,1.595373772038239
-81.748125,1.559372689367177,1.595373772038239
-81.7475,1.558704751811115,1.595711221262119
-81.746875,1.558370783033083,1.59537377203824
-81.74625,1.558370783033083,1.59503632281436
-81.745625,1.558370783033083,1.595036322814359
-81.745,1.557702845477023,1.595036322814359
-81.74437500000001,1.55736887669899,1.594698873590481
-81.74375000000001,1.557702845477017,1.594361424366602
-81.74312500000001,1.558036814255049,1.594698873590477
-81.74250000000001,1.557702845477022,1.594361424366602
-81.74187500000001,1.558036814255048,1.594698873590476
-81.74125000000001,1.558036814255051,1.594698873590479
-81.74062500000001,1.558370783033079,1.594361424366603
-81.73999999999999,1.558704751811114,1.594698873590479
-81.739375,1.558704751811114,1.594698873590483
-81.73875,1.558704751811114,1.595036322814362
-81.738125,1.558704751811111,1.595373772038242
-81.7375,1.558370783033083,1.595711221262124
-81.736875,1.558370783033083,1.596386119709879
-81.73625,1.558370783033083,1.596386119709877
-81.735625,1.558370783033083,1.596048670485998
-81.735,1.558370783033083,1.595711221262119
-81.734375,1.558370783033084,1.595711221262119
-81.73375,1.558704751811114,1.595373772038239
-81.733125,1.558704751811114,1.595036322814359
-81.7325,1.558370783033083,1.595036322814359
-81.731875,1.558036814255051,1.595036322814359
-81.73125,1.55770284547702,1.595373772038239
-81.730625,1.557034907920958,1.595373772038239
-81.73,1.557034907920956,1.595373772038239
-81.729375,1.557034907920956,1.595036322814361
-81.72875000000001,1.557368876698986,1.594698873590481
-81.72812500000001,1.557702845477017,1.594023975142724
-81.72750000000001,1.558370783033078,1.59402397514272
-81.72687500000001,1.558036814255054,1.593686525918842
-81.72625000000001,1.558036814255051,1.594023975142717
-81.72562500000001,1.558036814255051,1.594361424366596
-81.72500000000001,1.557702845477023,1.594698873590476
-81.72437499999999,1.557702845477027,1.595036322814352
-81.72375,1.558370783033089,1.5943614243666
-81.723125,1.559038720589146,1.5943614243666
-81.7225,1.559038720589146,1.594361424366602
-81.721875,1.559038720589146,1.594698873590484
-81.72125,1.559038720589141,1.595373772038244
-81.720625,1.558370783033083,1.596048670486001
-81.72,1.558370783033084,1.596386119709878
-81.719375,1.558704751811114,1.596048670485998
-81.71875,1.558704751811113,1.595711221262119
-81.718125,1.558370783033083,1.595373772038239
-81.7175,1.558370783033083,1.595373772038239
-81.716875,1.558370783033083,1.595036322814359
-81.71625,1.558036814255051,1.59469887359048
-81.715625,1.558370783033082,1.594698873590479
-81.715,1.558036814255052,1.594698873590479
-81.714375,1.557368876698991,1.594361424366601
-81.71375,1.557702845477018,1.594023975142721
-81.71312500000001,1.55770284547702,1.593686525918841
-81.71250000000001,1.558036814255049,1.594023975142717
-81.71187500000001,1.558036814255051,1.59402397514272
-81.71125000000001,1.557702845477022,1.59402397514272
-81.71062500000001,1.558036814255048,1.59402397514272
-81.71000000000001,1.558370783033079,1.593686525918843
-81.70937500000001,1.558036814255055,1.594023975142716
-81.70874999999999,1.557702845477016,1.5943614243666
-81.708125,1.557368876698991,1.594361424366596
-81.7075,1.557702845477023,1.59402397514272
-81.706875,1.558036814255051,1.594023975142722
-81.70625,1.558036814255049,1.594361424366602
-81.705625,1.55770284547702,1.594698873590482
-81.705,1.557702845477021,1.595036322814359
-81.704375,1.558036814255053,1.595036322814361
-81.70375,1.558370783033082,1.595373772038238
-81.703125,1.558036814255052,1.59503632281436
-81.7025,1.558370783033083,1.595373772038239
-81.701875,1.558704751811114,1.595373772038239
-81.70125,1.558370783033083,1.595373772038239
-81.700625,1.558370783033083,1.59503632281436
-81.7,1.558370783033083,1.595036322814359
-81.699375,1.558036814255052,1.59469887359048
-81.69875,1.558036814255051,1.594361424366601
-81.698125,1.558036814255051,1.5943614243666
-81.69750000000001,1.558036814255051,1.5943614243666
-81.69687500000001,1.558036814255051,1.5943614243666
-81.69625000000001,1.557702845477022,1.594023975142722
-81.69562500000001,1.55770284547702,1.594361424366597
-81.69500000000001,1.55770284547702,1.5943614243666
-81.69437500000001,1.557034907920963,1.594698873590476
-81.69375000000001,1.557034907920956,1.594361424366603
-81.69312499999999,1.557368876698985,1.5943614243666
-81.6925,1.55703490792096,1.5943614243666
-81.691875,1.557368876698985,1.594361424366606
-81.69125,1.557034907920956,1.595036322814359
-81.690625,1.557034907920961,1.595036322814362
-81.69,1.557702845477022,1.595373772038237
-81.689375,1.558036814255053,1.595036322814359
-81.68875,1.558370783033084,1.595036322814359
-81.688125,1.558704751811114,1.595036322814361
-81.6875,1.558704751811114,1.59537377203824
-81.686875,1.558704751811113,1.595711221262119
-81.68625,1.558370783033083,1.595711221262119
-81.685625,1.558370783033083,1.595711221262119
-81.685,1.558036814255051,1.59537377203824
-81.684375,1.558036814255051,1.59503632281436
-81.68375,1.558036814255051,1.59469887359048
-81.683125,1.558036814255051,1.594698873590479
-81.6825,1.558036814255051,1.594698873590479
-81.68187500000001,1.558036814255051,1.594698873590479
-81.68125000000001,1.558036814255051,1.594698873590479
-81.68062500000001,1.557702845477022,1.594698873590479
-81.68000000000001,1.55770284547702,1.594698873590479
-81.67937500000001,1.558036814255048,1.594698873590479
-81.67875000000001,1.558370783033079,1.594361424366603
-81.67812500000001,1.558370783033083,1.5943614243666
-81.67749999999999,1.558370783033079,1.5943614243666
-81.676875,1.558036814255051,1.594361424366603
-81.67625,1.558036814255051,1.594698873590479
-81.675625,1.558036814255051,1.594698873590479
-81.675,1.558036814255054,1.594698873590482
-81.674375,1.55837078303308,1.595036322814362
-81.67375,1.558036814255053,1.595373772038239
-81.673125,1.558370783033084,1.595373772038241
-81.6725,1.558704751811113,1.595711221262119
-81.671875,1.558370783033083,1.59571122126212
-81.67125,1.558370783033082,1.596048670485999
-81.670625,1.558036814255051,1.596048670485999
-81.67,1.558036814255051,1.596048670485999
-81.669375,1.558370783033082,1.59571122126212
