Tests/Test-70-1.csv

#Digilent WaveForms Oscilloscope Acquisition
#Device Name: Discovery2
#Serial Number: SN:210321A29E56
#Date Time: 2023-11-09 11:26:47.311
#Sample rate: 1600Hz
#Samples: 47363
#Trigger: Source: Channel 1 Type: Edge Condition: Rising Level: 0 V Hyst.: Auto HoldOff: 0 s
#Channel 1: Range: 500 mV/div Offset: 0 V Attenuation: 1 X Sample Mode: Average
#Channel 2: Range: 500 mV/div Offset: 0 V Attenuation: 1 X Sample Mode: Average

Time (s),Channel 1 (V),Channel 2 (V)
-81.92,0.6139070787600095,0.627906847174401
-81.919375,1.560708564478442,1.596723568932878
-81.91875,1.560708564479303,1.59638611970988
-81.918125,1.560708564479303,1.596386119709879
-81.9175,1.560708564479303,1.596723568933758
-81.916875,1.560708564479303,1.596386119709881
-81.91625000000001,1.560374595701273,1.596723568933758
-81.91562500000001,1.560374595701272,1.596723568933759
-81.91500000000001,1.560040626923243,1.596386119709882
-81.91437500000001,1.559706658145211,1.596386119709879
-81.91375000000001,1.560040626923237,1.596723568933756
-81.91312500000001,1.56004062692324,1.596723568933759
-81.91250000000001,1.56004062692324,1.597061018157635
-81.91187499999999,1.560374595701275,1.597061018157635
-81.91125,1.560708564479303,1.596723568933759
-81.910625,1.560708564479306,1.596723568933759
-81.91,1.561042533257337,1.596723568933762
-81.909375,1.561376502035368,1.597061018157639
-81.90875,1.561710470813393,1.597061018157637
-81.908125,1.561042533257331,1.596723568933761
-81.9075,1.56037459570127,1.597061018157641
-81.906875,1.560040626923239,1.597398467381519
-81.90625,1.559706658145208,1.597398467381519
-81.905625,1.559372689367177,1.597398467381519
-81.905,1.559372689367177,1.597398467381519
-81.904375,1.559372689367177,1.597061018157639
-81.90375,1.559372689367177,1.597061018157639
-81.903125,1.560040626923239,1.597061018157639
-81.9025,1.560374595701271,1.59672356893376
-81.901875,1.560374595701272,1.596723568933759
-81.90125,1.560040626923242,1.596386119709881
-81.90062500000001,1.56037459570127,1.596386119709879
-81.90000000000001,1.560040626923242,1.596386119709879
-81.89937500000001,1.559706658145211,1.596048670486002
-81.89875000000001,1.559706658145209,1.596386119709877
-81.89812500000001,1.559706658145209,1.596048670486002
-81.89750000000001,1.559706658145209,1.596048670485999
-81.89687500000001,1.560040626923237,1.596386119709875
-81.89624999999999,1.560374595701275,1.596048670485999
-81.895625,1.560708564479306,1.596048670486003
-81.895,1.561042533257338,1.596386119709876
-81.894375,1.561376502035363,1.596048670485997
-81.89375,1.561042533257332,1.595711221262117
-81.893125,1.560708564479301,1.595373772038242
-81.8925,1.56037459570127,1.595711221262123
-81.891875,1.560040626923239,1.596386119709879
-81.89125,1.559706658145209,1.596386119709879
-81.890625,1.559706658145209,1.59638611970988
-81.89,1.560040626923241,1.596723568933759
-81.889375,1.560374595701272,1.596723568933759
-81.88875,1.560374595701272,1.596723568933759
-81.888125,1.560374595701272,1.596723568933759
-81.8875,1.560708564479302,1.596723568933759
-81.886875,1.560708564479303,1.59638611970988
-81.88625,1.560374595701273,1.596723568933758
-81.885625,1.560708564479302,1.596723568933759
-81.88500000000001,1.560374595701273,1.596723568933759
-81.88437500000001,1.560374595701272,1.596723568933759
-81.88375000000001,1.560040626923243,1.596386119709882
-81.88312500000001,1.559706658145211,1.595711221262125
-81.88250000000001,1.559706658145209,1.595373772038243
-81.88187500000001,1.560040626923237,1.595373772038239
-81.88125000000001,1.56004062692324,1.595711221262116
-81.88062499999999,1.56004062692324,1.596048670486003
-81.88,1.560040626923237,1.596386119709883
-81.879375,1.559706658145209,1.596723568933762
-81.87875,1.559706658145211,1.597061018157637
-81.878125,1.56004062692324,1.596723568933759
-81.8775,1.560040626923242,1.596723568933759
-81.876875,1.560374595701272,1.596723568933758
-81.87625,1.560374595701273,1.596386119709881
-81.875625,1.560708564479303,1.596723568933759
-81.875,1.560708564479302,1.596723568933759
-81.874375,1.560374595701272,1.596723568933759
-81.87375,1.560374595701272,1.596723568933759
-81.873125,1.560374595701272,1.596723568933759
-81.8725,1.560374595701272,1.597061018157639
-81.871875,1.560374595701272,1.597061018157639
-81.87125,1.560374595701272,1.597398467381518
-81.870625,1.560374595701272,1.597398467381519
-81.87,1.560708564479302,1.597398467381519
-81.86937500000001,1.560708564479303,1.597061018157641
-81.86875000000001,1.560708564479303,1.597061018157639
-81.86812500000001,1.560708564479303,1.597061018157639
-81.86750000000001,1.560374595701274,1.597061018157639
-81.86687500000001,1.560040626923243,1.597061018157639
-81.86625000000001,1.56004062692324,1.597061018157639
-81.86562500000001,1.56004062692324,1.596723568933763
-81.86499999999999,1.559706658145212,1.597061018157639
-81.864375,1.560040626923247,1.597061018157636
-81.86375,1.560708564479303,1.596723568933756
-81.863125,1.560708564479303,1.596386119709874
-81.8625,1.560708564479303,1.595711221262119
-81.861875,1.560708564479303,1.595711221262124
-81.86125,1.560708564479301,1.596386119709879
-81.860625,1.560374595701273,1.596386119709881
-81.86,1.560708564479303,1.596723568933761
-81.859375,1.560708564479303,1.597061018157638
-81.85875,1.560708564479302,1.59672356893376
-81.858125,1.560374595701272,1.597061018157639
-81.8575,1.560374595701272,1.596723568933759
-81.856875,1.561042533257334,1.596723568933759
-81.85625,1.560708564479304,1.596723568933759
-81.855625,1.560708564479303,1.596723568933759
-81.855,1.561376502035364,1.597061018157638
-81.854375,1.561376502035366,1.596386119709882
-81.85375000000001,1.561710470813396,1.596048670486001
-81.85312500000001,1.561376502035368,1.596048670485999
-81.85250000000001,1.561376502035366,1.596386119709877
-81.85187500000001,1.561376502035366,1.596048670486002
-81.85125000000001,1.561376502035366,1.596048670485999
-81.85062500000001,1.561042533257338,1.596048670485999
-81.85000000000001,1.561042533257335,1.596048670485999
-81.84937499999999,1.5607085644793,1.596386119709879
-81.84875,1.560374595701265,1.596386119709879
-81.848125,1.559706658145205,1.596386119709879
-81.8475,1.55937268936718,1.596386119709882
-81.846875,1.559706658145209,1.596723568933762
-81.84625,1.559706658145211,1.597061018157641
-81.845625,1.56004062692324,1.597398467381519
-81.845,1.560040626923242,1.597398467381516
-81.844375,1.560374595701273,1.596723568933759
-81.84375,1.560708564479303,1.596723568933759
-81.843125,1.560708564479303,1.596723568933759
-81.8425,1.560708564479303,1.59672356893376
-81.841875,1.560374595701272,1.597061018157639
-81.84125,1.559706658145209,1.597398467381519
-81.840625,1.560040626923239,1.59706101815764
-81.84,1.559706658145209,1.59672356893376
-81.839375,1.560040626923239,1.597061018157638
-81.83875,1.56004062692324,1.596723568933761
-81.83812500000001,1.56037459570127,1.596723568933759
-81.83750000000001,1.560040626923242,1.596723568933759
-81.83687500000001,1.56004062692324,1.596386119709882
-81.83625000000001,1.560374595701269,1.596386119709879
-81.83562500000001,1.560374595701272,1.596386119709879
-81.83500000000001,1.560040626923243,1.596723568933756
-81.83437500000001,1.56004062692324,1.596386119709883
-81.83374999999999,1.559706658145205,1.596386119709879
-81.833125,1.559372689367177,1.596386119709879
-81.8325,1.559372689367177,1.596386119709879
-81.831875,1.55937268936718,1.596386119709879
-81.83125,1.559706658145206,1.596386119709882
-81.830625,1.559372689367179,1.596723568933757
-81.83,1.559706658145209,1.596386119709881
-81.829375,1.559706658145212,1.596723568933759
-81.82875,1.560374595701272,1.596723568933758
-81.828125,1.560374595701272,1.596386119709878
-81.8275,1.560374595701272,1.596048670486
-81.826875,1.560374595701272,1.596386119709879
-81.82625,1.560374595701272,1.596386119709879
-81.825625,1.560374595701272,1.596386119709879
-81.825,1.560708564479302,1.596386119709879
-81.824375,1.560708564479303,1.596048670486
-81.82375,1.560040626923243,1.596048670485999
-81.823125,1.56004062692324,1.596386119709878
-81.82250000000001,1.56004062692324,1.596723568933758
-81.82187500000001,1.56004062692324,1.596723568933759
-81.82125000000001,1.56004062692324,1.596723568933759
-81.82062500000001,1.559706658145211,1.596723568933759
-81.82000000000001,1.559706658145209,1.596723568933759
-81.81937500000001,1.559706658145209,1.597061018157636
-81.81875000000001,1.559706658145209,1.597061018157639
-81.81812499999999,1.559706658145205,1.596386119709875
-81.8175,1.559372689367174,1.596048670486003
-81.816875,1.559038720589149,1.596386119709879
-81.81625,1.559372689367177,1.596386119709882
-81.815625,1.55937268936718,1.596723568933759
-81.815,1.559706658145209,1.596723568933757
-81.814375,1.55970665814521,1.596386119709877
-81.81375,1.560040626923242,1.596048670486001
-81.813125,1.560374595701272,1.596386119709879
-81.8125,1.560374595701272,1.596386119709879
-81.811875,1.560374595701272,1.596386119709879
-81.81125,1.560708564479303,1.596386119709879
-81.810625,1.560374595701272,1.596386119709879
-81.81,1.56004062692324,1.596723568933759
-81.809375,1.560374595701271,1.596723568933759
-81.80875,1.560374595701272,1.596723568933759
-81.808125,1.560374595701272,1.596723568933759
-81.8075,1.560708564479302,1.597061018157638
-81.80687500000001,1.561042533257333,1.596723568933761
-81.80625000000001,1.561042533257335,1.597061018157637
-81.80562500000001,1.561042533257335,1.597398467381517
-81.80500000000001,1.560708564479306,1.597398467381519
-81.80437500000001,1.560708564479303,1.597735916605396
-81.80375000000001,1.560708564479303,1.597735916605399
-81.80312500000001,1.560708564479303,1.597398467381523
-81.80249999999999,1.560374595701275,1.597061018157635
-81.801875,1.5607085644793,1.596723568933763
-81.80125,1.560374595701272,1.597061018157639
-81.800625,1.560374595701272,1.597061018157637
-81.8,1.560374595701272,1.596723568933759
-81.799375,1.560374595701272,1.596723568933762
-81.79875,1.560374595701272,1.597061018157639
-81.798125,1.56037459570127,1.597061018157638
-81.7975,1.560040626923241,1.596723568933759
-81.796875,1.560374595701271,1.596723568933759
-81.79625,1.560040626923241,1.59672356893376
-81.795625,1.560374595701272,1.597061018157639
-81.795,1.560374595701272,1.596723568933759
-81.794375,1.560708564479303,1.596386119709879
-81.79375,1.560708564479303,1.596723568933759
-81.793125,1.560708564479303,1.596723568933759
-81.7925,1.561042533257333,1.596386119709881
-81.791875,1.561042533257335,1.596723568933758
-81.79125000000001,1.561042533257335,1.596723568933759
-81.79062500000001,1.561042533257335,1.596723568933759
-81.79000000000001,1.560708564479306,1.597061018157637
-81.78937500000001,1.560708564479303,1.597398467381516
-81.78875000000001,1.561042533257331,1.597061018157642
-81.78812500000001,1.561042533257335,1.597061018157639
-81.78750000000001,1.561042533257335,1.596386119709887
-81.78687499999999,1.561042533257335,1.596386119709879
-81.78625,1.561042533257331,1.596386119709879
-81.785625,1.560708564479303,1.596386119709882
-81.785,1.560708564479306,1.596723568933759
-81.784375,1.561042533257332,1.596723568933757
-81.78375,1.560708564479301,1.596386119709881
-81.783125,1.560374595701268,1.596723568933759
-81.7825,1.559706658145209,1.596723568933759
-81.781875,1.559706658145211,1.596723568933759
-81.78125,1.560374595701272,1.596723568933758
-81.780625,1.560708564479303,1.596386119709879
-81.78,1.560708564479303,1.596386119709879
-81.779375,1.560708564479303,1.596048670485999
-81.77875,1.560374595701272,1.596386119709879
-81.778125,1.560374595701272,1.596723568933759
-81.7775,1.560708564479302,1.596723568933759
-81.776875,1.560374595701273,1.596723568933759
-81.77625,1.560374595701272,1.597061018157638
-81.77562500000001,1.560040626923242,1.596723568933761
-81.77500000000001,1.560374595701269,1.596723568933759
-81.77437500000001,1.560708564479301,1.596386119709882
-81.77375000000001,1.560708564479303,1.596386119709879
-81.77312500000001,1.560708564479303,1.596723568933756
-81.77250000000001,1.560708564479303,1.596723568933759
-81.77187500000001,1.560040626923247,1.596723568933759
-81.77124999999999,1.560374595701268,1.596723568933759
-81.770625,1.56004062692324,1.596723568933759
-81.77,1.56004062692324,1.596723568933762
-81.769375,1.56004062692324,1.597061018157634
-81.76875,1.56004062692324,1.596386119709879
-81.768125,1.56004062692324,1.596386119709879
-81.7675,1.560040626923242,1.596386119709877
-81.766875,1.560374595701273,1.596048670485999
-81.76625,1.560708564479303,1.596048670486001
-81.765625,1.560708564479302,1.596386119709879
-81.765,1.560374595701272,1.596386119709879
-81.764375,1.560374595701272,1.596048670486
-81.76375,1.560374595701272,1.596386119709879
-81.763125,1.560374595701272,1.596048670486
-81.7625,1.560040626923241,1.596048670485999
-81.761875,1.56004062692324,1.596386119709878
-81.76125,1.56004062692324,1.596048670486001
-81.760625,1.56004062692324,1.596048670485999
-81.76000000000001,1.55970665814521,1.596723568933756
-81.75937500000001,1.559706658145209,1.596386119709881
-81.75875000000001,1.559706658145209,1.596723568933757
-81.75812500000001,1.559706658145209,1.597061018157637
-81.75750000000001,1.55937268936718,1.597398467381516
-81.75687500000001,1.559706658145205,1.597398467381519
-81.75625000000001,1.559706658145209,1.597398467381519
-81.75562499999999,1.559706658145209,1.597398467381519
-81.755,1.559706658145209,1.597398467381516
-81.754375,1.559706658145205,1.597061018157639
-81.75375,1.559372689367177,1.597061018157637
-81.753125,1.55937268936718,1.596723568933759
-81.7525,1.559706658145204,1.596723568933759
-81.751875,1.559038720589147,1.596723568933759
-81.75125,1.559372689367177,1.596723568933758
-81.750625,1.559372689367177,1.596386119709879
-81.75,1.559372689367177,1.59638611970988
-81.749375,1.559372689367177,1.596723568933759
-81.74875,1.559372689367177,1.596723568933759
-81.748125,1.559706658145209,1.596723568933759
-81.7475,1.559372689367177,1.597061018157639
-81.746875,1.560040626923239,1.59672356893376
-81.74625,1.56004062692324,1.596723568933759
-81.745625,1.56004062692324,1.596723568933759
-81.745,1.55970665814521,1.596723568933759
-81.74437500000001,1.559706658145209,1.597061018157637
-81.74375000000001,1.559706658145209,1.597061018157639
-81.74312500000001,1.559706658145209,1.597398467381517
-81.74250000000001,1.55937268936718,1.597061018157642
-81.74187500000001,1.559372689367177,1.597061018157639
-81.74125000000001,1.559038720589149,1.597735916605392
-81.74062500000001,1.559372689367174,1.597735916605399
-81.73999999999999,1.559706658145209,1.597398467381519
-81.739375,1.559706658145205,1.597398467381516
-81.73875,1.559372689367177,1.597061018157642
-81.738125,1.559372689367177,1.597398467381519
-81.7375,1.55937268936718,1.597398467381517
-81.736875,1.559706658145206,1.597061018157639
-81.73625,1.559372689367177,1.597061018157639
-81.735625,1.559372689367179,1.597061018157639
-81.735,1.559706658145207,1.597061018157639
-81.734375,1.559372689367176,1.597061018157638
-81.73375,1.559038720589146,1.59672356893376
-81.733125,1.559372689367177,1.597061018157639
-81.7325,1.559372689367177,1.597061018157639
-81.731875,1.559706658145208,1.597061018157639
-81.73125,1.560040626923239,1.59672356893376
-81.730625,1.56004062692324,1.59638611970988
-81.73,1.55970665814521,1.596386119709879
-81.729375,1.559372689367179,1.596723568933758
-81.72875000000001,1.559706658145207,1.596723568933759
-81.72812500000001,1.559706658145209,1.596386119709881
-81.72750000000001,1.559706658145209,1.596723568933757
-81.72687500000001,1.559706658145209,1.596723568933759
-81.72625000000001,1.559706658145209,1.597061018157636
-81.72562500000001,1.559706658145209,1.597061018157639
-81.72500000000001,1.559706658145209,1.597735916605392
-81.72437499999999,1.559706658145212,1.598073365829279
-81.72375,1.56004062692324,1.598073365829276
-81.723125,1.56004062692324,1.597735916605399
-81.7225,1.560040626923237,1.597735916605396
-81.721875,1.559706658145211,1.597398467381519
-81.72125,1.560040626923242,1.597398467381519
-81.720625,1.560374595701273,1.597398467381517
-81.72,1.560708564479303,1.597061018157639
-81.719375,1.560708564479302,1.597061018157639
-81.71875,1.560374595701272,1.597061018157639
-81.718125,1.560374595701272,1.597061018157639
-81.7175,1.560374595701272,1.597061018157639
-81.716875,1.560374595701272,1.597061018157639
-81.71625,1.560374595701272,1.597061018157639
-81.715625,1.560708564479302,1.597398467381518
-81.715,1.561042533257334,1.596723568933761
-81.714375,1.560708564479304,1.596723568933759
-81.71375,1.560708564479303,1.597061018157638
-81.71312500000001,1.560374595701273,1.597061018157639
-81.71250000000001,1.560040626923242,1.596723568933762
-81.71187500000001,1.56004062692324,1.596723568933759
-81.71125000000001,1.559706658145211,1.597061018157637
-81.71062500000001,1.55937268936718,1.597061018157639
-81.71000000000001,1.559706658145205,1.597061018157639
-81.70937500000001,1.559706658145209,1.597398467381515
-81.70874999999999,1.56004062692324,1.597398467381515
-81.708125,1.560040626923243,1.597061018157639
-81.7075,1.560374595701272,1.597061018157639
-81.706875,1.560374595701272,1.597061018157639
-81.70625,1.560374595701272,1.597061018157637
-81.705625,1.560374595701272,1.596723568933759
-81.705,1.56037459570127,1.596723568933763
-81.704375,1.560040626923239,1.597398467381521
-81.70375,1.559706658145209,1.597735916605399
-81.703125,1.559706658145208,1.597735916605399
-81.7025,1.559372689367178,1.597735916605398
-81.701875,1.559706658145209,1.597398467381519
-81.70125,1.56004062692324,1.597061018157639
-81.700625,1.56004062692324,1.59672356893376
-81.7,1.56004062692324,1.59638611970988
-81.699375,1.56004062692324,1.596386119709879
-81.69875,1.56004062692324,1.597061018157637
-81.698125,1.56004062692324,1.597061018157639
-81.69750000000001,1.56004062692324,1.596723568933761
-81.69687500000001,1.56004062692324,1.596723568933759
-81.69625000000001,1.56004062692324,1.596723568933759
-81.69562500000001,1.559706658145211,1.596723568933759
-81.69500000000001,1.560040626923237,1.596723568933759
-81.69437500000001,1.56004062692324,1.596386119709883
-81.69375000000001,1.56004062692324,1.596048670486003
-81.69312499999999,1.5607085644793,1.595711221262123
-81.6925,1.560374595701275,1.596048670486003
-81.691875,1.560708564479303,1.596386119709876
-81.69125,1.560708564479303,1.596048670486002
-81.690625,1.560708564479301,1.596386119709879
-81.69,1.560374595701272,1.596386119709879
-81.689375,1.560374595701273,1.596386119709875
-81.68875,1.560708564479303,1.595711221262121
-81.688125,1.560708564479303,1.596048670485998
-81.6875,1.560708564479303,1.59571122126212
-81.686875,1.560708564479303,1.596048670485999
-81.68625,1.560708564479303,1.596048670485999
-81.685625,1.560708564479303,1.595711221262119
-81.685,1.560708564479303,1.596048670485999
-81.684375,1.560708564479303,1.596048670485999
-81.68375,1.560708564479303,1.59571122126212
-81.683125,1.560374595701273,1.595373772038241
-81.6825,1.560708564479302,1.595711221262118
-81.68187500000001,1.560040626923244,1.595711221262119
-81.68125000000001,1.56004062692324,1.595711221262119
-81.68062500000001,1.56004062692324,1.596048670485997
-81.68000000000001,1.559706658145211,1.596048670485999
-81.67937500000001,1.559706658145209,1.596386119709876
-81.67875000000001,1.560040626923237,1.596723568933756
-81.67812500000001,1.56004062692324,1.596723568933759
-81.67749999999999,1.560374595701272,1.596723568933763
-81.676875,1.560374595701272,1.597061018157636
-81.67625,1.560374595701275,1.596723568933756
-81.675625,1.560708564479306,1.596386119709879
-81.675,1.561042533257335,1.596386119709879
-81.674375,1.56104253325733,1.596386119709883
-81.67375,1.560374595701272,1.597061018157639
-81.673125,1.560374595701273,1.597061018157638
-81.6725,1.560708564479302,1.596723568933758
-81.671875,1.560374595701272,1.596386119709878
-81.67125,1.560708564479303,1.596048670486
-81.670625,1.560708564479303,1.596386119709879
-81.67,1.560708564479303,1.596723568933759
