BitnerPumpTests10/BitnerPumpTest_3_Scope.csv

#Digilent WaveForms Oscilloscope Acquisition
#Device Name: Discovery2
#Serial Number: SN:210321A29E56
#Date Time: 2023-12-04 14:57:57.510
#Sample rate: 1600Hz
#Samples: 51509
#Trigger: Source: Channel 1 Type: Edge Condition: Rising Level: 0 V Hyst.: Auto HoldOff: 0 s
#Channel 1: Range: 500 mV/div Offset: 0 V Attenuation: 1 X Sample Mode: Average
#Channel 2: Range: 500 mV/div Offset: 0 V Attenuation: 1 X Sample Mode: Average

Time (s),Channel 1 (V),Channel 2 (V)
-81.92,0.08055894024370906,0.08528849517542925
-81.919375,1.770774925859577,1.868370194155503
-81.91875,1.770106988305053,1.868707643381004
-81.918125,1.768771113192929,1.868707643381005
-81.9175,1.768103175636865,1.866682948037733
-81.916875,1.767101269302773,1.867020397261604
-81.91625000000001,1.766767300524738,1.866682948037727
-81.91562500000001,1.766767300524737,1.867695295709359
-81.91500000000001,1.767101269302766,1.868032744933243
-81.91437500000001,1.768771113192912,1.868032744933245
-81.91375000000001,1.768771113192926,1.867357846485491
-81.91312500000001,1.767435238080813,1.868032744933239
-81.91250000000001,1.766767300524744,1.868032744933245
-81.91187499999999,1.766099362968688,1.867357846485504
-81.91125,1.76743523808081,1.869045092604871
-81.910625,1.768437144414894,1.86769529570935
-81.91,1.768437144414891,1.866008049589979
-81.909375,1.768103175636858,1.867695295709385
-81.90875,1.767435238080793,1.870394889500415
-81.908125,1.766433331746711,1.872082135619808
-81.9075,1.767435238080803,1.872757034067546
-81.906875,1.768103175636866,1.868707643380996
-81.90625,1.76910508197096,1.866345498813856
-81.905625,1.770106988305048,1.87039488950041
-81.905,1.768437144414893,1.873431932515324
-81.904375,1.766767300524737,1.872757034067565
-81.90375,1.76776920685883,1.872757034067565
-81.903125,1.768771113192924,1.868370194157133
-81.9025,1.770106988305048,1.872757034067553
-81.901875,1.769105081970961,1.875119178634716
-81.90125,1.767435238080807,1.876468975530238
-81.90062500000001,1.76676730052474,1.874444280186975
-81.90000000000001,1.766767300524737,1.874444280186964
-81.89937500000001,1.766099362968679,1.873431932515332
-81.89875000000001,1.765765394190645,1.871744686395938
-81.89812500000001,1.765765394190642,1.875794077082447
-81.89750000000001,1.764095550300501,1.877481323201867
-81.89687500000001,1.763761581522457,1.876468975530255
-81.89624999999999,1.764095550300481,1.87511917863471
-81.895625,1.763761581522463,1.873769381739225
-81.895,1.764763487856545,1.875794077082478
-81.894375,1.764429519078522,1.875119178634744
-81.89375,1.765097456634572,1.877481323201884
-81.893125,1.764095550300482,1.877481323201862
-81.8925,1.763761581522455,1.874106830963084
-81.891875,1.764095550300484,1.87410683096308
-81.89125,1.764095550300489,1.873094483291457
-81.890625,1.765431425412611,1.876468975530251
-81.89,1.76543142541261,1.879168569321283
-81.889375,1.765097456634579,1.878831120097399
-81.88875,1.764763487856548,1.873094483291444
-81.888125,1.764429519078516,1.873094483291444
-81.8875,1.763427612744423,1.874444280186962
-81.886875,1.764095550300483,1.877143873977997
-81.88625,1.764429519078515,1.878831120097398
-81.885625,1.764429519078516,1.879168569321282
-81.88500000000001,1.763427612744427,1.876468975530259
-81.88437500000001,1.762759675188363,1.875119178634733
-81.88375000000001,1.762425706410329,1.874106830963092
-81.88312500000001,1.762091737632298,1.87579407708247
-81.88250000000001,1.762091737632296,1.88051836621676
-81.88187500000001,1.761757768854267,1.880518366216803
-81.88125000000001,1.761089831298208,1.877143873978041
-81.88062499999999,1.760421893742127,1.87680642475412
-81.88,1.75941998740803,1.876468975530247
-81.879375,1.758084112295924,1.876806424754152
-81.87875,1.758752049851989,1.879843467769063
-81.878125,1.759753956186068,1.882205612336184
-81.8775,1.758752049851981,1.879506018545142
-81.876875,1.758752049851979,1.876131526306353
-81.87625,1.758418081073946,1.874106830963103
-81.875625,1.757750143517887,1.878156221649662
-81.875,1.758084112295921,1.883217960007845
-81.874375,1.759419987408045,1.883892858455596
-81.87375,1.760087924964106,1.879843467769041
-81.873125,1.759753956186075,1.876806424754124
-81.8725,1.75841808107395,1.875794077082485
-81.871875,1.757750143517887,1.880180916992916
-81.87125,1.758084112295917,1.88490520612723
-81.870625,1.759419987408039,1.883217960007849
-81.87,1.760421893742133,1.878156221649667
-81.86937500000001,1.759419987408049,1.875456627858619
-81.86875000000001,1.758084112295926,1.878156221649627
-81.86812500000001,1.75741617473986,1.882205612336174
-81.86750000000001,1.757416174739855,1.883217960007835
-81.86687500000001,1.758752049851968,1.882205612336213
-81.86625000000001,1.760087924964093,1.879168569321314
-81.86562500000001,1.758752049851995,1.87680642475415
-81.86499999999999,1.756748237183766,1.877143873978055
-81.864375,1.754410455737561,1.881868163112334
-81.86375,1.753408549403492,1.882880510783972
-81.863125,1.755078393293642,1.883892858455576
-81.8625,1.756080299627724,1.880518366216803
-81.861875,1.755412362071651,1.880518366216797
-81.86125,1.753074580625434,1.879506018545171
-81.860625,1.751070767957255,1.880855815440696
-81.86,1.75073679917923,1.883555409231725
-81.859375,1.752072674291356,1.883892858455601
-81.85875,1.75407648695954,1.883217960007837
-81.858125,1.75441045573757,1.879843467769044
-81.8575,1.752740611847414,1.880180916992924
-81.856875,1.750736799179226,1.881868163112322
-81.85625,1.750402830401194,1.885580104574996
-81.855625,1.751070767957254,1.885580104575003
-81.855,1.753408549403468,1.882880510783973
-81.854375,1.754076486959537,1.880855815440693
-81.85375000000001,1.752072674291361,1.880855815440684
-81.85312500000001,1.750736799179233,1.885242655351095
-81.85250000000001,1.750068861623167,1.885580104575
-81.85187500000001,1.750736799179219,1.884567756903371
-81.85125000000001,1.752406643069367,1.881193264664594
-81.85062500000001,1.753408549403467,1.880855815440687
-81.85000000000001,1.753074580625449,1.880518366216807
-81.84937499999999,1.751404736735262,1.885242655351141
-81.84875,1.749066955289081,1.886929901470526
-81.848125,1.750402830401208,1.887267350694357
-81.8475,1.752072674291353,1.882205612336198
-81.846875,1.75240664306938,1.88153071388846
-81.84625,1.752072674291338,1.883892858455616
-81.845625,1.750068861623154,1.885917553798883
-81.845,1.748732986511034,1.885917553798871
-81.844375,1.748399017733008,1.883217960007843
-81.84375,1.7494009240671,1.883217960007847
-81.843125,1.750068861623161,1.884567756903368
-81.8425,1.749400924067096,1.887267350694402
-81.841875,1.746729173842847,1.886929901470523
-81.84125,1.745727267508753,1.886255003022764
-81.840625,1.745393298730721,1.883217960007849
-81.84,1.746061236286782,1.882880510783964
-81.839375,1.746061236286784,1.88119326466457
-81.83875,1.744725361174664,1.885242655351105
-81.83812500000001,1.74238757972845,1.884567756903367
-81.83750000000001,1.742387579728437,1.885580104574996
-81.83687500000001,1.740717735838292,1.88456775690337
-81.83625000000001,1.741051704616309,1.881868163112346
-81.83562500000001,1.743055517284482,1.881868163112323
-81.83500000000001,1.741719642172388,1.881868163112323
-81.83437500000001,1.741385673394346,1.886255003022715
-81.83374999999999,1.740049798282217,1.883892858455589
-81.833125,1.740049798282237,1.88254306156008
-81.8325,1.742053610950406,1.882205612336191
-81.831875,1.742053610950411,1.880855815440711
-81.83125,1.742721548506471,1.884230307679493
-81.830625,1.743055517284488,1.885580104575003
-81.83,1.741051704616309,1.88558010457499
-81.829375,1.740717735838286,1.883217960007826
-81.82875,1.742053610950405,1.879506018545172
-81.828125,1.741719642172375,1.881868163112335
-81.8275,1.742053610950402,1.886255003022762
-81.826875,1.740049798282216,1.885917553798881
-81.82625,1.738713923170091,1.883892858455603
-81.825625,1.741051704616309,1.884905206127242
-81.825,1.74071773583828,1.886929901470519
-81.824375,1.74071773583828,1.886592452246644
-81.82375,1.74071773583828,1.886255003022764
-81.823125,1.7387139231701,1.889629495261547
-81.82250000000001,1.738379954392061,1.887942249142172
-81.82187500000001,1.739047891948118,1.886592452246652
-81.82125000000001,1.738045985614035,1.886255003022765
-81.82062500000001,1.736376141723884,1.888617147589903
-81.82000000000001,1.73637614172387,1.891991639828692
-81.81937500000001,1.736710110501898,1.891991639828722
-81.81875000000001,1.737712016835985,1.889292046037712
-81.81812499999999,1.735708204167815,1.89030439370933
-81.8175,1.73637614172388,1.890979292157089
-81.816875,1.737378048057959,1.891654190604854
-81.81625,1.736710110501894,1.893003987500354
-81.815625,1.735708204167805,1.89199163982873
-81.815,1.735374235389782,1.89300398750034
-81.814375,1.736376141723881,1.889629495261568
-81.81375,1.738379954392053,1.890641842933205
-81.813125,1.737044079279936,1.891316741380971
-81.8125,1.737712016835996,1.893678885948116
-81.811875,1.737712016835995,1.891654190604845
-81.81125,1.737044079279933,1.893003987500359
-81.810625,1.73637614172387,1.889966944485442
-81.81,1.737044079279933,1.89199163982872
-81.809375,1.737044079279933,1.892666538276481
-81.80875,1.737044079279933,1.892329089052603
-81.808125,1.736042172945842,1.89030439370933
-81.8075,1.735708204167809,1.891654190604836
-81.80687500000001,1.735708204167807,1.893678885948111
-81.80625000000001,1.735374235389778,1.893003987500366
-81.80562500000001,1.735708204167805,1.892329089052607
-81.80500000000001,1.734372329055692,1.893341436724234
-81.80437500000001,1.733036453943568,1.893678885948119
-81.80375000000001,1.73403836027764,1.891991639828739
-81.80312500000001,1.733704391499622,1.891654190604846
-81.80249999999999,1.731366610053394,1.889966944485487
-81.801875,1.731032641275356,1.894016335171975
-81.80125,1.730030734941281,1.891316741380981
-81.800625,1.731032641275358,1.893341436724239
-81.8,1.730030734941267,1.893003987500374
-81.799375,1.729362797385211,1.894691233619766
-81.79875,1.729696766163229,1.895366132067511
-81.798125,1.727692953495054,1.89334143672426
-81.7975,1.728360891051115,1.897390827410796
-81.796875,1.728694859829148,1.89604103051528
-81.79625,1.729362797385209,1.895366132067515
-81.795625,1.72969676616324,1.891654190604842
-81.795,1.729362797385209,1.891316741380962
-81.794375,1.729028828607178,1.895366132067518
-81.79375,1.729696766163239,1.897390827410798
-81.793125,1.730698672497332,1.897390827410801
-81.7925,1.730698672497335,1.891316741380984
-81.791875,1.730698672497335,1.893003987500354
-81.79125000000001,1.730364703719305,1.896715928963021
-81.79062500000001,1.730364703719304,1.896041030515286
-81.79000000000001,1.729362797385216,1.896715928963037
-81.78937500000001,1.72902882860718,1.896041030515287
-81.78875000000001,1.730030734941263,1.895028682843651
-81.78812500000001,1.729696766163244,1.891991639828753
-81.78750000000001,1.729362797385212,1.896041030515238
-81.78687499999999,1.727358984717016,1.897390827410805
-81.78625,1.727025015938995,1.897728276634678
-81.785625,1.727692953495042,1.897390827410768
-81.785,1.726691047160943,1.893678885948127
-81.784375,1.725021203270792,1.894353784395872
-81.78375,1.724019296936707,1.893003987500373
-81.783125,1.724353265714722,1.894691233619755
-81.7825,1.721681515490485,1.893341436724257
-81.781875,1.721681515490488,1.89671592896304
-81.78125,1.722683421824574,1.896378479739162
-81.780625,1.721013577934421,1.896378479739164
-81.78,1.720679609156389,1.897728276634683
-81.779375,1.719009765266233,1.899415522754081
-81.77875,1.719009765266233,1.897053378186924
-81.778125,1.722683421824572,1.89806572585856
-81.7775,1.721347546712457,1.897053378186924
-81.776875,1.721013577934423,1.895703581291406
-81.77625,1.722349453046542,1.898740624306307
-81.77562500000001,1.721681515490488,1.896715928963053
-81.77500000000001,1.723685328158661,1.899415522754064
-81.77437500000001,1.723351359380644,1.896715928963061
-81.77375000000001,1.723351359380642,1.89570358129141
-81.77312500000001,1.725689140826841,1.897053378186909
-81.77250000000001,1.724687234492778,1.897728276634675
-81.77187500000001,1.723685328158684,1.900765319649568
-81.77124999999999,1.723685328158673,1.898065725858569
-81.770625,1.72368532815868,1.898740624306284
-81.77,1.724353265714749,1.895028682843663
-81.769375,1.725689140826835,1.897390827410826
-81.76875,1.722349453046548,1.900427870425724
-81.768125,1.722349453046541,1.900765319649599
-81.7675,1.721347546712446,1.900427870425697
-81.766875,1.720011671600326,1.896041030515291
-81.76625,1.719677702822287,1.898065725858572
-81.765625,1.717339921376076,1.901102768873474
-81.765,1.717673890154105,1.898403175082443
-81.764375,1.716671983820009,1.899415522754081
-81.76375,1.713666264817729,1.899078073530201
-81.763125,1.713332296039697,1.901102768873479
-81.7625,1.713332296039697,1.898065725858567
-81.761875,1.712998327261666,1.900090421201835
-81.76125,1.711996420927575,1.899415522754084
-81.760625,1.711996420927571,1.901440218097352
-81.76000000000001,1.711328483371512,1.900765319649605
-81.75937500000001,1.712330389705596,1.902115116545112
-81.75875000000001,1.70965863948137,1.899752971977978
-81.75812500000001,1.709992608259379,1.900765319649593
-81.75750000000001,1.712330389705581,1.900427870425724
-81.75687500000001,1.711662452149546,1.897053378186955
-81.75625000000001,1.71166245214954,1.898740624306303
-81.75562499999999,1.710326577037403,1.898403175082434
-81.755,1.709324670703342,1.897728276634665
-81.754375,1.711662452149546,1.896041030515303
-81.75375,1.712330389705597,1.898403175082463
-81.753125,1.711662452149535,1.901102768873474
-81.7525,1.71099451459347,1.900090421201837
-81.751875,1.709992608259389,1.899415522754057
-81.75125,1.711328483371507,1.895028682843656
-81.750625,1.710994514593473,1.898065725858566
-81.75,1.709992608259384,1.89941552275409
-81.749375,1.710660545815442,1.902790014992875
-81.74875,1.708656733147256,1.899752971977961
-81.748125,1.707988795591193,1.899752971977961
-81.7475,1.708656733147256,1.897053378186924
-81.746875,1.70631895170104,1.894353784395887
-81.74625,1.705984982923005,1.900765319649584
-81.745625,1.703981170254822,1.900765319649601
-81.745,1.703313232698755,1.902115116545115
-81.74437500000001,1.702979263920722,1.900765319649608
-81.74375000000001,1.702645295142691,1.900427870425723
-81.74312500000001,1.702979263920718,1.898065725858578
-81.74250000000001,1.702645295142692,1.900090421201824
-81.74187500000001,1.702311326364661,1.905827058007748
-81.74125000000001,1.701309420030573,1.904139811888417
-81.74062500000001,1.701309420030563,1.906164507231658
-81.73999999999999,1.701309420030578,1.903802362664513
-81.739375,1.702645295142696,1.903127464216757
-81.73875,1.703313232698764,1.902790014992933
-81.738125,1.704649107810864,1.908526651798818
-81.7375,1.702979263920726,1.905827058007805
-81.736875,1.703647201476792,1.906501956455552
-81.73625,1.70498307658891,1.905152159560029
-81.735625,1.704983076588917,1.90312746421677
-81.735,1.706652920479061,1.905152159560047
-81.734375,1.704983076588906,1.906839405679441
-81.73375,1.703647201476785,1.907176854903318
-81.733125,1.704315139032847,1.905827058007801
-81.7325,1.704649107810878,1.90616450723168
-81.731875,1.703981170254816,1.90650195645556
-81.73125,1.704649107810877,1.90650195645556
-81.730625,1.703647201476786,1.90650195645556
-81.73,1.703313232698753,1.907176854903318
-81.729375,1.703313232698752,1.907514304127199
-81.72875000000001,1.699973544918455,1.909201550246591
-81.72812500000001,1.699973544918437,1.9061645072317
-81.72750000000001,1.700641482474495,1.906839405679435
-81.72687500000001,1.698637669806328,1.905827058007808
-81.72625000000001,1.698303701028283,1.910551347142077
-81.72562500000001,1.696633857138139,1.909876448694366
-81.72500000000001,1.696633857138122,1.908526651798855
-81.72437499999999,1.695965919582038,1.90785175335108
-81.72375,1.69396210691387,1.907851753351067
-81.723125,1.693962106913861,1.906501956455554
-81.7225,1.692960200579773,1.905827058007831
-81.721875,1.692626231801749,1.909538999470482
-81.72125,1.693294169357807,1.909876448694368
-81.720625,1.693294169357807,1.911226245589871
-81.72,1.69329416935781,1.909538999470466
-81.719375,1.693962106913871,1.906501956455573
-81.71875,1.694296075691901,1.909876448694354
-81.718125,1.693962106913874,1.907851753351084
-81.7175,1.69596591958206,1.910213897918237
-81.716875,1.696299888360091,1.90683940567944
-81.71625,1.696633857138122,1.909201550246598
-81.715625,1.696299888360091,1.9092015502466
-81.715,1.695297982025999,1.909538999470479
-81.714375,1.696967825916148,1.908189202574965
-81.71375,1.698303701028274,1.909876448694352
-81.71312500000001,1.696633857138131,1.911226245589872
-81.71250000000001,1.696633857138122,1.912913491709269
-81.71187500000001,1.693294169357831,1.909876448694382
-81.71125000000001,1.693628138135836,1.908526651798851
-81.71062500000001,1.693962106913867,1.908864101022717
-81.71000000000001,1.693294169357814,1.909201550246597
-81.70937500000001,1.692960200579779,1.910888796365981
-81.70874999999999,1.689954481577471,1.91122624558988
-81.708125,1.6879506689093,1.911226245589883
-81.7075,1.687616700131257,1.911563694813735
-81.706875,1.68594685624112,1.908864101022739
-81.70625,1.68661479379717,1.911226245589875
-81.705625,1.685612887463072,1.910551347142133
-81.705,1.68394304357292,1.912576042485399
-81.704375,1.682941137238829,1.912576042485398
-81.70375,1.682607168460799,1.912238593261515
-81.703125,1.682607168460799,1.910888796366
-81.7025,1.682607168460799,1.910888796366003
-81.701875,1.682607168460799,1.9125760424854
-81.70125,1.682941137238831,1.91291349170928
-81.700625,1.682941137238831,1.914600737828678
-81.7,1.683275106016862,1.913925839380921
-81.699375,1.683943043572924,1.913250940933161
-81.69875,1.685612887463077,1.91325094093316
-81.698125,1.686614793797173,1.913588390157038
-81.69750000000001,1.686948762575207,1.912238593261527
-81.69687500000001,1.688952575243385,1.913588390157031
-81.69625000000001,1.687950668909311,1.914600737828672
-81.69562500000001,1.687282731353246,1.913588390157048
-81.69500000000001,1.688618606465354,1.914263288604793
-81.69437500000001,1.688284637687338,1.913588390157046
-81.69375000000001,1.688618606465363,1.912913491709287
-81.69312499999999,1.68761670013125,1.913250940933163
-81.6925,1.685612887463096,1.913588390157046
-81.691875,1.686948762575194,1.914263288604778
-81.69125,1.685278918685049,1.911901144037645
-81.690625,1.684944949907013,1.91257604248539
-81.69,1.6839430435729,1.91122624558988
-81.689375,1.679935418236553,1.911226245589891
-81.68875,1.680937324570633,1.913250940933163
-81.688125,1.678933511902448,1.913925839380927
-81.6875,1.677597636790326,1.915950534724195
-81.686875,1.677263668012291,1.914263288604793
-81.68625,1.674925886566075,1.910888796366
-81.685625,1.675259855344106,1.91122624558988
-81.685,1.673923980231982,1.913925839380917
-81.684375,1.671920167563795,1.916287983948075
-81.68375,1.674257949010006,1.917637780843595
-81.683125,1.673590011453951,1.914938187052569
-81.6825,1.673590011453949,1.915613085500316
-81.68187500000001,1.673923980231979,1.914600737828685
-81.68125000000001,1.672588105119863,1.913925839380924
-81.68062500000001,1.675593824122116,1.916287983948062
-81.68000000000001,1.675927792900167,1.915275636276447
-81.67937500000001,1.676929699234255,1.918312679291331
-81.67875000000001,1.677263668012292,1.916287983948099
-81.67812500000001,1.676929699234267,1.913925839380945
-81.67749999999999,1.676929699234271,1.913925839380916
-81.676875,1.67759763679032,1.913588390157066
-81.67625,1.67692969923427,1.916287983948082
-81.675625,1.677597636790316,1.916625433171948
-81.675,1.676261761678196,1.915275636276432
-81.674375,1.675593824122134,1.914263288604789
-81.67375,1.674925886566068,1.912576042485396
-81.673125,1.673590011453949,1.911901144037652
-81.6725,1.673590011453944,1.91460073782867
-81.671875,1.672254136341821,1.911901144037642
-81.67125,1.671586198785757,1.912913491709279
-81.670625,1.6699163548956,1.912576042485399
-81.67,1.667578573449382,1.91190114403764
