BitnerPumpTests10/BitnerPumpTest_1_Fast_Scope.csv

#Digilent WaveForms Oscilloscope Acquisition
#Device Name: Discovery2
#Serial Number: SN:210321A29E56
#Date Time: 2023-12-04 15:13:49.695
#Sample rate: 1600Hz
#Samples: 40914
#Trigger: Source: Channel 1 Type: Edge Condition: Rising Level: 0 V Hyst.: Auto HoldOff: 0 s
#Channel 1: Range: 500 mV/div Offset: 0 V Attenuation: 1 X Sample Mode: Average
#Channel 2: Range: 500 mV/div Offset: 0 V Attenuation: 1 X Sample Mode: Average

Time (s),Channel 1 (V),Channel 2 (V)
-81.92,1.191673064754499,1.486715121948893
-81.919375,1.547015844579689,1.930123402126754
-81.91875,1.547015844580012,1.930123402127157
-81.918125,1.547015844580012,1.930123402127157
-81.9175,1.547015844580012,1.930460851351036
-81.916875,1.547015844580012,1.930123402127159
-81.91625000000001,1.547015844580012,1.930123402127157
-81.91562500000001,1.547015844580012,1.92978595290328
-81.91500000000001,1.547015844580012,1.929785952903277
-81.91437500000001,1.547349813358041,1.9294485036794
-81.91375000000001,1.547349813358043,1.929111054455521
-81.91312500000001,1.547349813358043,1.929111054455517
-81.91250000000001,1.547015844580015,1.92978595290327
-81.91187499999999,1.54668187580198,1.930123402127157
-81.91125,1.54668187580198,1.930123402127157
-81.910625,1.546681875801977,1.930123402127157
-81.91,1.546347907023946,1.930123402127155
-81.909375,1.546013938245915,1.929785952903277
-81.90875,1.545679969467888,1.929785952903275
-81.908125,1.546013938245919,1.929448503679397
-81.9075,1.546347907023949,1.929448503679399
-81.906875,1.546347907023949,1.929785952903277
-81.90625,1.546347907023948,1.929785952903277
-81.905625,1.546013938245917,1.929785952903278
-81.905,1.546013938245917,1.930123402127157
-81.904375,1.546013938245917,1.929785952903277
-81.90375,1.545679969467886,1.929785952903277
-81.903125,1.546013938245917,1.929785952903277
-81.9025,1.546347907023948,1.930123402127156
-81.901875,1.546681875801979,1.930123402127157
-81.90125,1.54668187580198,1.929785952903279
-81.90062500000001,1.54668187580198,1.930123402127156
-81.90000000000001,1.546347907023951,1.930798300574913
-81.89937500000001,1.546347907023949,1.930798300574917
-81.89875000000001,1.546681875801978,1.930798300574917
-81.89812500000001,1.54668187580198,1.930798300574917
-81.89750000000001,1.54668187580198,1.930798300574917
-81.89687500000001,1.54668187580198,1.930460851351041
-81.89624999999999,1.546681875801977,1.930460851351037
-81.895625,1.546347907023952,1.930460851351034
-81.895,1.54668187580198,1.930123402127157
-81.894375,1.546681875801978,1.930123402127157
-81.89375,1.546347907023949,1.930123402127157
-81.893125,1.546347907023947,1.930123402127157
-81.8925,1.546013938245917,1.930123402127159
-81.891875,1.546013938245917,1.930460851351036
-81.89125,1.546013938245917,1.930123402127159
-81.890625,1.546013938245915,1.930460851351037
-81.89,1.545346000689855,1.930460851351037
-81.889375,1.545679969467886,1.930460851351037
-81.88875,1.545679969467886,1.930123402127157
-81.888125,1.545679969467886,1.930798300574917
-81.8875,1.545346000689855,1.930798300574917
-81.886875,1.545679969467885,1.930798300574917
-81.88625,1.546013938245916,1.930798300574917
-81.885625,1.546347907023947,1.930798300574917
-81.88500000000001,1.546347907023949,1.931135749798795
-81.88437500000001,1.546681875801978,1.930798300574919
-81.88375000000001,1.54668187580198,1.93046085135104
-81.88312500000001,1.54668187580198,1.930460851351037
-81.88250000000001,1.546347907023952,1.930460851351037
-81.88187500000001,1.546347907023949,1.930460851351037
-81.88125000000001,1.546681875801977,1.930460851351037
-81.88062499999999,1.547015844580015,1.930123402127157
-81.88,1.547349813358037,1.930123402127151
-81.879375,1.546681875801974,1.929448503679394
-81.87875,1.546013938245909,1.929111054455512
-81.878125,1.545012031911818,1.928436156007753
-81.8775,1.544344094355757,1.927761257559993
-81.876875,1.544010125577726,1.927086359112236
-81.87625,1.543676156799695,1.926748909888358
-81.875625,1.543342188021664,1.926748909888359
-81.875,1.543008219243634,1.927086359112237
-81.874375,1.543008219243634,1.926748909888357
-81.87375,1.543008219243633,1.926411460664478
-81.873125,1.542674250465602,1.926411460664478
-81.8725,1.542674250465602,1.926748909888357
-81.871875,1.542674250465602,1.926748909888358
-81.87125,1.542674250465602,1.926748909888358
-81.870625,1.543008219243633,1.926411460664479
-81.87,1.542674250465604,1.926411460664478
-81.86937500000001,1.542674250465602,1.926411460664478
-81.86875000000001,1.543008219243631,1.926411460664478
-81.86812500000001,1.543676156799692,1.9260740114406
-81.86750000000001,1.543342188021668,1.926411460664475
-81.86687500000001,1.543342188021665,1.926411460664478
-81.86625000000001,1.543676156799693,1.926748909888354
-81.86562500000001,1.543676156799697,1.926748909888358
-81.86499999999999,1.544344094355767,1.926748909888365
-81.864375,1.545012031911826,1.927423808336121
-81.86375,1.545346000689857,1.927761257559998
-81.863125,1.545679969467886,1.92776125756
-81.8625,1.545679969467888,1.92809870678388
-81.861875,1.546013938245919,1.92843615600776
-81.86125,1.546347907023947,1.928773605231641
-81.860625,1.546013938245916,1.929448503679399
-81.86,1.545679969467886,1.929785952903279
-81.859375,1.545679969467886,1.930123402127158
-81.85875,1.545679969467886,1.930460851351038
-81.858125,1.545679969467886,1.930798300574917
-81.8575,1.546013938245917,1.930798300574917
-81.856875,1.546013938245917,1.930460851351038
-81.85625,1.546013938245917,1.930460851351037
-81.855625,1.546347907023948,1.929785952903279
-81.855,1.546681875801979,1.929448503679399
-81.854375,1.54701584458001,1.929448503679397
-81.85375000000001,1.546681875801982,1.929785952903276
-81.85312500000001,1.546347907023951,1.930123402127155
-81.85250000000001,1.546347907023949,1.930460851351035
-81.85187500000001,1.546347907023949,1.930798300574915
-81.85125000000001,1.546347907023949,1.930798300574917
-81.85062500000001,1.546347907023949,1.930798300574917
-81.85000000000001,1.546681875801977,1.930798300574917
-81.84937499999999,1.54668187580198,1.930460851351037
-81.84875,1.546681875801977,1.930460851351037
-81.848125,1.546347907023946,1.930460851351037
-81.8475,1.546013938245917,1.930460851351037
-81.846875,1.546013938245917,1.930460851351037
-81.84625,1.546013938245917,1.930460851351037
-81.845625,1.546013938245917,1.930460851351037
-81.845,1.546013938245919,1.930460851351036
-81.844375,1.546347907023949,1.930123402127157
-81.84375,1.54634790702395,1.930123402127157
-81.843125,1.546681875801981,1.930123402127157
-81.8425,1.547015844580012,1.930123402127157
-81.841875,1.54668187580198,1.930123402127157
-81.84125,1.546347907023949,1.930123402127157
-81.840625,1.546347907023949,1.930460851351037
-81.84,1.546013938245918,1.930460851351037
-81.839375,1.546013938245917,1.930460851351037
-81.83875,1.546013938245917,1.930123402127159
-81.83812500000001,1.545679969467887,1.930123402127157
-81.83750000000001,1.546013938245915,1.930123402127157
-81.83687500000001,1.546347907023946,1.930460851351035
-81.83625000000001,1.54601393824592,1.930460851351037
-81.83562500000001,1.546013938245917,1.930798300574914
-81.83500000000001,1.546013938245917,1.930798300574917
-81.83437500000001,1.546347907023945,1.930798300574917
-81.83374999999999,1.54668187580198,1.930798300574917
-81.833125,1.54668187580198,1.930798300574914
-81.8325,1.54668187580198,1.930460851351037
-81.831875,1.54668187580198,1.930460851351037
-81.83125,1.54668187580198,1.930460851351037
-81.830625,1.546681875801976,1.93046085135104
-81.83,1.546013938245915,1.930798300574915
-81.829375,1.545679969467887,1.930460851351037
-81.82875,1.546013938245916,1.930460851351037
-81.828125,1.545679969467886,1.930460851351037
-81.8275,1.546013938245917,1.930460851351037
-81.826875,1.546013938245917,1.930460851351037
-81.82625,1.546013938245917,1.930123402127157
-81.825625,1.545679969467886,1.930123402127157
-81.825,1.545679969467886,1.930460851351037
-81.824375,1.546013938245916,1.930460851351037
-81.82375,1.546347907023948,1.930123402127159
-81.823125,1.546013938245919,1.930123402127157
-81.82250000000001,1.546347907023947,1.930123402127157
-81.82187500000001,1.546347907023949,1.930123402127157
-81.82125000000001,1.546347907023949,1.930123402127157
-81.82062500000001,1.546347907023949,1.92978595290328
-81.82000000000001,1.546347907023949,1.929785952903277
-81.81937500000001,1.546347907023949,1.929448503679401
-81.81875000000001,1.546681875801977,1.929111054455521
-81.81812499999999,1.54668187580198,1.929785952903281
-81.8175,1.54668187580198,1.930123402127154
-81.816875,1.54668187580198,1.929785952903277
-81.81625,1.546681875801978,1.92978595290328
-81.815625,1.546347907023946,1.93012340212716
-81.815,1.546013938245913,1.93046085135104
-81.814375,1.545346000689856,1.930798300574915
-81.81375,1.545679969467887,1.930460851351039
-81.813125,1.546013938245917,1.930798300574917
-81.8125,1.546013938245918,1.930798300574917
-81.811875,1.546347907023949,1.930798300574917
-81.81125,1.546347907023949,1.930460851351037
-81.810625,1.546013938245917,1.930460851351037
-81.81,1.546013938245917,1.930460851351037
-81.809375,1.546347907023948,1.930460851351037
-81.80875,1.546347907023949,1.930460851351037
-81.808125,1.546347907023949,1.930798300574916
-81.8075,1.546347907023949,1.930798300574917
-81.80687500000001,1.546347907023949,1.930798300574917
-81.80625000000001,1.546347907023949,1.93046085135104
-81.80562500000001,1.54601393824592,1.930798300574915
-81.80500000000001,1.546013938245917,1.930123402127163
-81.80437500000001,1.546347907023946,1.929785952903281
-81.80375000000001,1.546347907023949,1.930123402127154
-81.80312500000001,1.546347907023949,1.930123402127157
-81.80249999999999,1.546347907023945,1.930123402127157
-81.801875,1.546013938245911,1.930123402127151
-81.80125,1.545346000689851,1.929448503679391
-81.800625,1.54501203191182,1.928773605231632
-81.8,1.544678063133794,1.928098706783875
-81.799375,1.545012031911823,1.927761257559995
-81.79875,1.545012031911821,1.927423808336116
-81.798125,1.54467806313379,1.927086359112235
-81.7975,1.54434409435576,1.926411460664478
-81.796875,1.54434409435576,1.926411460664478
-81.79625,1.54434409435576,1.926411460664478
-81.795625,1.54434409435576,1.926411460664478
-81.795,1.54434409435576,1.926074011440598
-81.794375,1.544010125577728,1.926074011440598
-81.79375,1.543342188021666,1.926748909888356
-81.793125,1.543676156799696,1.9260740114406
-81.7925,1.543676156799697,1.925736562216719
-81.791875,1.544010125577727,1.925736562216718
-81.79125000000001,1.544010125577728,1.925736562216718
-81.79062500000001,1.543676156799699,1.926074011440596
-81.79000000000001,1.543676156799697,1.926074011440598
-81.78937500000001,1.543676156799697,1.926074011440598
-81.78875000000001,1.543676156799697,1.926411460664475
-81.78812500000001,1.543676156799697,1.926411460664478
-81.78750000000001,1.544010125577725,1.926748909888354
-81.78687499999999,1.544678063133795,1.927423808336121
-81.78625,1.545012031911826,1.927761257560001
-81.785625,1.54534600068986,1.928098706783878
-81.785,1.546013938245917,1.92809870678388
-81.784375,1.546013938245917,1.92843615600776
-81.78375,1.546013938245919,1.92877360523164
-81.783125,1.546347907023951,1.929111054455517
-81.7825,1.54668187580198,1.929111054455519
-81.781875,1.54668187580198,1.929448503679399
-81.78125,1.54668187580198,1.929785952903277
-81.780625,1.54668187580198,1.929785952903277
-81.78,1.54668187580198,1.929785952903278
-81.779375,1.546347907023949,1.930123402127157
-81.77875,1.546347907023949,1.930123402127157
-81.778125,1.546347907023949,1.930123402127157
-81.7775,1.54701584458001,1.930123402127157
-81.776875,1.546681875801981,1.930123402127157
-81.77625,1.54701584458001,1.930123402127157
-81.77562500000001,1.547349813358041,1.930123402127157
-81.77500000000001,1.547015844580014,1.930460851351035
-81.77437500000001,1.546347907023954,1.930460851351037
-81.77375000000001,1.546681875801978,1.930460851351037
-81.77312500000001,1.546347907023952,1.930798300574914
-81.77250000000001,1.546013938245921,1.930798300574917
-81.77187500000001,1.546013938245917,1.930460851351041
-81.77124999999999,1.546347907023949,1.93012340212715
-81.770625,1.546347907023945,1.929448503679397
-81.77,1.546013938245917,1.929448503679397
-81.769375,1.546013938245917,1.9294485036794
-81.76875,1.546013938245917,1.929785952903277
-81.768125,1.546013938245917,1.929785952903277
-81.7675,1.546013938245919,1.929785952903277
-81.766875,1.54634790702395,1.929785952903276
-81.76625,1.54668187580198,1.929448503679397
-81.765625,1.54668187580198,1.929448503679398
-81.765,1.54668187580198,1.929785952903277
-81.764375,1.54668187580198,1.929785952903278
-81.76375,1.54668187580198,1.930123402127157
-81.763125,1.546347907023949,1.930123402127157
-81.7625,1.546347907023949,1.930123402127157
-81.761875,1.546681875801979,1.930123402127157
-81.76125,1.54668187580198,1.930460851351036
-81.760625,1.54634790702395,1.930460851351037
-81.76000000000001,1.546681875801978,1.930798300574915
-81.75937500000001,1.54668187580198,1.930798300574917
-81.75875000000001,1.546347907023951,1.93046085135104
-81.75812500000001,1.54601393824592,1.930460851351037
-81.75750000000001,1.546347907023946,1.930460851351037
-81.75687500000001,1.546347907023949,1.930460851351037
-81.75625000000001,1.546347907023949,1.930798300574913
-81.75562499999999,1.546013938245921,1.93113574979879
-81.755,1.546347907023949,1.930460851351034
-81.754375,1.546347907023949,1.930123402127157
-81.75375,1.546347907023951,1.930123402127157
-81.753125,1.546681875801983,1.930123402127157
-81.7525,1.54701584458001,1.930123402127157
-81.751875,1.54668187580198,1.930123402127157
-81.75125,1.54668187580198,1.930123402127157
-81.750625,1.546681875801979,1.930123402127156
-81.75,1.54634790702395,1.929785952903277
-81.749375,1.54668187580198,1.929785952903278
-81.74875,1.54668187580198,1.930123402127157
-81.748125,1.54668187580198,1.930123402127157
-81.7475,1.54668187580198,1.930460851351037
-81.746875,1.546347907023949,1.930798300574917
-81.74625,1.546681875801979,1.930460851351038
-81.745625,1.547015844580011,1.930123402127159
-81.745,1.547015844580012,1.929785952903279
-81.74437500000001,1.546347907023952,1.930123402127156
-81.74375000000001,1.546347907023949,1.930123402127157
-81.74312500000001,1.546347907023949,1.930123402127157
-81.74250000000001,1.546347907023949,1.930123402127157
-81.74187500000001,1.546347907023949,1.929785952903281
-81.74125000000001,1.546013938245921,1.930123402127154
-81.74062500000001,1.546347907023945,1.930123402127157
-81.73999999999999,1.54668187580198,1.930123402127157
-81.739375,1.54668187580198,1.930123402127154
-81.73875,1.546681875801977,1.929785952903281
-81.738125,1.546347907023949,1.930123402127157
-81.7375,1.546347907023949,1.930123402127155
-81.736875,1.546347907023951,1.929785952903277
-81.73625,1.546681875801978,1.929785952903277
-81.735625,1.546347907023949,1.929785952903277
-81.735,1.54634790702395,1.929785952903279
-81.734375,1.54668187580198,1.930123402127158
-81.73375,1.54668187580198,1.930460851351037
-81.733125,1.54668187580198,1.930460851351037
-81.7325,1.54668187580198,1.930460851351037
-81.731875,1.547015844580012,1.930123402127158
-81.73125,1.547349813358043,1.930123402127157
-81.730625,1.547683782136074,1.929785952903278
-81.73,1.547683782136075,1.929785952903277
-81.729375,1.547349813358045,1.930123402127156
-81.72875000000001,1.547015844580014,1.930123402127157
-81.72812500000001,1.547015844580012,1.930123402127157
-81.72750000000001,1.546681875801983,1.930123402127157
-81.72687500000001,1.54668187580198,1.930460851351035
-81.72625000000001,1.546347907023952,1.93012340212716
-81.72562500000001,1.546347907023949,1.930123402127157
-81.72500000000001,1.545679969467893,1.930123402127157
-81.72437499999999,1.545346000689847,1.92978595290327
-81.72375,1.544678063133788,1.929111054455511
-81.723125,1.544344094355754,1.928436156007755
-81.7225,1.543676156799697,1.928098706783875
-81.721875,1.543676156799694,1.927761257559995
-81.72125,1.543342188021665,1.927423808336118
-81.720625,1.543342188021665,1.927423808336116
-81.72,1.543342188021664,1.927086359112236
-81.719375,1.543008219243634,1.926748909888359
-81.71875,1.543008219243635,1.927086359112237
-81.718125,1.543342188021665,1.926748909888358
-81.7175,1.543342188021665,1.926748909888357
-81.716875,1.543342188021665,1.926411460664478
-81.71625,1.543008219243634,1.926411460664478
-81.715625,1.543008219243634,1.926411460664478
-81.715,1.543342188021664,1.926411460664478
-81.714375,1.543342188021665,1.926074011440599
-81.71375,1.543008219243635,1.926074011440598
-81.71312500000001,1.542674250465604,1.926411460664476
-81.71250000000001,1.543342188021661,1.9260740114406
-81.71187500000001,1.543342188021665,1.926074011440598
-81.71125000000001,1.543342188021665,1.926411460664475
-81.71062500000001,1.543342188021665,1.926074011440601
-81.71000000000001,1.543342188021665,1.926748909888351
-81.70937500000001,1.544344094355749,1.927761257559987
-81.70874999999999,1.544678063133791,1.928436156007761
-81.708125,1.544678063133794,1.928773605231641
-81.7075,1.545012031911826,1.929111054455521
-81.706875,1.545346000689857,1.9294485036794
-81.70625,1.545679969467883,1.929785952903277
-81.705625,1.545346000689856,1.929785952903277
-81.705,1.545679969467886,1.929785952903279
-81.704375,1.545679969467886,1.930123402127157
-81.70375,1.545679969467887,1.930123402127156
-81.703125,1.546013938245917,1.929785952903277
-81.7025,1.546013938245917,1.929785952903278
-81.701875,1.545679969467886,1.930123402127157
-81.70125,1.545679969467886,1.929785952903277
-81.700625,1.546013938245917,1.929785952903277
-81.7,1.546347907023948,1.929785952903277
-81.699375,1.546681875801979,1.929448503679398
-81.69875,1.547015844580011,1.929448503679397
-81.698125,1.547015844580012,1.929448503679397
-81.69750000000001,1.547349813358041,1.929448503679397
-81.69687500000001,1.547349813358043,1.929448503679397
-81.69625000000001,1.547015844580014,1.930123402127152
-81.69562500000001,1.547015844580012,1.930123402127157
-81.69500000000001,1.547015844580012,1.930123402127157
-81.69437500000001,1.547015844580012,1.930123402127157
-81.69375000000001,1.546681875801984,1.930123402127157
-81.69312499999999,1.546681875801984,1.930460851351034
-81.6925,1.547015844580008,1.930123402127157
-81.691875,1.54668187580198,1.930123402127154
-81.69125,1.546681875801983,1.92978595290328
-81.690625,1.547015844580012,1.930123402127155
-81.69,1.54701584458001,1.929785952903277
-81.689375,1.54668187580198,1.929785952903279
-81.68875,1.54668187580198,1.930123402127157
-81.688125,1.54668187580198,1.930123402127159
-81.6875,1.546681875801981,1.930460851351036
-81.686875,1.547015844580011,1.930123402127157
-81.68625,1.546347907023949,1.930123402127157
-81.685625,1.546347907023949,1.930123402127157
-81.685,1.546347907023949,1.930123402127157
-81.684375,1.546347907023949,1.930798300574916
-81.68375,1.546347907023949,1.930798300574917
-81.683125,1.546347907023949,1.930798300574917
-81.6825,1.546013938245919,1.931135749798796
-81.68187500000001,1.546347907023947,1.930798300574919
-81.68125000000001,1.546347907023949,1.93046085135104
-81.68062500000001,1.546347907023949,1.930460851351037
-81.68000000000001,1.54601393824592,1.930460851351037
-81.67937500000001,1.546013938245917,1.930460851351037
-81.67875000000001,1.546347907023945,1.930460851351037
-81.67812500000001,1.546347907023949,1.930460851351037
-81.67749999999999,1.546013938245921,1.931135749798793
-81.676875,1.546347907023952,1.930798300574921
-81.67625,1.546681875801974,1.931135749798797
-81.675625,1.54601393824592,1.931135749798797
-81.675,1.546347907023949,1.931135749798797
-81.674375,1.546347907023949,1.931135749798797
-81.67375,1.546347907023949,1.931135749798795
-81.673125,1.54634790702395,1.930798300574917
-81.6725,1.54668187580198,1.930798300574917
-81.671875,1.546681875801979,1.930798300574916
-81.67125,1.546347907023949,1.930460851351038
-81.670625,1.546347907023949,1.930798300574917
-81.67,1.546347907023949,1.930460851351037
