BitnerPumpTests102/BitnerPumpTest_102_1_Scope.csv

#Digilent WaveForms Oscilloscope Acquisition
#Device Name: Discovery2
#Serial Number: SN:210321A29E56
#Date Time: 2023-12-04 15:31:11.204
#Sample rate: 1600Hz
#Samples: 52001
#Trigger: Source: Channel 1 Type: Edge Condition: Rising Level: 0 V Hyst.: Auto HoldOff: 0 s
#Channel 1: Range: 500 mV/div Offset: 0 V Attenuation: 1 X Sample Mode: Average
#Channel 2: Range: 500 mV/div Offset: 0 V Attenuation: 1 X Sample Mode: Average

Time (s),Channel 1 (V),Channel 2 (V)
-81.92,0.9067976970936322,1.141504565919697
-81.919375,1.532321218346057,1.928773605230921
-81.91875,1.532655187124657,1.928436156007758
-81.918125,1.532655187124657,1.928436156007758
-81.9175,1.532655187124657,1.928436156007758
-81.916875,1.532655187124657,1.928436156007758
-81.91625000000001,1.532321218346627,1.928436156007758
-81.91562500000001,1.531987249568596,1.928436156007758
-81.91500000000001,1.531653280790565,1.928436156007758
-81.91437500000001,1.531987249568592,1.928436156007758
-81.91375000000001,1.531987249568594,1.928773605231634
-81.91312500000001,1.531987249568594,1.928773605231638
-81.91250000000001,1.532321218346622,1.928773605231638
-81.91187499999999,1.532655187124657,1.928773605231634
-81.91125,1.532655187124657,1.928436156007754
-81.910625,1.532655187124657,1.928098706783874
-81.91,1.532655187124655,1.927761257559998
-81.909375,1.532321218346623,1.927761257559998
-81.90875,1.531987249568594,1.927761257560002
-81.908125,1.531987249568594,1.928436156007758
-81.9075,1.531987249568594,1.928436156007759
-81.906875,1.531987249568594,1.928773605231638
-81.90625,1.531987249568595,1.928773605231637
-81.905625,1.532321218346626,1.928436156007758
-81.905,1.532321218346626,1.928436156007758
-81.904375,1.532321218346626,1.928773605231638
-81.90375,1.531987249568594,1.929111054455517
-81.903125,1.531653280790563,1.929111054455517
-81.9025,1.531987249568593,1.929111054455517
-81.901875,1.532321218346625,1.928773605231639
-81.90125,1.532655187124656,1.928773605231638
-81.90062500000001,1.532321218346627,1.928773605231638
-81.90000000000001,1.531987249568596,1.928773605231638
-81.89937500000001,1.531987249568594,1.929111054455515
-81.89875000000001,1.532321218346623,1.92877360523164
-81.89812500000001,1.532321218346626,1.928436156007761
-81.89750000000001,1.532321218346626,1.928773605231634
-81.89687500000001,1.531987249568598,1.928773605231638
-81.89624999999999,1.531987249568598,1.928773605231638
-81.895625,1.532321218346626,1.928773605231638
-81.895,1.53232121834662,1.928773605231638
-81.894375,1.53165328079056,1.928773605231638
-81.89375,1.531319312012534,1.928773605231638
-81.893125,1.531653280790563,1.92877360523164
-81.8925,1.531653280790565,1.929111054455517
-81.891875,1.531987249568596,1.929111054455516
-81.89125,1.532321218346627,1.928773605231636
-81.890625,1.532655187124657,1.928436156007758
-81.89,1.532655187124657,1.928436156007758
-81.889375,1.532655187124657,1.928436156007758
-81.88875,1.532655187124657,1.928436156007758
-81.888125,1.532655187124657,1.928436156007758
-81.8875,1.532321218346626,1.929111054455516
-81.886875,1.531987249568595,1.929111054455517
-81.88625,1.531987249568594,1.929111054455517
-81.885625,1.531653280790564,1.929448503679396
-81.88500000000001,1.531987249568592,1.929448503679397
-81.88437500000001,1.531987249568594,1.92911105445552
-81.88375000000001,1.531987249568594,1.929111054455517
-81.88312500000001,1.531653280790565,1.929448503679395
-81.88250000000001,1.531653280790563,1.929785952903274
-81.88187500000001,1.531987249568591,1.929111054455524
-81.88125000000001,1.531987249568594,1.928773605231641
-81.88062499999999,1.531987249568594,1.929111054455514
-81.88,1.531987249568591,1.928773605231638
-81.879375,1.531653280790566,1.928773605231638
-81.87875,1.531987249568597,1.928773605231638
-81.878125,1.532321218346626,1.928773605231638
-81.8775,1.532321218346628,1.928773605231635
-81.876875,1.532655187124657,1.928436156007758
-81.87625,1.532655187124657,1.928436156007758
-81.875625,1.532655187124658,1.928436156007758
-81.875,1.532989155902688,1.928436156007758
-81.874375,1.532655187124657,1.928436156007758
-81.87375,1.532655187124657,1.928773605231638
-81.873125,1.532321218346626,1.928773605231638
-81.8725,1.532321218346626,1.928773605231638
-81.871875,1.532321218346626,1.929111054455517
-81.87125,1.532321218346626,1.929111054455517
-81.870625,1.532321218346626,1.928773605231639
-81.87,1.532321218346626,1.928773605231638
-81.86937500000001,1.532321218346626,1.928773605231638
-81.86875000000001,1.531987249568596,1.928773605231638
-81.86812500000001,1.531987249568594,1.928773605231638
-81.86750000000001,1.532321218346623,1.928773605231638
-81.86687500000001,1.532321218346626,1.929111054455514
-81.86625000000001,1.532321218346626,1.928773605231641
-81.86562500000001,1.531987249568598,1.928773605231638
-81.86499999999999,1.531987249568591,1.928436156007754
-81.864375,1.531653280790563,1.928098706783881
-81.86375,1.53165328079056,1.928436156007761
-81.863125,1.531319312012534,1.928773605231638
-81.8625,1.53165328079056,1.928773605231635
-81.861875,1.531319312012531,1.92843615600776
-81.86125,1.531319312012533,1.928773605231638
-81.860625,1.531653280790563,1.928773605231638
-81.86,1.531653280790564,1.928773605231638
-81.859375,1.531987249568595,1.928773605231637
-81.85875,1.532321218346626,1.928436156007758
-81.858125,1.532321218346626,1.928773605231638
-81.8575,1.532321218346626,1.928773605231638
-81.856875,1.532989155902688,1.928773605231638
-81.85625,1.532989155902689,1.928773605231638
-81.855625,1.533323124680719,1.929111054455517
-81.855,1.53332312468072,1.929111054455517
-81.854375,1.53332312468072,1.929111054455517
-81.85375000000001,1.53298915590269,1.928773605231639
-81.85312500000001,1.533323124680718,1.928773605231638
-81.85250000000001,1.53332312468072,1.928773605231638
-81.85187500000001,1.533657093458749,1.928773605231638
-81.85125000000001,1.533657093458752,1.928436156007761
-81.85062500000001,1.533657093458752,1.928773605231634
-81.85000000000001,1.533657093458752,1.928773605231638
-81.84937499999999,1.532989155902689,1.928436156007754
-81.84875,1.532989155902685,1.928098706783881
-81.848125,1.532655187124657,1.928436156007761
-81.8475,1.532655187124655,1.928773605231638
-81.846875,1.532321218346626,1.928773605231638
-81.84625,1.532321218346626,1.928773605231633
-81.845625,1.532321218346624,1.928098706783878
-81.845,1.531987249568594,1.928098706783878
-81.844375,1.531987249568593,1.928098706783878
-81.84375,1.531653280790563,1.928098706783878
-81.843125,1.531653280790563,1.928098706783878
-81.8425,1.531653280790563,1.928436156007758
-81.841875,1.531653280790563,1.928436156007758
-81.84125,1.531987249568594,1.928773605231637
-81.840625,1.532321218346625,1.928773605231638
-81.84,1.531987249568595,1.928436156007759
-81.839375,1.531987249568594,1.928436156007758
-81.83875,1.531319312012534,1.928436156007758
-81.83812500000001,1.531653280790561,1.928436156007758
-81.83750000000001,1.531987249568592,1.928436156007758
-81.83687500000001,1.531987249568594,1.928436156007758
-81.83625000000001,1.531653280790565,1.928436156007758
-81.83562500000001,1.531653280790563,1.927761257560004
-81.83500000000001,1.531319312012535,1.927423808336121
-81.83437500000001,1.530985343234503,1.926411460664489
-81.83374999999999,1.5309853432345,1.926411460664478
-81.833125,1.530985343234496,1.926411460664474
-81.8325,1.530651374456465,1.926074011440598
-81.831875,1.530317405678437,1.926074011440595
-81.83125,1.530317405678437,1.92573656221672
-81.830625,1.530317405678435,1.926074011440596
-81.83,1.529983436900405,1.925736562216716
-81.829375,1.529983436900405,1.925399112992838
-81.82875,1.529983436900404,1.925399112992838
-81.828125,1.529649468122374,1.925399112992838
-81.8275,1.529649468122374,1.925399112992838
-81.826875,1.529649468122374,1.925399112992838
-81.82625,1.529983436900405,1.925061663768958
-81.825625,1.529649468122374,1.924724214545078
-81.825,1.529315499344343,1.925399112992837
-81.824375,1.529649468122373,1.925399112992838
-81.82375,1.528981530566313,1.925736562216717
-81.823125,1.529649468122371,1.926748909888353
-81.82250000000001,1.530317405678433,1.927423808336114
-81.82187500000001,1.530651374456466,1.928098706783873
-81.82125000000001,1.530985343234497,1.928436156007755
-81.82062500000001,1.531319312012529,1.928773605231635
-81.82000000000001,1.53165328079056,1.928436156007761
-81.81937500000001,1.531319312012535,1.928436156007758
-81.81875000000001,1.531319312012531,1.928436156007758
-81.81812499999999,1.531653280790563,1.928436156007761
-81.8175,1.531653280790566,1.928773605231641
-81.816875,1.531987249568597,1.929111054455517
-81.81625,1.532321218346626,1.929111054455517
-81.815625,1.532321218346626,1.929111054455517
-81.815,1.532321218346626,1.92911105445552
-81.814375,1.532321218346624,1.929448503679397
-81.81375,1.531987249568594,1.929448503679399
-81.813125,1.531987249568594,1.929785952903279
-81.8125,1.531987249568596,1.930123402127157
-81.811875,1.532655187124658,1.930123402127157
-81.81125,1.532989155902689,1.929785952903277
-81.810625,1.532989155902689,1.929785952903277
-81.81,1.532321218346626,1.930123402127157
-81.809375,1.531987249568595,1.930460851351037
-81.80875,1.531987249568594,1.930460851351037
-81.808125,1.531987249568594,1.930460851351037
-81.8075,1.531987249568594,1.930798300574916
-81.80687500000001,1.531987249568594,1.930460851351039
-81.80625000000001,1.532321218346623,1.930460851351037
-81.80562500000001,1.532321218346626,1.930798300574915
-81.80500000000001,1.532321218346626,1.93046085135104
-81.80437500000001,1.532321218346626,1.929785952903284
-81.80375000000001,1.531987249568598,1.929785952903277
-81.80312500000001,1.531653280790566,1.929785952903277
-81.80249999999999,1.531987249568591,1.929785952903281
-81.801875,1.531653280790563,1.930123402127157
-81.80125,1.531653280790566,1.930123402127157
-81.800625,1.531987249568594,1.930123402127157
-81.8,1.531987249568592,1.93012340212716
-81.799375,1.531653280790563,1.930460851351037
-81.79875,1.531653280790565,1.930460851351039
-81.798125,1.531987249568593,1.930798300574916
-81.7975,1.531653280790565,1.930460851351035
-81.796875,1.532321218346625,1.929785952903277
-81.79625,1.531987249568595,1.929785952903277
-81.795625,1.532321218346626,1.929448503679397
-81.795,1.532655187124657,1.929111054455517
-81.794375,1.532655187124657,1.929448503679397
-81.79375,1.532989155902688,1.929448503679397
-81.793125,1.532989155902689,1.929111054455518
-81.7925,1.532655187124658,1.929111054455517
-81.791875,1.532655187124657,1.929448503679396
-81.79125000000001,1.532655187124657,1.930123402127154
-81.79062500000001,1.532321218346628,1.930460851351035
-81.79000000000001,1.531653280790568,1.930798300574915
-81.78937500000001,1.531653280790563,1.930123402127163
-81.78875000000001,1.531987249568591,1.930123402127157
-81.78812500000001,1.531987249568594,1.929785952903281
-81.78750000000001,1.531987249568594,1.929785952903277
-81.78687499999999,1.532321218346626,1.930123402127161
-81.78625,1.532321218346626,1.930460851351037
-81.785625,1.532321218346623,1.930460851351034
-81.785,1.531987249568597,1.930123402127157
-81.784375,1.532321218346623,1.930123402127157
-81.78375,1.531987249568594,1.930123402127157
-81.783125,1.531987249568594,1.930123402127161
-81.7825,1.531987249568594,1.930798300574916
-81.781875,1.531987249568593,1.930460851351036
-81.78125,1.531653280790564,1.930123402127157
-81.780625,1.531987249568595,1.930123402127157
-81.78,1.532321218346626,1.930123402127157
-81.779375,1.532321218346626,1.930123402127157
-81.77875,1.532989155902688,1.930123402127157
-81.778125,1.532989155902689,1.930123402127157
-81.7775,1.532655187124658,1.930123402127157
-81.776875,1.532321218346627,1.930123402127157
-81.77625,1.532321218346626,1.930460851351036
-81.77562500000001,1.532321218346626,1.930460851351037
-81.77500000000001,1.532321218346626,1.930460851351037
-81.77437500000001,1.532321218346626,1.93012340212716
-81.77375000000001,1.531653280790568,1.930460851351035
-81.77312500000001,1.531653280790563,1.930460851351037
-81.77250000000001,1.531653280790563,1.930798300574914
-81.77187500000001,1.531987249568591,1.930798300574917
-81.77124999999999,1.531653280790563,1.930460851351037
-81.770625,1.531653280790563,1.930460851351037
-81.77,1.531653280790563,1.930460851351037
-81.769375,1.53165328079056,1.930460851351043
-81.76875,1.531319312012534,1.931135749798795
-81.768125,1.531653280790563,1.930798300574919
-81.7675,1.531653280790565,1.931135749798795
-81.766875,1.531987249568596,1.930798300574916
-81.76625,1.532321218346626,1.930460851351039
-81.765625,1.532321218346626,1.930798300574917
-81.765,1.532321218346626,1.930798300574917
-81.764375,1.532321218346626,1.930798300574917
-81.76375,1.532321218346626,1.930798300574917
-81.763125,1.532655187124657,1.930798300574917
-81.7625,1.532989155902688,1.930798300574917
-81.761875,1.532655187124658,1.930798300574917
-81.76125,1.532321218346627,1.931135749798796
-81.760625,1.531653280790566,1.931473199022676
-81.76000000000001,1.531987249568592,1.931473199022677
-81.75937500000001,1.531319312012535,1.931135749798799
-81.75875000000001,1.53165328079056,1.93079830057492
-81.75812500000001,1.53232121834662,1.930798300574917
-81.75750000000001,1.531987249568597,1.930798300574917
-81.75687500000001,1.531987249568594,1.931135749798794
-81.75625000000001,1.532321218346622,1.931473199022673
-81.75562499999999,1.532321218346629,1.931473199022673
-81.755,1.532655187124657,1.931135749798797
-81.754375,1.532655187124654,1.931135749798797
-81.75375,1.532321218346628,1.931135749798797
-81.753125,1.532655187124657,1.9311357497988
-81.7525,1.532655187124655,1.931473199022677
-81.751875,1.532321218346624,1.931473199022679
-81.75125,1.531987249568593,1.931810648246557
-81.750625,1.531653280790564,1.931810648246556
-81.75,1.531987249568594,1.931473199022677
-81.749375,1.531987249568594,1.931473199022678
-81.74875,1.531653280790563,1.931810648246557
-81.748125,1.531653280790563,1.932148097470437
-81.7475,1.531319312012531,1.931810648246557
-81.746875,1.531319312012531,1.932485546694316
-81.74625,1.531653280790562,1.932485546694317
-81.745625,1.531653280790563,1.932822995918196
-81.745,1.531987249568593,1.932485546694318
-81.74437500000001,1.532321218346624,1.931473199022683
-81.74375000000001,1.532655187124655,1.931135749798799
-81.74312500000001,1.532655187124657,1.931473199022675
-81.74250000000001,1.532321218346628,1.932148097470431
-81.74187500000001,1.531653280790569,1.932148097470437
-81.74125000000001,1.531319312012535,1.932485546694314
-81.74062500000001,1.531653280790559,1.932485546694317
-81.73999999999999,1.531653280790563,1.932485546694321
-81.739375,1.531653280790559,1.932822995918204
-81.73875,1.531319312012534,1.933497894365954
-81.738125,1.531653280790565,1.93316044514208
-81.7375,1.531987249568592,1.933497894365954
-81.736875,1.531653280790563,1.933160445142077
-81.73625,1.531653280790563,1.933160445142079
-81.735625,1.531653280790563,1.933497894365955
-81.735,1.531653280790564,1.933160445142078
-81.734375,1.531987249568593,1.933497894365956
-81.73375,1.531653280790563,1.933160445142078
-81.733125,1.531653280790564,1.933497894365957
-81.7325,1.532655187124657,1.933160445142077
-81.731875,1.532321218346626,1.932822995918197
-81.73125,1.531653280790564,1.933835343589835
-81.730625,1.531987249568593,1.933835343589837
-81.73,1.532655187124655,1.933160445142079
-81.729375,1.531987249568597,1.930798300574928
-81.72875000000001,1.531987249568594,1.931135749798795
-81.72812500000001,1.531987249568594,1.930798300574919
-81.72750000000001,1.531319312012536,1.92911105445553
-81.72687500000001,1.530651374456474,1.92877360523164
-81.72625000000001,1.530651374456468,1.927761257560007
-81.72562500000001,1.53031740567844,1.927086359112244
-81.72500000000001,1.529315499344353,1.928436156007743
-81.72437499999999,1.528981530566311,1.92776125755999
-81.72375,1.528981530566311,1.927086359112248
-81.723125,1.528981530566305,1.928098706783878
-81.7225,1.528313593010248,1.92809870678388
-81.721875,1.52831359301025,1.928436156007755
-81.72125,1.528647561788284,1.928098706783875
-81.720625,1.529315499344342,1.927761257559999
-81.72,1.529315499344339,1.928098706783878
-81.719375,1.528647561788282,1.92809870678388
-81.71875,1.529315499344342,1.92877360523164
-81.718125,1.529315499344345,1.929785952903278
-81.7175,1.53065137445647,1.930123402127158
-81.716875,1.532321218346626,1.931135749798797
-81.71625,1.532321218346626,1.931135749798797
-81.715625,1.533657093458749,1.931473199022677
-81.715,1.534992968570874,1.931135749798798
-81.714375,1.534658999792847,1.932148097470433
-81.71375,1.535326937348906,1.93147319902268
-81.71312500000001,1.536328843682998,1.930798300574921
-81.71250000000001,1.537330750017092,1.931135749798795
-81.71187500000001,1.536996781239069,1.92944850367941
-81.71125000000001,1.537330750017096,1.92911105445552
-81.71062500000001,1.537664718795127,1.92776125756001
-81.71000000000001,1.537998687573158,1.927086359112244
-81.70937500000001,1.537664718795133,1.927423808336114
-81.70874999999999,1.536996781239052,1.928436156007754
-81.708125,1.535660906126944,1.928098706783867
-81.7075,1.535994874904981,1.927086359112229
-81.706875,1.536996781239061,1.926074011440592
-81.70625,1.536328843682994,1.925399112992845
-81.705625,1.534992968570865,1.926411460664482
-81.705,1.532989155902685,1.92708635911223
-81.704375,1.532321218346626,1.925736562216716
-81.70375,1.532321218346623,1.925399112992837
-81.703125,1.531653280790565,1.925061663768961
-81.7025,1.532655187124658,1.926074011440599
-81.701875,1.532989155902688,1.926748909888359
-81.70125,1.532655187124657,1.927761257559998
-81.700625,1.534658999792845,1.928436156007757
-81.7,1.53599487490497,1.929111054455516
-81.699375,1.535326937348911,1.929448503679396
-81.69875,1.536328843683,1.930798300574912
-81.698125,1.537998687573154,1.931473199022674
-81.69750000000001,1.53933456268528,1.932485546694311
-81.69687500000001,1.539668531463317,1.933160445142073
-81.69625000000001,1.540336469019377,1.9328229959182
-81.69562500000001,1.542006312909525,1.932822995918197
-81.69500000000001,1.542006312909539,1.932822995918197
-81.69437500000001,1.541672344131511,1.93349789436595
-81.69375000000001,1.54133837535348,1.933835343589833
-81.69312499999999,1.542340281687563,1.934172792813713
-81.6925,1.541672344131508,1.93383534358984
-81.691875,1.541672344131505,1.934172792813723
-81.69125,1.54133837535346,1.934847691261466
-81.690625,1.539334562685285,1.933497894365957
-81.69,1.539000593907249,1.933497894365955
-81.689375,1.537998687573156,1.933160445142075
-81.68875,1.536996781239065,1.932822995918194
-81.688125,1.53666281246103,1.932148097470433
-81.6875,1.535326937348908,1.931135749798798
-81.686875,1.534658999792843,1.931473199022677
-81.68625,1.532989155902689,1.931135749798799
-81.685625,1.53332312468072,1.933160445142077
-81.685,1.53332312468072,1.931473199022679
-81.684375,1.532655187124658,1.931473199022677
-81.68375,1.532989155902688,1.932822995918193
-81.683125,1.532989155902689,1.933497894365954
-81.6825,1.532655187124659,1.933160445142079
-81.68187500000001,1.533323124680717,1.932485546694321
-81.68125000000001,1.534325031014808,1.934847691261462
-81.68062500000001,1.533657093458757,1.934510242037599
-81.68000000000001,1.533991062236781,1.93417279281372
-81.67937500000001,1.535660906126926,1.934510242037594
-81.67875000000001,1.536996781239053,1.935860038933103
-81.67812500000001,1.536996781239067,1.935522589709241
-81.67749999999999,1.536996781239078,1.934847691261469
-81.676875,1.537998687573165,1.93417279281373
-81.67625,1.538332656351187,1.935522589709243
-81.675625,1.537664718795127,1.936197488156994
-81.675,1.537330750017093,1.935860038933119
-81.674375,1.536662812461031,1.936197488157005
-81.67375,1.535994874904965,1.937547285052513
-81.673125,1.534658999792843,1.93687238660475
-81.6725,1.533991062236786,1.935522589709239
-81.671875,1.534658999792844,1.936197488156997
-81.67125,1.533657093458751,1.936534937380876
-81.670625,1.533323124680719,1.936534937380875
