SimulatedTests/day19_trial3(1).csv

#Digilent WaveForms Oscilloscope Acquisition
#Device Name: Discovery2
#Serial Number: SN:210321A29E56
#Date Time: 2023-05-19 03:46:24.855
#Sample rate: 1600Hz
#Samples: 65589
#Trigger: Source: Channel 1 Type: Edge Condition: Rising Level: 1.7 V Hyst.: Auto HoldOff: 100 ns
#Channel 1: Range: 200 mV/div Offset: -1.5 V Attenuation: 1 X Sample Mode: Average
#Channel 2: Range: 200 mV/div Offset: -1.5 V Attenuation: 1 X Sample Mode: Average

Time (s),Channel 1 (V),Channel 2 (V)
0,1.700553618722835,1.923728197546723
0.0006249999999994316,1.701889473451124,1.925752861995603
0.001249999999998863,1.704227219225631,1.929802190893365
0.001874999999998295,1.702557400815269,1.930477079042991
0.002499999999997726,1.70122154608698,1.92541541792079
0.003124999999997158,1.700219655040762,1.931151967192618
0.003749999999996589,1.698883800312493,1.924403085696448
0.004374999999996021,1.698883800312473,1.940600401287159
0.004999999999995453,1.696880018220068,1.920353756798883
0.005624999999994884,1.694876236127634,1.934526407940546
0.006250000000008527,1.690534708260659,1.925077973846001
0.006875000000007958,1.690200744578582,1.92676519421996
0.00750000000000739,1.689532817214413,1.92102864494822
0.008125000000006821,1.687195071439936,1.921366089023019
0.008750000000006253,1.686861107757868,1.920691200873402
0.009375000000005684,1.685859216711651,1.920691200873402
0.01000000000000512,1.684857325665434,1.917316760125268
0.01062500000000455,1.683521470937144,1.921703533097842
0.01125000000000398,1.685191289347506,1.916641871975641
0.01187500000000341,1.685859216711651,1.921366089023029
0.01250000000000284,1.684857325665434,1.922378421247469
0.01312500000000227,1.685859216711651,1.928114970519297
0.01375000000000171,1.683187507255072,1.92642775014523
0.01437500000000114,1.687529035122013,1.923390753471909
0.01500000000000057,1.689532817214447,1.924065641621536
0.015625,1.686861107757868,1.922715865322283
0.01624999999999943,1.691202635624809,1.92440308569635
0.01687499999999886,1.689198853532375,1.920016312723775
0.01749999999999829,1.689866780896519,1.922040977172656
0.01812499999999773,1.690868671942736,1.919678868648962
0.01874999999999716,1.689198853532375,1.921703533097842
0.01937499999999659,1.688196962486172,1.922040977172651
0.01999999999999602,1.68786299880409,1.92339075347189
0.02062499999999545,1.690868671942693,1.925077973845952
0.02124999999999488,1.691870562988939,1.929464746818488
0.02187500000000853,1.693874345081407,1.93520129609037
0.02250000000000796,1.695210199809648,1.934526407940762
0.02312500000000739,1.693206417717316,1.935201296090379
0.02375000000000682,1.698215872948348,1.935201296090316
0.02437500000000625,1.699551727676618,1.930814523117805
0.02500000000000568,1.696546054537966,1.93621362831482
0.02562500000000512,1.693874345081388,1.932501743491872
0.02625000000000455,1.695210199809677,1.930139634968178
0.02687500000000398,1.694876236127605,1.930477079042991
0.02750000000000341,1.694876236127605,1.933514075716313
0.02812500000000284,1.691536599306881,1.930139634968178
0.02875000000000227,1.688196962486157,1.937900848688887
0.02937500000000171,1.686527144075796,1.934526407940753
0.03000000000000114,1.685859216711651,1.933176631641499
0.03062500000000057,1.684857325665434,1.937563404614074
0.03125,1.684857325665434,1.935201296090379
0.03187499999999943,1.683855434619217,1.937563404614074
0.03249999999999886,1.681851652526783,1.935538740165193
0.03312499999999829,1.684857325665434,1.935538740165193
0.03374999999999773,1.682853543573,1.934188963865939
0.03437499999999716,1.681183725162638,1.930139634968178
0.03499999999999659,1.681183725162638,1.926427750145284
0.03562499999999602,1.66749121419787,1.916304427900975
0.03624999999999545,1.660477976874254,1.899094780085593
0.03687499999999488,1.659142122145882,1.898419891935725
0.03750000000000853,1.660811940556263,1.899432224160215
0.03812500000000796,1.663483650012837,1.903481553058054
0.03875000000000739,1.665821395787377,1.912929987152703
0.03937500000000682,1.670496887336386,1.913604875302399
0.04000000000000625,1.674838415203263,1.919003980499335
0.04062500000000568,1.675172378885335,1.92541541792079
0.04125000000000512,1.677510124659842,1.926765194220044
0.04187500000000455,1.68151768884471,1.928452414594111
0.04250000000000398,1.679179943070204,1.929802190893365
0.04312500000000341,1.676842197295697,1.933176631641499
0.04375000000000284,1.677510124659842,1.932164299417059
0.04437500000000227,1.681183725162638,1.92642775014523
0.04500000000000171,1.682519579890927,1.926765194220044
0.04562500000000114,1.680515797798493,1.934863852015566
0.04625000000000057,1.680849761480566,1.932164299417059
0.046875,1.680515797798493,1.940262957212581
0.04749999999999943,1.679179943070204,1.940262957212581
0.04812499999999886,1.680181834116421,1.939250624988141
0.04874999999999829,1.682185616208855,1.938913180913327
0.04937499999999773,1.682185616208855,1.941275289437021
0.04999999999999716,1.682519579890927,1.946674394634036
0.05062499999999659,1.685859216711602,1.942625065736334
0.05124999999999602,1.683187507255111,1.943299953885892
0.05187499999999545,1.684189398301275,1.944312286110327
0.05249999999999488,1.683521470937154,1.942287621661491
0.05312500000000853,1.683187507255101,1.941275289437016
0.05375000000000796,1.685191289347463,1.940937845362203
0.05437500000000739,1.682185616208826,1.94060040128739
0.05500000000000682,1.680181834116382,1.940262957212645
0.05562500000000625,1.677510124659842,1.944649730185156
0.05625000000000568,1.67584030624948,1.944649730185156
0.05687500000000512,1.67584030624948,1.942625065736275
0.05750000000000455,1.672166705746684,1.945662062409596
0.05812500000000398,1.670496887336322,1.944987174259969
0.05875000000000341,1.67016292365425,1.945662062409596
0.05937500000000284,1.666489323151454,1.945324618334783
0.06000000000000227,1.668827068925961,1.946674394634036
0.06062500000000171,1.668493105243888,1.937563404614074
0.06125000000000114,1.669161032608033,1.944312286110342
0.06187500000000057,1.668827068925961,1.943299953885902
0.0625,1.669828959972178,1.942962509811089
0.06312499999999943,1.673168596792901,1.943299953885902
0.06374999999999886,1.674504451521191,1.940262957212581
0.06437499999999829,1.674504451521191,1.944312286110342
0.06499999999999773,1.675172378885335,1.945324618334783
0.06562499999999716,1.678178052023987,1.943637397960715
0.06624999999999659,1.675840306249514,1.945662062409566
0.06687499999999602,1.67450445152121,1.943299953885936
0.06749999999999545,1.677844088341866,1.94599950648437
0.06812499999999488,1.676842197295712,1.947011838708835
0.06875000000000853,1.67584030624949,1.951736055756198
0.06937500000000796,1.67650823361361,1.949036503157681
0.07000000000000739,1.675506342567398,1.945662062409606
0.07062500000000682,1.674838415203215,1.946336950559237
0.07125000000000625,1.671498778382539,1.947349282783663
0.07187500000000568,1.667825177879743,1.945999506484409
0.07250000000000512,1.665487432105237,1.947686726858477
0.07312500000000455,1.665153468423165,1.946336950559223
0.07375000000000398,1.669494996290105,1.944649730185156
0.07437500000000341,1.668159141561816,1.948699059082917
0.07500000000000284,1.665487432105237,1.956460272803626
0.07562500000000227,1.666489323151454,1.952748387980678
0.07625000000000171,1.666489323151454,1.948699059082917
0.07687500000000114,1.666155359469382,1.954773052429559
0.07750000000000057,1.671164814700467,1.954773052429559
0.078125,1.674170487839118,1.954435608354745
0.07874999999999943,1.671498778382539,1.955447940579185
0.07937499999999886,1.670830851018395,1.956122828728812
0.07999999999999829,1.673168596792901,1.952410943905865
0.08062499999999773,1.672500669428757,1.952748387980678
0.08124999999999716,1.671498778382539,1.956460272803626
0.08187499999999659,1.671832742064607,1.952748387980732
0.08249999999999602,1.674170487839084,1.952073499831061
0.08312499999999545,1.672834633110849,1.951061167606626
0.08374999999999488,1.667825177879816,1.953760720205079
0.08437500000000853,1.668493105243912,1.956460272803572
0.08500000000000796,1.670162923654226,1.952748387980634
0.08562500000000739,1.66849310524383,1.949711391307436
0.08625000000000682,1.664485541059015,1.955110496504411
0.08687500000000625,1.664151577376948,1.957810049102879
0.08750000000000568,1.664819504741092,1.950723723531797
0.08812500000000512,1.662815722648658,1.955110496504372
0.08875000000000455,1.66314968633073,1.958484937252506
0.08937500000000398,1.663483650012803,1.948361615008103
0.09000000000000341,1.66448554105902,1.950048835382171
0.09062500000000284,1.662481758966586,1.953423276130305
0.09125000000000227,1.66314968633073,1.950048835382171
0.09187500000000171,1.666489323151454,1.950386279456984
0.09250000000000114,1.665487432105237,1.951398611681424
0.09312500000000057,1.666155359469382,1.950723723531797
0.09375,1.665821395787309,1.954773052429559
0.09437499999999943,1.665821395787309,1.952410943905865
0.09499999999999886,1.666489323151454,1.956122828728812
0.09562499999999829,1.667157250515599,1.952748387980678
0.09624999999999773,1.667825177879743,1.956122828728812
0.09687499999999716,1.666155359469382,1.956797716878439
0.09749999999999659,1.666155359469382,1.957135160953248
0.09812499999999602,1.667825177879719,1.956460272803636
0.09874999999999545,1.668493105243879,1.953423276130349
0.09937499999999488,1.668827068925956,1.952073499831071
0.1000000000000085,1.667825177879753,1.95679771687841
0.100625000000008,1.668493105243883,1.954773052429578
0.1012500000000074,1.668159141561816,1.956122828728832
0.1018750000000068,1.668159141561855,1.957472605028046
0.1025000000000063,1.670830851018395,1.956122828728812
0.1031250000000057,1.668159141561816,1.955447940579185
0.1037500000000051,1.665821395787309,1.957135160953253
0.1043750000000045,1.666155359469382,1.954773052429559
0.105000000000004,1.663817613694875,1.955447940579185
0.1056250000000034,1.664151577376948,1.953085832055491
0.1062500000000028,1.663483650012803,1.955785384653999
0.1068750000000023,1.661145904238296,1.956122828728812
0.1075000000000017,1.661479867920369,1.955785384653999
0.1081250000000011,1.661813831602441,1.954098164279932
0.1087500000000006,1.660144013192079,1.953423276130305
0.109375,1.660811940556224,1.957135160953253
0.1099999999999994,1.661813831602441,1.955110496504372
0.1106249999999989,1.661479867920369,1.953085832055491
0.1112499999999983,1.662481758966586,1.956460272803626
0.1118749999999977,1.661813831602441,1.953423276130305
0.1124999999999972,1.662815722648658,1.954098164279932
0.1131249999999966,1.663817613694861,1.954773052429549
0.113749999999996,1.663817613694875,1.951398611681473
0.1143749999999955,1.665153468423145,1.951736055756233
0.1149999999999949,1.664819504741097,1.954098164279897
0.1156250000000085,1.66515346842316,1.956797716878429
0.116250000000008,1.664819504741126,1.956122828728763
0.1168750000000074,1.667157250515579,1.952748387980722
0.1175000000000068,1.665821395787295,1.955785384654009
0.1181250000000063,1.664819504741092,1.956460272803626
0.1187500000000057,1.666823286833526,1.956122828728812
0.1193750000000051,1.663817613694875,1.953423276130305
0.1200000000000045,1.664151577376948,1.955447940579185
0.120625000000004,1.66448554105902,1.954435608354745
0.1212500000000034,1.66314968633073,1.957810049102879
0.1218750000000028,1.663483650012803,1.959497269476947
0.1225000000000023,1.662481758966586,1.956122828728812
0.1231250000000017,1.662147795284513,1.955447940579185
0.1237500000000011,1.662815722648658,1.955447940579185
0.1243750000000006,1.664151577376948,1.954098164279932
0.125,1.665153468423165,1.957810049102879
0.1256249999999994,1.66448554105902,1.958484937252506
0.1262499999999989,1.66448554105902,1.957810049102879
0.1268749999999983,1.665153468423165,1.955785384653999
0.1274999999999977,1.664819504741092,1.958484937252506
0.1281249999999972,1.665821395787309,1.957810049102879
0.1287499999999966,1.666489323151444,1.956122828728837
0.129374999999996,1.665821395787319,1.956122828728812
0.1299999999999955,1.665153468423175,1.955110496504387
0.1306249999999949,1.666155359469367,1.951398611681478
0.1312500000000085,1.66648932315142,1.950048835382234
0.131875000000008,1.664151577376923,1.954435608354804
0.1325000000000074,1.662481758966591,1.958484937252472
0.1331250000000068,1.662815722648663,1.956122828728827
0.1337500000000063,1.66314968633073,1.957135160953253
0.1343750000000057,1.662815722648658,1.956797716878439
0.1350000000000051,1.664151577376948,1.955785384653999
0.1356250000000045,1.66448554105902,1.955110496504372
0.136250000000004,1.66314968633073,1.959497269476947
0.1368750000000034,1.662815722648658,1.956460272803626
0.1375000000000028,1.664151577376948,1.947686726858477
0.1381250000000023,1.663483650012803,1.953423276130305
0.1387500000000017,1.661479867920369,1.962534266150267
0.1393750000000011,1.66314968633073,1.956797716878439
0.1400000000000006,1.665153468423165,1.951398611681424
0.140625,1.661813831602441,1.952748387980678
0.1412499999999994,1.662147795284513,1.942962509811089
0.1418749999999989,1.668827068925961,1.926765194220044
0.1424999999999983,1.662815722648658,1.950048835382171
0.1431249999999977,1.655802485325139,1.966246150973215
0.1437499999999972,1.665153468423165,1.950048835382171
0.1443749999999966,1.667825177879705,1.940600401287532
0.144999999999996,1.659810049510124,1.959497269476672
0.1456249999999955,1.664485541058952,1.960847045776181
0.1462499999999949,1.6698289599721,1.949711391307519
0.1468750000000085,1.664819504741102,1.962196822075601
0.147500000000008,1.665487432105295,1.972320144319666
0.1481250000000074,1.669494996290134,1.959159825402104
0.1487500000000068,1.671498778382496,1.957135160953449
0.1493750000000063,1.668493105243888,1.97063292394579
0.1500000000000057,1.667157250515599,1.973332476544297
0.1506250000000051,1.670830851018395,1.956122828728812
0.1512500000000045,1.671164814700467,1.959159825402133
0.151875000000004,1.667157250515599,1.963546598374708
0.1525000000000034,1.668493105243888,1.960172157626574
0.1531250000000028,1.669828959972178,1.951061167606611
0.1537500000000023,1.665153468423165,1.953423276130305
0.1543750000000017,1.66448554105902,1.956122828728812
0.1550000000000011,1.663483650012803,1.952410943905865
0.1556250000000006,1.663483650012803,1.946674394634036
0.15625,1.660811940556224,1.957810049102879
0.1568749999999994,1.657138340053428,1.959497269476947
0.1574999999999989,1.661145904238296,1.944649730185156
0.1581249999999983,1.659810049510007,1.955785384653999
0.1587499999999977,1.655802485325139,1.961859378000641
0.1593749999999972,1.658474194781717,1.962534266150267
0.1599999999999966,1.661813831602392,1.951398611681586
0.160624999999996,1.658808158463834,1.956460272803552
0.1612499999999955,1.657806267417588,1.957135160953243
0.1618749999999949,1.664151577376855,1.949036503157848
0.1625000000000085,1.664151577376933,1.952748387980791
0.163125000000008,1.66314968633076,1.960509601701338
0.1637500000000074,1.665153468423184,1.957135160953169
0.1643750000000068,1.666489323151478,1.951398611681454
0.1650000000000063,1.668159141561816,1.953423276130305
0.1656250000000057,1.669161032608033,1.954435608354745
0.1662500000000051,1.669828959972178,1.952073499831051
0.1668750000000045,1.669161032608033,1.958484937252506
0.167500000000004,1.666155359469382,1.959159825402133
0.1681250000000034,1.669161032608033,1.95983471355176
0.1687500000000028,1.669494996290105,1.951398611681424
0.1693750000000023,1.666823286833526,1.956122828728812
0.1700000000000017,1.666489323151454,1.955447940579185
0.1706250000000011,1.664819504741092,1.95882238132732
0.1712500000000006,1.663483650012803,1.956797716878439
0.171875,1.663483650012803,1.954773052429559
0.1724999999999994,1.661813831602441,1.95882238132732
0.1731249999999989,1.660144013192079,1.958147493177693
0.1737499999999983,1.662147795284513,1.953760720205118
0.1743749999999977,1.661479867920369,1.956122828728812
0.1749999999999972,1.660811940556224,1.957472605028066
0.1756249999999966,1.664151577376899,1.958484937252492
0.176249999999996,1.666823286833488,1.955785384654038
0.1768749999999955,1.668827068925931,1.956797716878425
0.1774999999999949,1.670830851018366,1.953760720205162
0.1781250000000085,1.671164814700487,1.948361615008089
0.178750000000008,1.672500669428766,1.947349282783673
0.1793750000000074,1.673168596792935,1.948024170933152
0.1800000000000068,1.675506342567422,1.938575736838465
0.1806250000000063,1.676508233613625,1.935201296090379
0.1812500000000057,1.671164814700467,1.938913180913327
0.1818750000000051,1.668493105243888,1.948699059082917
0.1825000000000045,1.668827068925961,1.94802417093329
0.183125000000004,1.668159141561816,1.951061167606611
0.1837500000000034,1.665487432105237,1.956460272803626
0.1843750000000028,1.664819504741092,1.961521933925827
0.1850000000000023,1.664151577376948,1.961859378000641
0.1856250000000017,1.665153468423165,1.964221486524335
0.1862500000000011,1.666823286833526,1.961184489851014
0.1868750000000006,1.666823286833526,1.95983471355176
0.1875,1.668493105243888,1.959497269476947
0.1881249999999994,1.67016292365425,1.95882238132732
0.1887499999999989,1.673836524157046,1.954098164279932
0.1893749999999983,1.67717616097777,1.950048835382171
0.1899999999999977,1.678845979388131,1.947349282783663
0.1906249999999972,1.680515797798493,1.945999506484409
0.1912499999999966,1.681851652526763,1.946674394634027
0.191874999999996,1.681851652526783,1.941612733511908
0.1924999999999955,1.68084976148058,1.942962509811069
0.1931249999999949,1.677844088341958,1.945999506484365
0.1937500000000085,1.677510124659847,1.944987174259959
0.194375000000008,1.67784408834188,1.944312286110391
0.1950000000000074,1.675506342567369,1.947686726858457
0.1956250000000068,1.6728346331108,1.946336950559203
0.1962500000000063,1.670830851018395,1.944987174259969
0.1968750000000057,1.668493105243888,1.944312286110342
0.1975000000000051,1.667157250515599,1.945999506484409
0.1981250000000045,1.666155359469382,1.950048835382171
0.198750000000004,1.66448554105902,1.955447940579185
0.1993750000000034,1.664151577376948,1.9608470457762
0.2000000000000028,1.665821395787309,1.95882238132732
0.2006250000000023,1.668827068925961,1.950386279456984
0.2012500000000017,1.671832742064612,1.947686726858477
0.2018750000000011,1.668159141561816,1.946674394634036
0.2025000000000006,1.651126993776125,1.927777526444484
0.203125,1.641108083313955,1.912255099003066
0.2037499999999994,1.638436373857376,1.908205770105305
0.2043749999999989,1.643779792770534,1.906518549731238
0.2049999999999983,1.651126993776125,1.906855993806051
0.2056249999999977,1.6574723037355,1.911580210853439
0.2062499999999972,1.661145904238296,1.917316760125268
0.2068749999999966,1.650459066412136,1.907193437881012
0.207499999999996,1.633760882308606,1.892008454514481
0.2081249999999955,1.629085390759418,1.887959125616558
0.2087499999999949,1.630087281805552,1.889646345990542
0.2093750000000085,1.634428809672566,1.89504545118767
0.210000000000008,1.6384363738574,1.90111944453437
0.2106250000000074,1.640106192267704,1.91124276677867
0.2112500000000068,1.637768446492983,1.914279763451696
0.2118750000000063,1.620736298707541,1.897070115636462
0.2125000000000057,1.614724952430239,1.889308901915753
0.2131250000000051,1.615392879794383,1.887959125616499
0.2137500000000045,1.619734407661324,1.892345898589074
0.214375000000004,1.625077826574482,1.899769668234969
0.2150000000000034,1.632758991262146,1.909218102329745
0.2156250000000028,1.638770337539448,1.91259254307788
0.2162500000000023,1.628417463395205,1.896732671561648
0.2168750000000017,1.620068371343396,1.881547688195044
0.2175000000000011,1.620402335025469,1.877835803372096
0.2181250000000006,1.626079717620699,1.883234908569111
0.21875,1.635096737036652,1.88998379006538
0.2193749999999994,1.644113756452606,1.898419891935716
0.2199999999999989,1.650793030094053,1.902469220833477
0.2206249999999983,1.657806267417573,1.911242766778626
0.2212499999999977,1.660477976874152,1.913942319377133
0.2218749999999972,1.663483650012803,1.922040977172656
