SimulatedTests/day19_trial7(1).csv

#Digilent WaveForms Oscilloscope Acquisition
#Device Name: Discovery2
#Serial Number: SN:210321A29E56
#Date Time: 2023-05-19 04:00:01.483
#Sample rate: 1600Hz
#Samples: 49967
#Trigger: Source: Channel 1 Type: Edge Condition: Rising Level: 1.7 V Hyst.: Auto HoldOff: 100 ns
#Channel 1: Range: 200 mV/div Offset: -1.5 V Attenuation: 1 X Sample Mode: Average
#Channel 2: Range: 200 mV/div Offset: -1.5 V Attenuation: 1 X Sample Mode: Average

Time (s),Channel 1 (V),Channel 2 (V)
0,1.700887582404907,1.94701183870885
0.0006249999999994316,1.70122154608698,1.943299953885902
0.001249999999998863,1.701555509769052,1.945324618334783
0.001874999999998295,1.702557400815269,1.945662062409596
0.002499999999997726,1.702223437133197,1.944312286110342
0.003124999999997158,1.702891364497341,1.942962509811089
0.003749999999996589,1.703225328179409,1.94262506573628
0.004374999999996021,1.703559291861481,1.942287621661467
0.004999999999995453,1.701889473451148,1.944312286110313
0.005624999999994884,1.700219655040787,1.941612733511874
0.006250000000008527,1.701221546086989,1.942625065736231
0.006875000000007958,1.70188947345109,1.939588069062979
0.00750000000000739,1.699551727676579,1.941275289437051
0.008125000000006821,1.696880018220019,1.943299953885877
0.008750000000006253,1.695544163491749,1.941612733511835
0.009375000000005684,1.696546054537966,1.944312286110342
0.01000000000000512,1.697547945584184,1.941275289437021
0.01062500000000455,1.698549836630401,1.942287621661462
0.01125000000000398,1.698215872948328,1.941950177586648
0.01187500000000341,1.697881909266256,1.941612733511835
0.01250000000000284,1.69988569135869,1.944312286110342
0.01312500000000227,1.702223437133197,1.940600401287395
0.01375000000000171,1.703559291861486,1.941950177586648
0.01437500000000114,1.704895146589775,1.941612733511835
0.01500000000000057,1.706564965000137,1.938913180913327
0.015625,1.70689892868221,1.940262957212581
0.01624999999999943,1.707566856046354,1.941612733511835
0.01687499999999886,1.708902710774644,1.938575736838514
0.01749999999999829,1.709570638138789,1.939925513137768
0.01812499999999773,1.707900819728427,1.942287621661462
0.01874999999999716,1.708234783410499,1.942287621661462
0.01937499999999659,1.705897037636027,1.944649730185121
0.01999999999999602,1.705229110271858,1.940937845362262
0.02062499999999545,1.705563073953915,1.942287621661442
0.02124999999999488,1.704561182907718,1.942287621661462
0.02187500000000853,1.704227219225626,1.943974842035499
0.02250000000000796,1.703893255543534,1.941950177586663
0.02312500000000739,1.702223437133221,1.942962509811084
0.02375000000000682,1.703893255543568,1.942625065736246
0.02437500000000625,1.704561182907703,1.940600401287395
0.02500000000000568,1.704895146589775,1.943299953885902
0.02562500000000512,1.705229110271848,1.941275289437021
0.02625000000000455,1.706231001318065,1.941275289437021
0.02687500000000398,1.707232892364282,1.941612733511835
0.02750000000000341,1.708234783410499,1.939588069062954
0.02812500000000284,1.708902710774644,1.940262957212581
0.02875000000000227,1.710238565502933,1.939250624988141
0.02937500000000171,1.710572529185006,1.941275289437021
0.03000000000000114,1.711908383913295,1.938575736838514
0.03062500000000057,1.713578202323657,1.939250624988141
0.03125,1.71257631127744,1.940600401287395
0.03187499999999943,1.713244238641584,1.940937845362208
0.03249999999999886,1.711908383913295,1.939250624988141
0.03312499999999829,1.71257631127744,1.939925513137768
0.03374999999999773,1.711574420231223,1.941275289437021
0.03437499999999716,1.710238565502933,1.940262957212581
0.03499999999999659,1.709904601820866,1.94060040128739
0.03562499999999602,1.706231001318118,1.940937845362203
0.03624999999999545,1.706564965000132,1.941612733511825
0.03687499999999488,1.707900819728407,1.941612733511835
0.03750000000000853,1.706564965000142,1.943637397960725
0.03812500000000796,1.70689892868219,1.944312286110283
0.03875000000000739,1.705563073953925,1.940262957212625
0.03937500000000682,1.705897037636007,1.943299953885927
0.04000000000000625,1.70689892868221,1.944987174259969
0.04062500000000568,1.708568747092571,1.941950177586648
0.04125000000000512,1.707566856046354,1.944649730185156
0.04187500000000455,1.707232892364282,1.940600401287395
0.04250000000000398,1.709236674456716,1.939925513137768
0.04312500000000341,1.708902710774644,1.944312286110342
0.04375000000000284,1.709570638138789,1.942287621661462
0.04437500000000227,1.710572529185006,1.940600401287395
0.04500000000000171,1.709236674456716,1.942287621661462
0.04562500000000114,1.710906492867078,1.943974842035529
0.04625000000000057,1.711574420231223,1.942625065736275
0.046875,1.709236674456716,1.944649730185156
0.04749999999999943,1.709904601820861,1.942625065736275
0.04812499999999886,1.710906492867078,1.941950177586648
0.04874999999999829,1.71124045654915,1.944987174259969
0.04937499999999773,1.709236674456716,1.945662062409596
0.04999999999999716,1.707566856046354,1.944312286110342
0.05062499999999659,1.707232892364287,1.942287621661491
0.05124999999999602,1.707900819728417,1.943299953885887
0.05187499999999545,1.708234783410494,1.943299953885902
0.05249999999999488,1.707566856046364,1.94363739796071
0.05312500000000853,1.705229110271848,1.942287621661491
0.05375000000000796,1.705229110271843,1.944312286110372
0.05437500000000739,1.704895146589785,1.946336950559198
0.05500000000000682,1.70556307395393,1.944649730185165
0.05562500000000625,1.706231001318065,1.945324618334783
0.05625000000000568,1.704561182907703,1.944649730185156
0.05687500000000512,1.704895146589775,1.945662062409596
0.05750000000000455,1.705229110271848,1.944649730185156
0.05812500000000398,1.704561182907703,1.947686726858477
0.05875000000000341,1.705229110271848,1.945324618334783
0.05937500000000284,1.70689892868221,1.943637397960715
0.06000000000000227,1.70689892868221,1.943974842035529
0.06062500000000171,1.707900819728427,1.945324618334783
0.06125000000000114,1.707566856046354,1.94701183870885
0.06187500000000057,1.70689892868221,1.948361615008103
0.0625,1.708234783410499,1.944987174259969
0.06312499999999943,1.709570638138789,1.945662062409596
0.06374999999999886,1.707232892364282,1.949373947232544
0.06437499999999829,1.707232892364282,1.947349282783663
0.06499999999999773,1.706231001318065,1.946336950559223
0.06562499999999716,1.706231001318065,1.949711391307357
0.06624999999999659,1.7068989286822,1.946674394634081
0.06687499999999602,1.706231001318075,1.946674394634036
0.06749999999999545,1.70556307395393,1.946674394634036
0.06812499999999488,1.706564965000123,1.945999506484419
0.06875000000000853,1.707232892364248,1.945999506484439
0.06937500000000796,1.70489514658979,1.9480241709333
0.07000000000000739,1.705897037635978,1.948699059082907
0.07062500000000682,1.704895146589785,1.948024170933246
0.07125000000000625,1.70556307395392,1.944987174259969
0.07187500000000568,1.705897037635993,1.946336950559223
0.07250000000000512,1.704227219225631,1.94903650315773
0.07312500000000455,1.704227219225631,1.94903650315773
0.07375000000000398,1.704561182907703,1.947686726858477
0.07437500000000341,1.704895146589775,1.94802417093329
0.07500000000000284,1.704895146589775,1.948699059082917
0.07562500000000227,1.704561182907703,1.94802417093329
0.07625000000000171,1.705229110271848,1.950723723531797
0.07687500000000114,1.705229110271848,1.949373947232544
0.07750000000000057,1.707232892364282,1.948699059082917
0.078125,1.70689892868221,1.950723723531797
0.07874999999999943,1.70689892868221,1.94802417093329
0.07937499999999886,1.708234783410499,1.948361615008103
0.07999999999999829,1.707566856046354,1.950048835382171
0.08062499999999773,1.709236674456716,1.947686726858477
0.08124999999999716,1.706564965000137,1.950723723531797
0.08187499999999659,1.70623100131807,1.949373947232563
0.08249999999999602,1.707232892364267,1.947011838708884
0.08312499999999545,1.704895146589809,1.951398611681361
0.08374999999999488,1.706231001318045,1.95004883538219
0.08437500000000853,1.704561182907713,1.949373947232563
0.08500000000000796,1.705229110271858,1.950723723531792
0.08562500000000739,1.705897037635973,1.950386279456964
0.08625000000000682,1.704561182907723,1.949036503157691
0.08687500000000625,1.705897037635993,1.946336950559223
0.08750000000000568,1.704895146589775,1.950723723531797
0.08812500000000512,1.706564965000137,1.948361615008103
0.08875000000000455,1.708568747092571,1.946674394634036
0.08937500000000398,1.70689892868221,1.951736055756238
0.09000000000000341,1.707900819728427,1.94802417093329
0.09062500000000284,1.710238565502933,1.946336950559223
0.09125000000000227,1.709570638138789,1.948699059082917
0.09187500000000171,1.710906492867078,1.949711391307357
0.09250000000000114,1.710572529185006,1.94802417093329
0.09312500000000057,1.708568747092571,1.949711391307357
0.09375,1.708234783410499,1.946674394634036
0.09437499999999943,1.709570638138789,1.94701183870885
0.09499999999999886,1.708568747092571,1.947349282783663
0.09562499999999829,1.707232892364282,1.947686726858477
0.09624999999999773,1.707900819728427,1.944312286110342
0.09687499999999716,1.706564965000137,1.947686726858477
0.09749999999999659,1.709236674456677,1.946674394634051
0.09812499999999602,1.710238565502919,1.94802417093327
0.09874999999999545,1.708902710774663,1.946336950559247
0.09937499999999488,1.710238565502914,1.945999506484414
0.1000000000000085,1.709570638138813,1.945999506484444
0.100625000000008,1.71124045654916,1.948361615008059
0.1012500000000074,1.711908383913266,1.945324618334817
0.1018750000000068,1.709904601820895,1.947686726858486
0.1025000000000063,1.712242347595367,1.948361615008103
0.1031250000000057,1.71124045654915,1.94903650315773
0.1037500000000051,1.711574420231223,1.948699059082917
0.1043750000000045,1.713912166005729,1.94802417093329
0.105000000000004,1.712242347595367,1.947686726858477
0.1056250000000034,1.714580093369874,1.947349282783663
0.1062500000000028,1.713578202323657,1.948361615008103
0.1068750000000023,1.712242347595367,1.947349282783663
0.1075000000000017,1.712242347595367,1.944987174259969
0.1081250000000011,1.71124045654915,1.945662062409596
0.1087500000000006,1.71124045654915,1.947686726858477
0.109375,1.708234783410499,1.94701183870885
0.1099999999999994,1.709570638138789,1.944649730185156
0.1106249999999989,1.707566856046354,1.94701183870885
0.1112499999999983,1.70689892868221,1.944312286110342
0.1118749999999977,1.709904601820861,1.942625065736275
0.1124999999999972,1.707232892364282,1.949711391307357
0.1131249999999966,1.708568747092552,1.946674394634081
0.113749999999996,1.711574420231179,1.945324618334802
0.1143749999999955,1.710238565502953,1.945324618334783
0.1149999999999949,1.712576311277406,1.946674394634017
0.1156250000000085,1.713244238641541,1.943974842035573
0.116250000000008,1.710238565502977,1.947011838708825
0.1168750000000074,1.713244238641618,1.945324618334763
0.1175000000000068,1.715581984416071,1.943974842035592
0.1181250000000063,1.714246129687802,1.948361615008103
0.1187500000000057,1.712910274959512,1.946674394634036
0.1193750000000051,1.713244238641584,1.945324618334783
0.1200000000000045,1.713244238641584,1.946336950559223
0.120625000000004,1.715581984416091,1.944987174259969
0.1212500000000034,1.716583875462308,1.944649730185156
0.1218750000000028,1.711908383913295,1.948699059082917
0.1225000000000023,1.712242347595367,1.94903650315773
0.1231250000000017,1.712910274959512,1.948699059082917
0.1237500000000011,1.711574420231223,1.94802417093329
0.1243750000000006,1.711908383913295,1.946674394634036
0.125,1.709570638138789,1.944987174259969
0.1256249999999994,1.708902710774644,1.946336950559223
0.1262499999999989,1.709904601820861,1.947686726858477
0.1268749999999983,1.708902710774644,1.945662062409596
0.1274999999999977,1.708234783410499,1.94701183870885
0.1281249999999972,1.708234783410499,1.94903650315773
0.1287499999999966,1.710572529184972,1.943974842035602
0.129374999999996,1.710238565502938,1.94836161500804
0.1299999999999955,1.710238565502933,1.947011838708869
0.1306249999999949,1.710238565502933,1.945999506484424
0.1312500000000085,1.71124045654916,1.945662062409611
0.131875000000008,1.711908383913295,1.946674394634027
0.1325000000000074,1.7119083839133,1.945999506484439
0.1331250000000068,1.712242347595343,1.948024170933324
0.1337500000000063,1.710572529185006,1.950386279456984
0.1343750000000057,1.71124045654915,1.948699059082917
0.1350000000000051,1.713912166005729,1.943637397960715
0.1356250000000045,1.710906492867078,1.947686726858477
0.136250000000004,1.710906492867078,1.94701183870885
0.1368750000000034,1.712242347595367,1.945324618334783
0.1375000000000028,1.709904601820861,1.950048835382171
0.1381250000000023,1.711908383913295,1.948699059082917
0.1387500000000017,1.710238565502933,1.946674394634036
0.1393750000000011,1.708568747092571,1.94802417093329
0.1400000000000006,1.708902710774644,1.948361615008103
0.140625,1.712242347595367,1.948699059082917
0.1412499999999994,1.710572529185006,1.94701183870885
0.1418749999999989,1.710572529185006,1.953423276130305
0.1424999999999983,1.709236674456716,1.948699059082917
0.1431249999999977,1.710238565502933,1.948361615008103
0.1437499999999972,1.712242347595367,1.950723723531797
0.1443749999999966,1.7119083839133,1.945999506484478
0.144999999999996,1.712910274959497,1.950723723531729
0.1456249999999955,1.709904601820905,1.949373947232563
0.1462499999999949,1.709904601820861,1.949373947232544
0.1468750000000085,1.709570638138789,1.948699059082951
0.147500000000008,1.709570638138779,1.951061167606596
0.1481250000000074,1.708902710774644,1.950048835382171
0.1487500000000068,1.708902710774639,1.950048835382151
0.1493750000000063,1.708568747092571,1.948699059082917
0.1500000000000057,1.709570638138789,1.94802417093329
0.1506250000000051,1.708568747092571,1.949711391307357
0.1512500000000045,1.707900819728427,1.952073499831051
0.151875000000004,1.708568747092571,1.948699059082917
0.1525000000000034,1.709904601820861,1.950723723531797
0.1531250000000028,1.708568747092571,1.94903650315773
0.1537500000000023,1.709904601820861,1.947686726858477
0.1543750000000017,1.707566856046354,1.949373947232544
0.1550000000000011,1.709570638138789,1.950048835382171
0.1556250000000006,1.711908383913295,1.948361615008103
0.15625,1.71124045654915,1.949711391307357
0.1568749999999994,1.710906492867078,1.949711391307357
0.1574999999999989,1.71257631127744,1.950048835382171
0.1581249999999983,1.714580093369874,1.950048835382171
0.1587499999999977,1.71691783914438,1.942625065736275
0.1593749999999972,1.718587657554742,1.948699059082917
0.1599999999999966,1.714914057052,1.950048835382151
0.160624999999996,1.715581984416081,1.95241094390583
0.1612499999999955,1.715248020734023,1.951061167606631
0.1618749999999949,1.712576311277479,1.948361615008143
0.1625000000000085,1.712910274959488,1.949036503157715
0.163125000000008,1.711240456549116,1.948024170933309
0.1637500000000074,1.70890271077462,1.949373947232593
0.1643750000000068,1.707232892364258,1.952748387980565
0.1650000000000063,1.70556307395392,1.944987174259969
0.1656250000000057,1.709570638138789,1.946336950559223
0.1662500000000051,1.701555509769052,1.949373947232544
0.1668750000000045,1.706564965000137,1.950723723531797
0.167500000000004,1.708234783410499,1.946674394634036
0.1681250000000034,1.705229110271848,1.950048835382171
0.1687500000000028,1.711908383913295,1.949711391307357
0.1693750000000023,1.706231001318065,1.946336950559223
0.1700000000000017,1.707900819728427,1.953760720205118
0.1706250000000011,1.715915948098163,1.943974842035529
0.1712500000000006,1.715915948098163,1.951736055756238
0.171875,1.711908383913295,1.949373947232544
0.1724999999999994,1.71257631127744,1.947686726858477
0.1731249999999989,1.716583875462308,1.94802417093329
0.1737499999999983,1.71691783914438,1.94701183870885
0.1743749999999977,1.716583875462308,1.94903650315773
0.1749999999999972,1.712242347595367,1.952410943905865
0.1756249999999966,1.711240456549165,1.94667439463412
0.176249999999996,1.715581984416028,1.95038627945693
0.1768749999999955,1.714246129687821,1.944649730185239
0.1774999999999949,1.712242347595397,1.946336950559198
0.1781250000000085,1.708902710774634,1.948024170933383
0.178750000000008,1.708234783410543,1.954435608354627
0.1793750000000074,1.711240456549165,1.946336950559247
0.1800000000000068,1.712242347595285,1.948024170933256
0.1806250000000063,1.706564965000137,1.945662062409596
0.1812500000000057,1.707900819728427,1.945662062409596
0.1818750000000051,1.708902710774644,1.949373947232544
0.1825000000000045,1.707900819728427,1.953760720205118
0.183125000000004,1.710238565502933,1.94802417093329
0.1837500000000034,1.707566856046354,1.94802417093329
0.1843750000000028,1.707566856046354,1.948699059082917
0.1850000000000023,1.71257631127744,1.947349282783663
0.1856250000000017,1.711908383913295,1.946336950559223
0.1862500000000011,1.71257631127744,1.951061167606611
0.1868750000000006,1.713244238641584,1.94701183870885
0.1875,1.714580093369874,1.947686726858477
0.1881249999999994,1.715915948098163,1.950386279456984
0.1887499999999989,1.715248020734019,1.948361615008103
0.1893749999999983,1.715915948098163,1.948699059082917
0.1899999999999977,1.715581984416091,1.949711391307357
0.1906249999999972,1.714580093369874,1.947686726858477
0.1912499999999966,1.713578202323671,1.946674394634051
0.191874999999996,1.710572529185049,1.947011838708845
0.1924999999999955,1.710906492867073,1.946674394634041
0.1931249999999949,1.708568747092605,1.952073499830973
0.1937500000000085,1.707900819728417,1.951398611681395
0.194375000000008,1.707232892364238,1.949373947232524
0.1950000000000074,1.704227219225679,1.948024170933339
0.1956250000000068,1.707566856046325,1.951398611681424
0.1962500000000063,1.70556307395392,1.951398611681424
0.1968750000000057,1.705897037635993,1.952410943905865
0.1975000000000051,1.707232892364282,1.952073499831051
0.1981250000000045,1.708902710774644,1.949373947232544
0.198750000000004,1.709904601820861,1.94802417093329
0.1993750000000034,1.709570638138789,1.954098164279932
0.2000000000000028,1.709904601820861,1.948361615008103
0.2006250000000023,1.714580093369874,1.953085832055491
0.2012500000000017,1.713244238641584,1.952410943905865
0.2018750000000011,1.715248020734019,1.948361615008103
0.2025000000000006,1.714246129687802,1.949373947232544
0.203125,1.713578202323657,1.954773052429559
0.2037499999999994,1.715915948098163,1.946336950559223
0.2043749999999989,1.715248020734019,1.948699059082917
0.2049999999999983,1.713244238641584,1.951398611681424
0.2056249999999977,1.714580093369874,1.948361615008103
0.2062499999999972,1.715581984416091,1.949711391307357
0.2068749999999966,1.710572529185078,1.952410943905825
0.207499999999996,1.709570638138803,1.950048835382205
0.2081249999999955,1.709570638138789,1.949711391307362
0.2087499999999949,1.708568747092586,1.949373947232549
0.2093750000000085,1.708902710774615,1.949711391307367
0.210000000000008,1.706898928682166,1.950386279456989
0.2106250000000074,1.703893255543578,1.950723723531807
0.2112500000000068,1.705229110271882,1.951398611681405
0.2118750000000063,1.707566856046354,1.950048835382171
0.2125000000000057,1.707900819728427,1.950048835382171
0.2131250000000051,1.708568747092571,1.954098164279932
0.2137500000000045,1.707232892364282,1.947349282783663
0.214375000000004,1.709904601820861,1.951061167606611
0.2150000000000034,1.712242347595367,1.951398611681424
0.2156250000000028,1.713244238641584,1.951398611681424
0.2162500000000023,1.715248020734019,1.952748387980678
0.2168750000000017,1.715248020734019,1.949373947232544
0.2175000000000011,1.71691783914438,1.949711391307357
0.2181250000000006,1.715581984416091,1.950386279456984
0.21875,1.716583875462308,1.949711391307357
0.2193749999999994,1.715248020734019,1.951736055756238
0.2199999999999989,1.718587657554742,1.947349282783663
0.2206249999999983,1.714914057051946,1.951736055756238
0.2212499999999977,1.713578202323657,1.948361615008103
0.2218749999999972,1.713578202323657,1.950723723531797
