SimulatedTests/Test-11-15-1(1).csv

#Digilent WaveForms Oscilloscope Acquisition
#Device Name: Discovery2
#Serial Number: SN:210321A29E56
#Date Time: 2023-11-15 15:47:47.989
#Sample rate: 1600Hz
#Samples: 48699
#Trigger: Source: Channel 1 Type: Edge Condition: Rising Level: 0 V Hyst.: Auto HoldOff: 0 s
#Channel 1: Range: 500 mV/div Offset: 0 V Attenuation: 1 X Sample Mode: Average
#Channel 2: Range: 500 mV/div Offset: 0 V Attenuation: 1 X Sample Mode: Average

Time (s),Channel 1 (V),Channel 2 (V)
-81.92,0.2755967066141032,0.222292880070692
-81.919375,1.594439411059285,1.284245587619953
-81.91875,1.594773379838515,1.284245587620918
-81.918125,1.594773379838516,1.284583036844798
-81.9175,1.594773379838516,1.28424558762092
-81.916875,1.594773379838516,1.284583036844797
-81.91625000000001,1.594773379838516,1.284920486068677
-81.91562500000001,1.594773379838516,1.285257935292556
-81.91500000000001,1.594773379838516,1.285257935292558
-81.91437500000001,1.594773379838516,1.284920486068681
-81.91375000000001,1.594773379838516,1.285257935292555
-81.91312500000001,1.594773379838516,1.285257935292558
-81.91250000000001,1.594773379838516,1.284920486068682
-81.91187499999999,1.594773379838519,1.284583036844799
-81.91125,1.595107348616547,1.284583036844802
-81.910625,1.595107348616547,1.284920486068678
-81.91,1.595107348616547,1.284920486068681
-81.909375,1.595107348616542,1.285257935292556
-81.90875,1.594439411060484,1.284920486068678
-81.908125,1.594439411060486,1.284920486068678
-81.9075,1.594773379838516,1.284920486068678
-81.906875,1.594773379838516,1.284920486068678
-81.90625,1.594773379838516,1.284920486068678
-81.905625,1.594773379838516,1.284583036844798
-81.905,1.595107348616547,1.284245587620919
-81.904375,1.595107348616547,1.284583036844799
-81.90375,1.594773379838516,1.284583036844799
-81.903125,1.594773379838516,1.284583036844799
-81.9025,1.594773379838516,1.284920486068678
-81.901875,1.594439411060485,1.284920486068678
-81.90125,1.594773379838514,1.284920486068678
-81.90062500000001,1.594773379838516,1.284920486068678
-81.90000000000001,1.595107348616545,1.284583036844801
-81.89937500000001,1.594773379838518,1.284920486068676
-81.89875000000001,1.594773379838516,1.284920486068678
-81.89812500000001,1.595107348616544,1.284583036844802
-81.89750000000001,1.594773379838519,1.284920486068675
-81.89687500000001,1.594773379838516,1.285257935292555
-81.89624999999999,1.594773379838516,1.285257935292558
-81.895625,1.594773379838516,1.285257935292562
-81.895,1.594773379838516,1.285595384516438
-81.894375,1.594773379838513,1.285595384516436
-81.89375,1.594439411060484,1.285257935292558
-81.893125,1.594439411060484,1.285257935292556
-81.8925,1.594439411060484,1.284920486068677
-81.891875,1.594439411060483,1.2845830368448
-81.89125,1.594105442282453,1.28492048606868
-81.890625,1.594105442282453,1.285257935292558
-81.89,1.594105442282453,1.285257935292558
-81.889375,1.594105442282453,1.285257935292558
-81.88875,1.594439411060484,1.285257935292558
-81.888125,1.594439411060484,1.285257935292558
-81.8875,1.594773379838515,1.285257935292558
-81.886875,1.594439411060485,1.285257935292558
-81.88625,1.594439411060484,1.285257935292558
-81.885625,1.594105442282454,1.285257935292558
-81.88500000000001,1.594105442282453,1.285257935292558
-81.88437500000001,1.594105442282453,1.285595384516436
-81.88375000000001,1.594439411060482,1.285595384516438
-81.88312500000001,1.594105442282455,1.285595384516438
-81.88250000000001,1.593771473504424,1.285595384516438
-81.88187500000001,1.593771473504421,1.285595384516438
-81.88125000000001,1.593771473504421,1.285595384516438
-81.88062499999999,1.593771473504421,1.285595384516438
-81.88,1.593771473504425,1.285595384516438
-81.879375,1.59410544228245,1.285595384516438
-81.87875,1.593771473504419,1.285595384516436
-81.878125,1.59343750472639,1.285257935292556
-81.8775,1.59343750472639,1.284920486068681
-81.876875,1.593437504726392,1.285257935292557
-81.87625,1.593771473504423,1.28492048606868
-81.875625,1.594105442282453,1.285257935292557
-81.875,1.594105442282453,1.284920486068679
-81.874375,1.594105442282453,1.285257935292558
-81.87375,1.594105442282453,1.284920486068679
-81.873125,1.593771473504421,1.285257935292558
-81.8725,1.59343750472639,1.285257935292558
-81.871875,1.59343750472639,1.285257935292558
-81.87125,1.59343750472639,1.285257935292558
-81.870625,1.59377147350442,1.285257935292558
-81.87,1.593771473504421,1.285257935292558
-81.86937500000001,1.593437504726392,1.285595384516437
-81.86875000000001,1.593771473504419,1.285595384516438
-81.86812500000001,1.59410544228245,1.285257935292561
-81.86750000000001,1.594105442282453,1.285257935292558
-81.86687500000001,1.594105442282453,1.284920486068682
-81.86625000000001,1.594773379838509,1.284920486068678
-81.86562500000001,1.594439411060488,1.284920486068678
-81.86499999999999,1.594773379838516,1.284920486068678
-81.864375,1.594773379838512,1.284920486068682
-81.86375,1.594439411060484,1.285257935292555
-81.863125,1.594439411060484,1.284920486068678
-81.8625,1.594439411060482,1.284920486068676
-81.861875,1.594105442282453,1.284583036844801
-81.86125,1.594105442282453,1.284920486068678
-81.860625,1.594105442282453,1.284920486068678
-81.86,1.594105442282453,1.284920486068677
-81.859375,1.594105442282454,1.284583036844799
-81.85875,1.594439411060483,1.284583036844799
-81.858125,1.593771473504421,1.284583036844799
-81.8575,1.594105442282453,1.284920486068678
-81.856875,1.593771473504421,1.284920486068678
-81.85625,1.593771473504421,1.285257935292558
-81.855625,1.593771473504421,1.285257935292558
-81.855,1.593771473504421,1.285257935292558
-81.854375,1.593771473504421,1.285595384516437
-81.85375000000001,1.593771473504421,1.285932833740317
-81.85312500000001,1.593437504726392,1.285932833740318
-81.85250000000001,1.59343750472639,1.286270282964196
-81.85187500000001,1.59343750472639,1.285595384516444
-81.85125000000001,1.593771473504418,1.285257935292561
-81.85062500000001,1.594105442282449,1.284920486068682
-81.85000000000001,1.594773379838508,1.284583036844802
-81.84937499999999,1.594773379838512,1.284920486068678
-81.84875,1.594439411060481,1.284920486068678
-81.848125,1.594105442282456,1.284920486068678
-81.8475,1.594439411060482,1.284920486068681
-81.846875,1.594105442282453,1.285257935292558
-81.84625,1.594105442282453,1.285257935292558
-81.845625,1.594105442282453,1.285257935292557
-81.845,1.594105442282453,1.284920486068678
-81.844375,1.594105442282453,1.284920486068678
-81.84375,1.594105442282453,1.284920486068678
-81.843125,1.594105442282452,1.284920486068679
-81.8425,1.593771473504421,1.285257935292559
-81.841875,1.593771473504421,1.285595384516438
-81.84125,1.593771473504421,1.285595384516438
-81.840625,1.593771473504421,1.285595384516438
-81.84,1.594105442282452,1.285595384516438
-81.839375,1.594105442282453,1.285595384516438
-81.83875,1.593771473504423,1.28525793529256
-81.83812500000001,1.593771473504421,1.285595384516437
-81.83750000000001,1.593437504726392,1.285257935292561
-81.83687500000001,1.593771473504419,1.285595384516436
-81.83625000000001,1.593437504726392,1.285257935292561
-81.83562500000001,1.59343750472639,1.285595384516435
-81.83500000000001,1.593771473504418,1.285595384516438
-81.83437500000001,1.593771473504421,1.285257935292562
-81.83374999999999,1.594105442282449,1.284920486068675
-81.833125,1.593771473504421,1.284583036844802
-81.8325,1.593771473504424,1.284920486068678
-81.831875,1.594105442282453,1.284920486068681
-81.83125,1.594105442282455,1.285257935292561
-81.830625,1.594439411060484,1.285595384516438
-81.83,1.594439411060484,1.285595384516438
-81.829375,1.594439411060487,1.285595384516438
-81.82875,1.595107348616547,1.285595384516438
-81.828125,1.595107348616548,1.285595384516438
-81.8275,1.595441317394578,1.285595384516438
-81.826875,1.595107348616547,1.285595384516438
-81.82625,1.595107348616547,1.285257935292558
-81.825625,1.594773379838516,1.285257935292558
-81.825,1.594439411060485,1.284920486068679
-81.824375,1.594439411060484,1.284920486068678
-81.82375,1.593771473504424,1.285257935292557
-81.823125,1.593771473504421,1.28492048606868
-81.82250000000001,1.594105442282451,1.284920486068678
-81.82187500000001,1.593771473504423,1.285257935292556
-81.82125000000001,1.593771473504421,1.285257935292558
-81.82062500000001,1.593771473504421,1.285257935292558
-81.82000000000001,1.593771473504421,1.285257935292558
-81.81937500000001,1.593771473504421,1.285595384516435
-81.81875000000001,1.593771473504421,1.285595384516438
-81.81812499999999,1.593771473504425,1.285595384516435
-81.8175,1.594105442282449,1.285257935292558
-81.816875,1.593771473504424,1.285257935292555
-81.81625,1.59410544228245,1.284920486068678
-81.815625,1.593771473504424,1.284920486068681
-81.815,1.594105442282453,1.285257935292556
-81.814375,1.594105442282455,1.284920486068677
-81.81375,1.594439411060484,1.2845830368448
-81.813125,1.594439411060484,1.284920486068678
-81.8125,1.594439411060483,1.284920486068678
-81.811875,1.594105442282453,1.284920486068678
-81.81125,1.594105442282453,1.284920486068679
-81.810625,1.593771473504421,1.285257935292558
-81.81,1.593771473504421,1.285257935292558
-81.809375,1.594105442282452,1.284920486068679
-81.80875,1.594105442282453,1.284920486068678
-81.808125,1.594105442282453,1.284920486068678
-81.8075,1.593771473504423,1.285257935292557
-81.80687500000001,1.594439411060481,1.285257935292558
-81.80625000000001,1.594773379838514,1.285257935292558
-81.80562500000001,1.594773379838516,1.285257935292558
-81.80500000000001,1.594773379838516,1.285257935292558
-81.80437500000001,1.594773379838516,1.285257935292558
-81.80375000000001,1.594773379838516,1.284920486068682
-81.80312500000001,1.594773379838516,1.284920486068678
-81.80249999999999,1.594439411060484,1.284920486068675
-81.801875,1.594439411060488,1.284583036844802
-81.80125,1.594773379838516,1.284920486068682
-81.800625,1.594773379838513,1.285257935292558
-81.8,1.594439411060487,1.285257935292558
-81.799375,1.594773379838516,1.285257935292558
-81.79875,1.594773379838516,1.285257935292558
-81.798125,1.594773379838514,1.285257935292557
-81.7975,1.594439411060484,1.284920486068678
-81.796875,1.594439411060485,1.284920486068679
-81.79625,1.594773379838515,1.285257935292559
-81.795625,1.594439411060484,1.285595384516438
-81.795,1.594773379838516,1.285257935292558
-81.794375,1.594773379838516,1.284920486068679
-81.79375,1.595441317394578,1.284583036844799
-81.793125,1.595441317394579,1.284920486068678
-81.7925,1.595107348616548,1.284920486068678
-81.791875,1.595107348616547,1.285257935292557
-81.79125000000001,1.595107348616547,1.285257935292558
-81.79062500000001,1.595441317394577,1.285595384516436
-81.79000000000001,1.595441317394579,1.285595384516438
-81.78937500000001,1.595441317394579,1.285257935292561
-81.78875000000001,1.595441317394579,1.284920486068682
-81.78812500000001,1.595107348616551,1.284920486068678
-81.78750000000001,1.595107348616547,1.284920486068678
-81.78687499999999,1.595107348616551,1.284920486068678
-81.78625,1.595441317394572,1.284920486068682
-81.785625,1.594773379838513,1.285257935292561
-81.785,1.59443941106049,1.285595384516433
-81.784375,1.595107348616547,1.284920486068678
-81.78375,1.595107348616547,1.284920486068678
-81.783125,1.595107348616545,1.284920486068678
-81.7825,1.594773379838514,1.284920486068678
-81.781875,1.594439411060483,1.284920486068678
-81.78125,1.594105442282454,1.284920486068679
-81.780625,1.594439411060485,1.285257935292558
-81.78,1.595107348616547,1.284920486068678
-81.779375,1.594773379838516,1.284920486068678
-81.77875,1.594439411060484,1.284920486068678
-81.778125,1.594773379838515,1.284920486068678
-81.7775,1.594439411060485,1.284583036844799
-81.776875,1.594773379838515,1.284583036844799
-81.77625,1.595107348616546,1.284583036844799
-81.77562500000001,1.595107348616547,1.28424558762092
-81.77500000000001,1.594439411060488,1.284245587620918
-81.77437500000001,1.594439411060484,1.284583036844796
-81.77375000000001,1.594439411060484,1.284583036844799
-81.77312500000001,1.594439411060484,1.284583036844799
-81.77250000000001,1.594105442282456,1.284245587620922
-81.77187500000001,1.593771473504425,1.284245587620918
-81.77124999999999,1.593771473504425,1.284245587620918
-81.770625,1.594105442282456,1.284245587620918
-81.77,1.594439411060484,1.284245587620918
-81.769375,1.594439411060484,1.284245587620918
-81.76875,1.594439411060487,1.284245587620921
-81.768125,1.594773379838516,1.284583036844801
-81.7675,1.594773379838516,1.284920486068678
-81.766875,1.594773379838516,1.28492048606868
-81.76625,1.594773379838515,1.285257935292558
-81.765625,1.594439411060484,1.285257935292557
-81.765,1.594439411060484,1.284920486068678
-81.764375,1.594439411060484,1.284583036844799
-81.76375,1.594105442282453,1.284583036844799
-81.763125,1.593771473504421,1.285257935292558
-81.7625,1.593771473504421,1.284920486068679
-81.761875,1.593771473504421,1.284920486068678
-81.76125,1.593771473504421,1.284920486068678
-81.760625,1.593771473504421,1.285257935292557
-81.76000000000001,1.593771473504421,1.284583036844802
-81.75937500000001,1.594105442282451,1.284583036844799
-81.75875000000001,1.594105442282453,1.284920486068676
-81.75812500000001,1.594105442282453,1.284583036844801
-81.75750000000001,1.594105442282453,1.284920486068675
-81.75687500000001,1.593437504726396,1.284583036844802
-81.75625000000001,1.59343750472639,1.284920486068675
-81.75562499999999,1.593771473504421,1.284920486068682
-81.755,1.593771473504421,1.285257935292558
-81.754375,1.593771473504421,1.285257935292558
-81.75375,1.593771473504424,1.285257935292558
-81.753125,1.594105442282458,1.285257935292556
-81.7525,1.594773379838514,1.284920486068678
-81.751875,1.594439411060484,1.28492048606868
-81.75125,1.594439411060484,1.285257935292558
-81.750625,1.594439411060483,1.285257935292558
-81.75,1.594105442282453,1.285257935292557
-81.749375,1.594105442282453,1.284920486068679
-81.74875,1.594105442282453,1.285257935292558
-81.748125,1.594439411060484,1.284920486068678
-81.7475,1.594439411060484,1.285257935292558
-81.746875,1.594105442282453,1.285595384516438
-81.74625,1.594105442282453,1.285595384516438
-81.745625,1.594105442282453,1.285595384516438
-81.745,1.593771473504423,1.28525793529256
-81.74437500000001,1.594105442282451,1.285257935292558
-81.74375000000001,1.594105442282453,1.285257935292558
-81.74312500000001,1.593771473504424,1.285595384516436
-81.74250000000001,1.593437504726392,1.285932833740316
-81.74187500000001,1.59343750472639,1.285595384516441
-81.74125000000001,1.59343750472639,1.285595384516438
-81.74062500000001,1.59343750472639,1.285595384516438
-81.73999999999999,1.593103535948358,1.285595384516438
-81.739375,1.593103535948355,1.285595384516442
-81.73875,1.59276956717033,1.285932833740318
-81.738125,1.593103535948358,1.285932833740318
-81.7375,1.593103535948358,1.285932833740318
-81.736875,1.593103535948361,1.285932833740318
-81.73625,1.593437504726392,1.285932833740317
-81.735625,1.593771473504421,1.285595384516438
-81.735,1.593771473504421,1.285595384516437
-81.734375,1.593771473504422,1.285257935292558
-81.73375,1.594105442282452,1.285257935292558
-81.733125,1.593771473504421,1.285257935292559
-81.7325,1.593771473504421,1.285595384516438
-81.731875,1.593771473504421,1.285257935292559
-81.73125,1.593771473504421,1.285595384516438
-81.730625,1.593771473504421,1.285932833740318
-81.73,1.593771473504421,1.285932833740318
-81.729375,1.594105442282451,1.285257935292561
-81.72875000000001,1.593771473504423,1.285257935292558
-81.72812500000001,1.593771473504421,1.285257935292558
-81.72750000000001,1.593771473504421,1.284920486068681
-81.72687500000001,1.593771473504421,1.284920486068678
-81.72625000000001,1.593437504726393,1.284920486068678
-81.72562500000001,1.59343750472639,1.285257935292555
-81.72500000000001,1.593771473504418,1.285257935292558
-81.72437499999999,1.593771473504421,1.285257935292562
-81.72375,1.593771473504421,1.285595384516438
-81.723125,1.593771473504421,1.285595384516438
-81.7225,1.593771473504421,1.285595384516438
-81.721875,1.593771473504424,1.285595384516436
-81.72125,1.594105442282453,1.285257935292558
-81.720625,1.594105442282451,1.285257935292557
-81.72,1.59377147350442,1.284920486068678
-81.719375,1.593437504726391,1.28492048606868
-81.71875,1.593771473504421,1.285257935292559
-81.718125,1.593771473504421,1.285595384516438
-81.7175,1.593771473504421,1.285257935292558
-81.716875,1.59343750472639,1.285257935292558
-81.71625,1.59343750472639,1.285257935292558
-81.715625,1.59343750472639,1.285257935292558
-81.715,1.59377147350442,1.285257935292558
-81.714375,1.594105442282452,1.28492048606868
-81.71375,1.593771473504423,1.284920486068678
-81.71312500000001,1.594105442282451,1.284920486068678
-81.71250000000001,1.593771473504423,1.285257935292556
-81.71187500000001,1.593771473504421,1.285257935292558
-81.71125000000001,1.593771473504421,1.285257935292558
-81.71062500000001,1.593771473504421,1.285595384516435
-81.71000000000001,1.593771473504421,1.285932833740315
-81.70937500000001,1.593771473504421,1.285932833740318
-81.70874999999999,1.594105442282453,1.285932833740318
-81.708125,1.594105442282453,1.285932833740318
-81.7075,1.59410544228245,1.285932833740315
-81.706875,1.593771473504421,1.285595384516438
-81.70625,1.593771473504421,1.285595384516438
-81.705625,1.593771473504425,1.285595384516436
-81.705,1.594439411060484,1.285257935292555
-81.704375,1.594439411060484,1.284583036844797
-81.70375,1.594439411060484,1.284245587620917
-81.703125,1.594439411060484,1.283908138397039
-81.7025,1.594439411060484,1.284245587620919
-81.701875,1.594439411060484,1.284583036844799
-81.70125,1.594439411060484,1.284920486068678
-81.700625,1.594773379838516,1.285257935292558
-81.7,1.594773379838516,1.284920486068679
-81.699375,1.595107348616546,1.285257935292557
-81.69875,1.594773379838517,1.285257935292558
-81.698125,1.594773379838516,1.285257935292558
-81.69750000000001,1.594773379838516,1.28492048606868
-81.69687500000001,1.594773379838516,1.284920486068678
-81.69625000000001,1.594439411060487,1.284920486068678
-81.69562500000001,1.594439411060484,1.284920486068678
-81.69500000000001,1.594439411060484,1.284245587620925
-81.69437500000001,1.594439411060484,1.284245587620918
-81.69375000000001,1.594773379838512,1.284245587620918
-81.69312499999999,1.594773379838516,1.284245587620918
-81.6925,1.594773379838512,1.284245587620918
-81.691875,1.594439411060481,1.284245587620918
-81.69125,1.594105442282453,1.284245587620921
-81.690625,1.594105442282455,1.284583036844799
-81.69,1.594439411060484,1.284583036844801
-81.689375,1.594439411060484,1.28492048606868
-81.68875,1.594439411060483,1.285257935292558
-81.688125,1.594105442282454,1.285257935292558
-81.6875,1.594439411060483,1.285257935292559
-81.686875,1.594105442282453,1.285595384516438
-81.68625,1.594105442282453,1.285257935292558
-81.685625,1.594105442282453,1.285257935292558
-81.685,1.594439411060484,1.285257935292558
-81.684375,1.594439411060484,1.285257935292558
-81.68375,1.594439411060484,1.285257935292558
-81.683125,1.594105442282454,1.285257935292558
-81.6825,1.594439411060483,1.28492048606868
-81.68187500000001,1.594439411060484,1.284920486068678
-81.68125000000001,1.594773379838514,1.284583036844801
-81.68062500000001,1.595107348616545,1.284583036844799
-81.68000000000001,1.595107348616547,1.284583036844799
-81.67937500000001,1.595441317394576,1.284583036844799
-81.67875000000001,1.595107348616551,1.284583036844799
-81.67812500000001,1.595107348616547,1.284920486068675
-81.67749999999999,1.595107348616547,1.284920486068678
-81.676875,1.595107348616547,1.284920486068675
-81.67625,1.595107348616547,1.284583036844799
-81.675625,1.595107348616542,1.284583036844799
-81.675,1.594439411060484,1.284583036844799
-81.674375,1.594439411060484,1.284583036844801
-81.67375,1.594439411060486,1.284920486068677
-81.673125,1.594773379838516,1.2845830368448
-81.6725,1.594773379838515,1.284920486068678
-81.671875,1.594439411060484,1.284920486068678
-81.67125,1.594439411060484,1.284583036844799
-81.670625,1.594439411060484,1.284583036844799
