SimulatedTests/Test-11-10-1(1).csv

#Digilent WaveForms Oscilloscope Acquisition
#Device Name: Discovery2
#Serial Number: SN:210321A29E56
#Date Time: 2023-11-10 15:17:19.205
#Sample rate: 1600Hz
#Samples: 12622
#Trigger: Source: Channel 1 Type: Edge Condition: Falling Level: 1.6 V Hyst.: Auto HoldOff: 0 s
#Channel 1: Range: 500 mV/div Offset: 0 V Attenuation: 1 X Sample Mode: Average
#Channel 2: Range: 500 mV/div Offset: -1 V Attenuation: 1 X Sample Mode: Average

Time (s),Channel 1 (V),Channel 2 (V)
-81.92,0.7257866194005609,1.126457081640543
-81.919375,1.628838195196907,1.286070564535617
-81.91875,1.628170257641667,1.287082912207401
-81.918125,1.630508039087879,1.287420361431281
-81.9175,1.631509945421977,1.286408013759646
-81.916875,1.63351375809016,1.284045869192493
-81.91625000000001,1.638523289760615,1.282021173849214
-81.91562500000001,1.639859164872759,1.27932158005818
-81.91500000000001,1.641529008762913,1.278309232386531
-81.91437500000001,1.643866790209127,1.277296884714892
-81.91375000000001,1.644868696543231,1.276959435491007
-81.91312500000001,1.645870602877325,1.276959435491004
-81.91250000000001,1.645536634099307,1.276284537043251
-81.91187499999999,1.644868696543229,1.276284537043247
-81.91125,1.643866790209136,1.276621986267124
-81.910625,1.642864883875042,1.276621986267124
-81.91,1.641862977540949,1.276621986267124
-81.909375,1.64086107120686,1.276621986267121
-81.90875,1.640527102428827,1.276284537043248
-81.908125,1.639859164872764,1.276959435491005
-81.9075,1.639191227316702,1.277296884714885
-81.906875,1.638523289760641,1.277634333938763
-81.90625,1.638189320982609,1.277634333938763
-81.905625,1.637855352204578,1.277634333938762
-81.905,1.637521383426547,1.276959435491004
-81.904375,1.637855352204579,1.276959435491004
-81.90375,1.63818932098261,1.276621986267124
-81.903125,1.63818932098261,1.276959435491003
-81.9025,1.638523289760641,1.277296884714883
-81.901875,1.638857258538672,1.277296884714884
-81.90125,1.639525196094733,1.27797178316264
-81.90062500000001,1.640193133650796,1.2786466816104
-81.90000000000001,1.640527102428829,1.279321580058159
-81.89937500000001,1.641195039984889,1.279321580058163
-81.89875000000001,1.641862977540951,1.279659029282041
-81.89812500000001,1.642864883875042,1.280333927729797
-81.89750000000001,1.643866790209136,1.281008826177557
-81.89687500000001,1.643532821431118,1.281683724625316
-81.89624999999999,1.644868696543248,1.28202117384921
-81.895625,1.645536634099307,1.28269607229697
-81.895,1.645870602877332,1.283370970744732
-81.894375,1.645536634099314,1.284383318416368
-81.89375,1.646872509211432,1.285058216864125
-81.893125,1.647206477989463,1.285395666088007
-81.8925,1.647540446767492,1.286070564535764
-81.891875,1.647540446767494,1.286408013759646
-81.89125,1.647874415545524,1.287082912207405
-81.890625,1.647874415545524,1.287757810655163
-81.89,1.647874415545524,1.288095259879042
-81.889375,1.648208384323555,1.288095259879042
-81.88875,1.648542353101587,1.288432709102922
-81.888125,1.648876321879618,1.288770158326802
-81.8875,1.64954425943568,1.289107607550682
-81.886875,1.649878228213712,1.289107607550682
-81.88625,1.649878228213713,1.28978250599844
-81.885625,1.649878228213713,1.29011995522232
-81.88500000000001,1.649878228213713,1.290794853670078
-81.88437500000001,1.650212196991742,1.291469752117838
-81.88375000000001,1.650212196991744,1.292144650565597
-81.88312500000001,1.650546165769773,1.293156998237233
-81.88250000000001,1.650880134547804,1.293494447461118
-81.88187500000001,1.650546165769779,1.293494447461121
-81.88125000000001,1.650880134547804,1.292819549013369
-81.88062499999999,1.651548072103874,1.292482099789474
-81.88,1.651882040881908,1.291807201341715
-81.879375,1.652549978437974,1.291132302893959
-81.87875,1.653551884772051,1.290794853670079
-81.878125,1.652549978437982,1.290457404446199
-81.8775,1.654887759884174,1.290119955222318
-81.876875,1.653217915994024,1.289445056774562
-81.87625,1.652549978437966,1.289445056774562
-81.875625,1.652883947215999,1.289445056774563
-81.875,1.653551884772057,1.289782505998444
-81.874375,1.652883947215999,1.290457404446202
-81.87375,1.654219822328122,1.29079485367008
-81.873125,1.654219822328122,1.289107607550682
-81.8725,1.654219822328122,1.287757810655163
-81.871875,1.65355188477206,1.286070564535766
-81.87125,1.653551884772059,1.285058216864125
-81.870625,1.653551884772059,1.284045869192487
-81.87,1.653551884772059,1.284045869192483
-81.86937500000001,1.653551884772059,1.283708419968605
-81.86875000000001,1.652549978437971,1.283033521520847
-81.86812500000001,1.652549978437965,1.283033521520843
-81.86750000000001,1.652549978437965,1.282021173849211
-81.86687500000001,1.652216009659936,1.281346275401449
-81.86625000000001,1.651882040881905,1.280333927729813
-81.86562500000001,1.65221600965993,1.279659029282051
-81.86499999999999,1.652549978437972,1.278984130834283
-81.864375,1.653217915994028,1.278984130834283
-81.86375,1.653217915994034,1.278984130834292
-81.863125,1.653885853550088,1.279996478505921
-81.8625,1.653551884772057,1.279659029282038
-81.861875,1.653217915994025,1.278984130834283
-81.86125,1.652883947215996,1.278984130834272
-81.860625,1.652883947215995,1.276959435490995
-81.86,1.652549978437965,1.274934740147718
-81.859375,1.652549978437967,1.273247494028321
-81.85875,1.653551884772055,1.272235146356684
-81.858125,1.651214103325841,1.272235146356686
-81.8575,1.653217915994028,1.274259841699964
-81.856875,1.651882040881903,1.274259841699964
-81.85625,1.652549978437964,1.273584943252205
-81.855625,1.653551884772057,1.273584943252204
-81.855,1.65388585355009,1.272910044804447
-81.854375,1.653217915994031,1.271897697132809
-81.85375000000001,1.654219822328117,1.27088534946117
-81.85312500000001,1.653885853550093,1.271222798685042
-81.85250000000001,1.653551884772062,1.271897697132799
-81.85187500000001,1.651882040881915,1.273247494028313
-81.85125000000001,1.650880134547816,1.274259841699955
-81.85062500000001,1.650880134547807,1.274934740147717
-81.85000000000001,1.651214103325835,1.276284537043229
-81.84937499999999,1.652216009659951,1.277296884714895
-81.84875,1.653885853550107,1.278309232386523
-81.848125,1.65555569744026,1.27830923238653
-81.8475,1.656891572552388,1.278984130834283
-81.846875,1.658561416442544,1.278984130834281
-81.84625,1.660231260332697,1.278646681610395
-81.845625,1.661567135444819,1.277296884714874
-81.845,1.662235073000878,1.275609638595479
-81.844375,1.662235073000878,1.274597290923846
-81.84375,1.662235073000876,1.275272189371606
-81.843125,1.661567135444814,1.275947087819366
-81.8425,1.660899197888752,1.277296884714884
-81.841875,1.66056522911072,1.278309232386523
-81.84125,1.660231260332689,1.278309232386523
-81.840625,1.659897291554658,1.278646681610403
-81.84,1.659229353998596,1.277971783162645
-81.839375,1.659563322776625,1.277971783162644
-81.83875,1.660231260332686,1.278984130834279
-81.83812500000001,1.660565229110719,1.28134627540143
-81.83750000000001,1.66089919788875,1.282696072296954
-81.83687500000001,1.660565229110723,1.282696072296963
-81.83625000000001,1.661233166666778,1.282358623073086
-81.83562500000001,1.662903010556926,1.281346275401452
-81.83500000000001,1.664238885669054,1.28067137695369
-81.83437500000001,1.662903010556956,1.279659029282054
-81.83374999999999,1.664238885669064,1.27830923238652
-81.833125,1.663904916891032,1.27797178316266
-81.8325,1.663570948112995,1.279659029282028
-81.831875,1.662569041778907,1.27797178316263
-81.83125,1.662235073000876,1.276284537043246
-81.830625,1.661901104222847,1.276621986267119
-81.83,1.66190110422285,1.27594708781936
-81.829375,1.662569041778922,1.275272189371581
-81.82875,1.665240792003181,1.270210451013359
-81.828125,1.670584292451669,1.257724829729825
-81.8275,1.671920167563789,1.24996349758061
-81.826875,1.670584292451665,1.251313294476133
-81.82625,1.669582386117571,1.258062278953726
-81.825625,1.668914448561509,1.268860654117875
-81.825,1.668246511005446,1.277971783162627
-81.824375,1.667578573449384,1.284045869192466
-81.82375,1.66524079200317,1.286745462983513
-81.823125,1.662569041778922,1.287757810655157
-81.82250000000001,1.661233166666791,1.286070564535772
-81.82187500000001,1.661233166666784,1.285395666088007
-81.82125000000001,1.662235073000871,1.286070564535758
-81.82062500000001,1.664572854447079,1.28640801375964
-81.82000000000001,1.668246511005412,1.285058216864135
-81.81937500000001,1.674925886566008,1.282021173849233
-81.81875000000001,1.681605262126632,1.277634333938811
-81.81812499999999,1.68494494990706,1.272572595580505
-81.8175,1.688618606465386,1.267173407998451
-81.816875,1.690622419133558,1.263798915759685
-81.81625,1.690956387911587,1.263798915759713
-81.815625,1.690956387911572,1.267173407998512
-81.815,1.688952575243355,1.270885349461209
-81.814375,1.68227319968274,1.277971783162686
-81.81375,1.677263668012267,1.285733115311913
-81.813125,1.670918261229674,1.292482099789503
-81.8125,1.664572854447085,1.298218736595462
-81.811875,1.659563322776617,1.305980068744691
-81.81125,1.654553791106151,1.312054154774522
-81.810625,1.652216009659933,1.315091197789439
-81.81,1.650212196991746,1.318465690028235
-81.809375,1.648876321879621,1.320490385371514
-81.80875,1.649210290657649,1.321165283819276
-81.808125,1.650546165769771,1.322515080714793
-81.8075,1.651214103325836,1.325552123729704
-81.80687500000001,1.650546165769779,1.330276412864011
-81.80625000000001,1.652216009659923,1.333650905102815
-81.80562500000001,1.65689157255234,1.334325803550592
-81.80500000000001,1.662569041778863,1.333650905102842
-81.80437500000001,1.667912542227365,1.332976006655083
-81.80375000000001,1.672588105119808,1.33162620975957
-81.80312500000001,1.676929699234217,1.328251717520794
-81.80249999999999,1.679935418236562,1.325214674505808
-81.801875,1.681271293348677,1.322515080714761
-81.80125,1.681605262126702,1.318803139252078
-81.800625,1.68127129334866,1.314416299341638
-81.8,1.679601449458499,1.309354560983455
-81.799375,1.677263668012281,1.305980068744661
-81.79875,1.674925886566062,1.302943025729747
-81.798125,1.672588105119847,1.300580881162589
-81.7975,1.670918261229692,1.297881287371552
-81.796875,1.669582386117566,1.295519142804393
-81.79625,1.667912542227408,1.292482099789477
-81.795625,1.664906823225129,1.28978250599844
-81.795,1.663236979334973,1.287420361431282
-81.794375,1.663570948113004,1.285733115311884
-81.79375,1.663904916891035,1.285058216864124
-81.793125,1.663904916891036,1.284045869192485
-81.7925,1.663904916891036,1.283370970744725
-81.791875,1.664238885669066,1.283033521520844
-81.79125000000001,1.665240792003156,1.283033521520843
-81.79062500000001,1.666576667115279,1.283033521520843
-81.79000000000001,1.667578573449375,1.282696072296965
-81.78937500000001,1.667578573449382,1.282021173849208
-81.78875000000001,1.667578573449382,1.28235862307308
-81.78812500000001,1.667244604671354,1.283033521520836
-81.78750000000001,1.667912542227406,1.283370970744719
-81.78687499999999,1.668914448561515,1.28404586919249
-81.78625,1.669582386117578,1.284720767640259
-81.785625,1.670250323673643,1.286408013759636
-81.785,1.671252230007731,1.28573311531186
-81.784375,1.67158619878576,1.283033521520826
-81.78375,1.671586198785762,1.280671376953673
-81.783125,1.671920167563795,1.27898413083428
-81.7825,1.672588105119856,1.278309232386525
-81.781875,1.672922073897886,1.278646681610407
-81.78125,1.672922073897886,1.279659029282046
-81.780625,1.672922073897885,1.280671376953685
-81.78,1.672588105119854,1.281346275401443
-81.779375,1.672254136341823,1.281683724625323
-81.77875,1.673256042675917,1.282696072296962
-81.778125,1.671920167563794,1.282696072296963
-81.7775,1.6709182612297,1.283033521520842
-81.776875,1.671586198785757,1.2837084199686
-81.77625,1.67225413634182,1.28438331841636
-81.77562500000001,1.670250323673645,1.284720767640241
-81.77500000000001,1.671252230007722,1.285395666087998
-81.77437500000001,1.671586198785757,1.28573311531188
-81.77375000000001,1.671920167563789,1.28607056453576
-81.77312500000001,1.671586198785763,1.286408013759639
-81.77250000000001,1.67158619878576,1.287082912207396
-81.77187500000001,1.67158619878576,1.287757810655155
-81.77124999999999,1.671920167563791,1.288095259879042
-81.770625,1.671920167563791,1.288095259879036
-81.77,1.671920167563794,1.287420361431279
-81.769375,1.672254136341823,1.287082912207405
-81.76875,1.672254136341823,1.287420361431285
-81.768125,1.672254136341825,1.287757810655166
-81.7675,1.672588105119853,1.288432709102928
-81.766875,1.672254136341821,1.289445056774564
-81.76625,1.67192016756379,1.289782505998442
-81.765625,1.671586198785761,1.289782505998442
-81.765,1.671920167563791,1.289782505998442
-81.764375,1.67158619878576,1.289782505998441
-81.76375,1.67158619878576,1.289107607550682
-81.763125,1.67158619878576,1.288770158326802
-81.7625,1.67158619878576,1.289445056774561
-81.761875,1.67158619878576,1.290794853670078
-81.76125,1.67225413634182,1.292482099789475
-81.760625,1.672588105119853,1.293831896684995
-81.76000000000001,1.672588105119855,1.294844244356636
-81.75937500000001,1.672922073897884,1.295856592028275
-81.75875000000001,1.673590011453944,1.295519142804404
-81.75812500000001,1.673923980231978,1.294844244356647
-81.75750000000001,1.674925886566066,1.294506795132764
-81.75687500000001,1.674925886566075,1.294169345908885
-81.75625000000001,1.674591917788047,1.293494447461129
-81.75562499999999,1.676929699234246,1.293831896684994
-81.755,1.67525985534412,1.293156998237242
-81.754375,1.676595730456232,1.293156998237242
-81.75375,1.676595730456232,1.293156998237244
-81.753125,1.67659573045623,1.293494447461126
-81.7525,1.676261761678199,1.294169345908881
-81.751875,1.675927792900169,1.294169345908885
-81.75125,1.675927792900169,1.294844244356641
-81.750625,1.675927792900169,1.294844244356643
-81.75,1.67592779290017,1.295181693580522
-81.749375,1.676261761678202,1.295519142804403
-81.74875,1.676595730456232,1.296194041252161
-81.748125,1.676595730456232,1.296531490476041
-81.7475,1.676595730456232,1.29754383814768
-81.746875,1.676929699234263,1.29821873659544
-81.74625,1.676929699234264,1.298893635043199
-81.745625,1.676929699234264,1.299905982714837
-81.745,1.676595730456234,1.299905982714841
-81.74437500000001,1.676929699234262,1.300580881162597
-81.74375000000001,1.677263668012293,1.301255779610356
-81.74312500000001,1.677263668012295,1.301593228834238
-81.74250000000001,1.676929699234267,1.302268127281995
-81.74187500000001,1.676929699234264,1.302268127282
-81.74125000000001,1.677263668012292,1.302268127282
-81.74062500000001,1.677597636790323,1.302268127282
-81.73999999999999,1.678265574346397,1.302268127282004
-81.739375,1.678933511902443,1.30260557650588
-81.73875,1.677931605568364,1.302605576505877
-81.738125,1.678599543124419,1.302268127281998
-81.7375,1.678265574346385,1.301930678058113
-81.736875,1.677597636790329,1.300918330386481
-81.73625,1.677931605568362,1.300918330386482
-81.735625,1.678599543124415,1.301255779610364
-81.735,1.6772636680123,1.301930678058122
-81.734375,1.678599543124421,1.302268127281998
-81.73375,1.678599543124421,1.301255779610359
-81.733125,1.678599543124422,1.30024343193872
-81.7325,1.679267480680484,1.299568533490961
-81.731875,1.679601449458516,1.3005808811626
-81.73125,1.679601449458516,1.301255779610359
-81.730625,1.679935418236546,1.30159322883424
-81.73,1.680269387014578,1.300580881162605
-81.729375,1.679935418236549,1.299231084267087
-81.72875000000001,1.679267480680488,1.298218736595447
-81.72812500000001,1.679267480680484,1.29686893969993
-81.72750000000001,1.679267480680484,1.295856592028289
-81.72687500000001,1.678933511902456,1.295519142804404
-81.72625000000001,1.678933511902453,1.294844244356648
-81.72562500000001,1.678599543124425,1.294506795132765
-81.72500000000001,1.678265574346393,1.294169345908885
-81.72437499999999,1.677931605568351,1.293831896684994
-81.72375,1.677263668012299,1.293156998237225
-81.723125,1.677597636790333,1.291469752117833
-81.7225,1.678265574346393,1.290457404446194
-81.721875,1.678599543124424,1.28944505677456
-81.72125,1.678933511902451,1.289107607550678
-81.720625,1.678599543124421,1.28843270910292
-81.72,1.678599543124424,1.288095259879044
-81.719375,1.679267480680476,1.28843270910292
-81.71875,1.676929699234269,1.287757810655161
-81.718125,1.67859954312442,1.28742036143128
-81.7175,1.677931605568358,1.286408013759642
-81.716875,1.677263668012295,1.285733115311883
-81.71625,1.677263668012295,1.285058216864123
-81.715625,1.676929699234265,1.285058216864122
-81.715,1.675259855344111,1.284383318416364
-81.714375,1.676929699234258,1.284383318416363
-81.71375,1.677263668012294,1.284720767640241
-81.71312500000001,1.677597636790325,1.284720767640243
-81.71250000000001,1.677263668012298,1.284383318416365
-81.71187500000001,1.677263668012295,1.284045869192485
-81.71125000000001,1.677597636790324,1.28438331841636
-81.71062500000001,1.677597636790327,1.284383318416363
-81.71000000000001,1.677931605568355,1.284720767640239
-81.70937500000001,1.678265574346386,1.285733115311871
-81.70874999999999,1.678599543124418,1.286070564535755
-81.708125,1.678265574346387,1.285395666087992
-81.7075,1.677931605568355,1.28438331841636
-81.706875,1.677597636790327,1.284045869192483
-81.70625,1.677597636790329,1.28404586919248
-81.705625,1.677931605568358,1.283708419968601
-81.705,1.677931605568358,1.283370970744721
-81.704375,1.677931605568355,1.28303352152084
-81.70375,1.677263668012297,1.282358623073084
-81.703125,1.677597636790329,1.282696072296963
-81.7025,1.678265574346391,1.282696072296964
-81.701875,1.678599543124422,1.283033521520843
-81.70125,1.678933511902453,1.283370970744723
-81.700625,1.678599543124422,1.283708419968603
-81.7,1.678933511902452,1.284720767640241
-81.699375,1.679267480680483,1.285058216864122
-81.69875,1.680269387014575,1.285395666088001
-81.698125,1.679267480680489,1.285733115311881
-81.69750000000001,1.678599543124425,1.286070564535761
-81.69687500000001,1.679601449458509,1.286070564535762
-81.69625000000001,1.68160526212669,1.286745462983518
-81.69562500000001,1.681271293348676,1.287420361431277
-81.69500000000001,1.67993541823656,1.288095259879036
-81.69437500000001,1.68127129334866,1.288095259879042
-81.69375000000001,1.680937324570645,1.288095259879042
-81.69312499999999,1.680603355792614,1.287420361431275
-81.6925,1.680937324570635,1.286745462983522
-81.691875,1.680269387014576,1.286745462983516
-81.69125,1.679935418236545,1.28607056453576
-81.690625,1.679601449458513,1.285733115311875
-81.69,1.679267480680482,1.284720767640238
-81.689375,1.678933511902453,1.284045869192479
-81.68875,1.678933511902451,1.283370970744723
-81.688125,1.67859954312442,1.283370970744724
-81.6875,1.678265574346389,1.283708419968604
-81.686875,1.677931605568358,1.284045869192483
-81.68625,1.677931605568358,1.284383318416363
-81.685625,1.677597636790327,1.284383318416363
-81.685,1.677931605568358,1.284720767640242
-81.684375,1.677931605568358,1.284720767640243
-81.68375,1.678265574346389,1.285058216864122
-81.683125,1.67859954312442,1.284720767640244
-81.6825,1.678933511902451,1.285058216864121
-81.68187500000001,1.679267480680483,1.285058216864122
-81.68125000000001,1.679267480680484,1.285395666088
-81.68062500000001,1.679267480680484,1.28573311531188
-81.68000000000001,1.679601449458513,1.286745462983514
-81.67937500000001,1.68093732457063,1.286408013759646
-81.67875000000001,1.680937324570642,1.286408013759643
-81.67812500000001,1.680937324570642,1.286745462983519
-81.67749999999999,1.680269387014572,1.286745462983526
-81.676875,1.679601449458529,1.287082912207402
-81.67625,1.680937324570648,1.287082912207405
-81.675625,1.681605262126688,1.287420361431285
-81.675,1.679601449458526,1.287757810655167
-81.674375,1.680937324570642,1.288432709102922
-81.67375,1.680937324570644,1.288432709102926
-81.673125,1.681271293348672,1.289107607550684
-81.6725,1.680937324570642,1.289445056774563
-81.671875,1.680937324570644,1.289782505998444
-81.67125,1.681605262126704,1.290457404446202
-81.670625,1.681271293348673,1.290794853670083
-81.67,1.681271293348673,1.291807201341722
