SimulatedTests/Test-11-17-1(1).csv

#Digilent WaveForms Oscilloscope Acquisition
#Device Name: Discovery2
#Serial Number: SN:210321A29E56
#Date Time: 2023-11-17 14:40:29.427
#Sample rate: 1600Hz
#Samples: 20384
#Trigger: Source: Channel 1 Type: Edge Condition: Rising Level: 0 V Hyst.: Auto HoldOff: 0 s
#Channel 1: Range: 500 mV/div Offset: 0 V Attenuation: 1 X Sample Mode: Average
#Channel 2: Range: 500 mV/div Offset: 0 V Attenuation: 1 X Sample Mode: Average

Time (s),Channel 1 (V),Channel 2 (V)
-81.92,0.6970653044898522,0.5624416977416893
-81.919375,1.597111161283918,1.288294978306818
-81.91875,1.597111161284736,1.288632427531357
-81.918125,1.596777192506706,1.288632427531358
-81.9175,1.597111161284735,1.288632427531358
-81.916875,1.597445130062766,1.28829497830748
-81.91625000000001,1.597445130062768,1.2879575290836
-81.91562500000001,1.597445130062768,1.28762007985972
-81.91500000000001,1.597111161284739,1.287282630635841
-81.91437500000001,1.597111161284736,1.287620079859715
-81.91375000000001,1.597445130062765,1.287620079859718
-81.91312500000001,1.597779098840796,1.287620079859718
-81.91250000000001,1.598113067618827,1.287620079859718
-81.91187499999999,1.59878100517489,1.287957529083598
-81.91125,1.598447036396859,1.287957529083601
-81.910625,1.598113067618831,1.288294978307481
-81.91,1.598113067618828,1.288632427531358
-81.909375,1.597779098840799,1.288632427531358
-81.90875,1.597779098840795,1.288632427531356
-81.908125,1.597111161284736,1.288294978307476
-81.9075,1.597111161284738,1.287957529083598
-81.906875,1.597445130062769,1.287957529083596
-81.90625,1.5977790988408,1.287282630635838
-81.905625,1.59811306761883,1.287282630635838
-81.905,1.597779098840799,1.287282630635838
-81.904375,1.598113067618831,1.287620079859718
-81.90375,1.598447036396862,1.287282630635838
-81.903125,1.598447036396862,1.287282630635838
-81.9025,1.598447036396862,1.286945181411959
-81.901875,1.598447036396862,1.286945181411958
-81.90125,1.598113067618832,1.286945181411958
-81.90062500000001,1.598113067618831,1.287620079859714
-81.90000000000001,1.59844703639686,1.287620079859718
-81.89937500000001,1.598781005174891,1.287620079859718
-81.89875000000001,1.598447036396865,1.287620079859718
-81.89812500000001,1.598447036396862,1.287620079859718
-81.89750000000001,1.59878100517489,1.287282630635842
-81.89687500000001,1.599114973952922,1.287282630635838
-81.89624999999999,1.599114973952922,1.287282630635838
-81.895625,1.598781005174894,1.287282630635842
-81.895,1.598781005174897,1.287620079859718
-81.894375,1.599114973952925,1.287620079859718
-81.89375,1.599114973952923,1.287620079859716
-81.893125,1.598781005174896,1.287282630635836
-81.8925,1.599114973952925,1.28694518141196
-81.891875,1.599114973952924,1.287282630635838
-81.89125,1.598781005174894,1.287282630635838
-81.890625,1.598781005174895,1.287282630635839
-81.89,1.599114973952925,1.287620079859718
-81.889375,1.599114973952925,1.287620079859718
-81.88875,1.598781005174894,1.287620079859718
-81.888125,1.598781005174894,1.287620079859718
-81.8875,1.598781005174894,1.287620079859718
-81.886875,1.599114973952924,1.287620079859718
-81.88625,1.599114973952925,1.287620079859718
-81.885625,1.598781005174895,1.287957529083597
-81.88500000000001,1.599114973952923,1.288294978307476
-81.88437500000001,1.599114973952925,1.288294978307478
-81.88375000000001,1.599114973952925,1.288294978307478
-81.88312500000001,1.599114973952925,1.287957529083601
-81.88250000000001,1.598781005174897,1.288294978307475
-81.88187500000001,1.598781005174894,1.287957529083601
-81.88125000000001,1.598781005174894,1.287282630635846
-81.88062499999999,1.59878100517489,1.286945181411958
-81.88,1.598447036396862,1.286945181411961
-81.879375,1.598447036396862,1.287282630635841
-81.87875,1.598447036396862,1.287620079859718
-81.878125,1.598447036396857,1.287620079859718
-81.8775,1.597779098840799,1.287620079859718
-81.876875,1.597779098840801,1.287620079859718
-81.87625,1.598113067618831,1.287620079859718
-81.875625,1.598113067618831,1.287620079859716
-81.875,1.598113067618831,1.286945181411958
-81.874375,1.598113067618832,1.286945181411958
-81.87375,1.598781005174894,1.286945181411958
-81.873125,1.598781005174894,1.287282630635838
-81.8725,1.598781005174894,1.287282630635838
-81.871875,1.598447036396863,1.287282630635838
-81.87125,1.598447036396862,1.286945181411959
-81.870625,1.598781005174893,1.286945181411958
-81.87,1.598781005174894,1.286945181411958
-81.86937500000001,1.599114973952923,1.287282630635836
-81.86875000000001,1.599114973952925,1.287620079859716
-81.86812500000001,1.599448942730954,1.287282630635841
-81.86750000000001,1.598781005174899,1.287620079859715
-81.86687500000001,1.598447036396865,1.287957529083595
-81.86625000000001,1.598447036396862,1.287957529083598
-81.86562500000001,1.598447036396862,1.287957529083598
-81.86499999999999,1.598781005174897,1.287957529083594
-81.864375,1.599114973952925,1.287620079859718
-81.86375,1.599114973952922,1.287620079859718
-81.863125,1.598781005174894,1.287620079859715
-81.8625,1.598781005174894,1.287282630635838
-81.861875,1.598781005174894,1.287282630635838
-81.86125,1.598781005174894,1.287282630635838
-81.860625,1.598781005174894,1.287282630635838
-81.86,1.598781005174893,1.287282630635838
-81.859375,1.598447036396863,1.28728263063584
-81.85875,1.598781005174894,1.287957529083598
-81.858125,1.598781005174894,1.287957529083598
-81.8575,1.599114973952925,1.287620079859718
-81.856875,1.598781005174894,1.287957529083598
-81.85625,1.598781005174894,1.287957529083598
-81.855625,1.598447036396863,1.287957529083598
-81.855,1.597779098840802,1.288294978307477
-81.854375,1.597779098840799,1.288294978307478
-81.85375000000001,1.597779098840799,1.2879575290836
-81.85312500000001,1.598113067618828,1.287957529083598
-81.85250000000001,1.598113067618831,1.287957529083598
-81.85187500000001,1.597779098840802,1.287620079859721
-81.85125000000001,1.597779098840799,1.287620079859718
-81.85062500000001,1.597779098840799,1.287957529083595
-81.85000000000001,1.598113067618827,1.288294978307474
-81.84937499999999,1.598113067618827,1.287957529083598
-81.84875,1.597779098840799,1.287957529083598
-81.848125,1.597779098840796,1.287957529083598
-81.8475,1.59744513006277,1.287957529083598
-81.846875,1.597779098840799,1.287957529083596
-81.84625,1.597779098840801,1.287620079859716
-81.845625,1.598113067618831,1.28728263063584
-81.845,1.598113067618831,1.287620079859718
-81.844375,1.59811306761883,1.287620079859718
-81.84375,1.5977790988408,1.287620079859718
-81.843125,1.598113067618831,1.287620079859717
-81.8425,1.598113067618831,1.287282630635838
-81.841875,1.598113067618831,1.287282630635838
-81.84125,1.597779098840799,1.287282630635838
-81.840625,1.597779098840799,1.287620079859717
-81.84,1.597779098840799,1.287620079859718
-81.839375,1.597779098840799,1.287620079859718
-81.83875,1.597779098840799,1.287620079859718
-81.83812500000001,1.597779098840799,1.28728263063584
-81.83750000000001,1.59744513006277,1.28694518141196
-81.83687500000001,1.597445130062768,1.287620079859713
-81.83625000000001,1.597445130062768,1.287620079859718
-81.83562500000001,1.597111161284739,1.287957529083595
-81.83500000000001,1.597445130062764,1.287620079859721
-81.83437500000001,1.597445130062768,1.287620079859718
-81.83374999999999,1.596777192506708,1.288294978307474
-81.833125,1.597111161284733,1.287957529083598
-81.8325,1.596777192506702,1.287957529083598
-81.831875,1.596443223728671,1.287957529083601
-81.83125,1.596109254950642,1.288294978307476
-81.830625,1.596109254950642,1.2879575290836
-81.83,1.596109254950642,1.288294978307476
-81.829375,1.596109254950643,1.287957529083598
-81.82875,1.596443223728673,1.287957529083598
-81.828125,1.596443223728673,1.287957529083599
-81.8275,1.596443223728674,1.288294978307477
-81.826875,1.597111161284736,1.287957529083598
-81.82625,1.597111161284736,1.287957529083598
-81.825625,1.597111161284736,1.287957529083598
-81.825,1.597111161284736,1.287957529083598
-81.824375,1.596777192506706,1.287957529083598
-81.82375,1.597111161284735,1.287957529083598
-81.823125,1.597111161284736,1.287957529083598
-81.82250000000001,1.597445130062766,1.287957529083598
-81.82187500000001,1.597445130062768,1.287957529083598
-81.82125000000001,1.597111161284739,1.287620079859721
-81.82062500000001,1.597111161284736,1.287620079859718
-81.82000000000001,1.597111161284736,1.287620079859718
-81.81937500000001,1.597111161284736,1.287957529083595
-81.81875000000001,1.597111161284736,1.287957529083598
-81.81812499999999,1.597779098840799,1.287620079859718
-81.8175,1.597779098840796,1.287620079859715
-81.816875,1.597445130062768,1.287282630635838
-81.81625,1.597445130062768,1.287282630635836
-81.815625,1.597445130062768,1.286945181411958
-81.815,1.59744513006277,1.28694518141196
-81.814375,1.597779098840799,1.287282630635838
-81.81375,1.597779098840799,1.287282630635838
-81.813125,1.597779098840798,1.287282630635841
-81.8125,1.597445130062768,1.287957529083598
-81.811875,1.597445130062768,1.287957529083598
-81.81125,1.597445130062768,1.287957529083598
-81.810625,1.597445130062768,1.288294978307478
-81.81,1.597445130062768,1.288294978307478
-81.809375,1.597445130062768,1.287957529083599
-81.80875,1.597445130062768,1.287957529083598
-81.808125,1.597779098840798,1.287957529083598
-81.8075,1.597779098840799,1.28762007985972
-81.80687500000001,1.598113067618829,1.287957529083596
-81.80625000000001,1.598113067618831,1.28762007985972
-81.80562500000001,1.598113067618831,1.287957529083596
-81.80500000000001,1.598113067618831,1.287957529083598
-81.80437500000001,1.598447036396859,1.287620079859721
-81.80375000000001,1.598113067618834,1.287620079859718
-81.80312500000001,1.598113067618831,1.287282630635842
-81.80249999999999,1.597779098840792,1.287282630635842
-81.801875,1.597111161284736,1.287620079859721
-81.80125,1.597111161284739,1.287957529083598
-81.800625,1.597445130062773,1.287957529083598
-81.8,1.598113067618831,1.287957529083598
-81.799375,1.598113067618831,1.287957529083596
-81.79875,1.598113067618831,1.287620079859718
-81.798125,1.598113067618832,1.287620079859718
-81.7975,1.598447036396861,1.287620079859717
-81.796875,1.598113067618832,1.287282630635839
-81.79625,1.598447036396861,1.287620079859719
-81.795625,1.59811306761883,1.287957529083598
-81.795,1.597779098840799,1.288294978307478
-81.794375,1.59811306761883,1.287957529083598
-81.79375,1.598113067618831,1.287957529083598
-81.793125,1.598447036396861,1.287957529083598
-81.7925,1.598447036396862,1.287957529083598
-81.791875,1.598113067618832,1.28762007985972
-81.79125000000001,1.598113067618831,1.287620079859718
-81.79062500000001,1.598113067618831,1.287620079859718
-81.79000000000001,1.598113067618831,1.287620079859718
-81.78937500000001,1.598447036396859,1.287282630635841
-81.78875000000001,1.598781005174891,1.287282630635838
-81.78812500000001,1.598781005174894,1.287620079859715
-81.78750000000001,1.598781005174894,1.287282630635842
-81.78687499999999,1.598447036396859,1.287282630635838
-81.78625,1.598113067618831,1.287282630635835
-81.785625,1.598113067618828,1.286945181411958
-81.785,1.597779098840802,1.286945181411961
-81.784375,1.598113067618831,1.287282630635838
-81.78375,1.598113067618831,1.28728263063584
-81.783125,1.598113067618829,1.28762007985972
-81.7825,1.597779098840799,1.287957529083598
-81.781875,1.597779098840799,1.287957529083597
-81.78125,1.597779098840799,1.287620079859718
-81.780625,1.597779098840799,1.287620079859719
-81.78,1.597779098840799,1.287957529083598
-81.779375,1.597779098840799,1.287957529083598
-81.77875,1.597779098840799,1.287957529083598
-81.778125,1.59811306761883,1.287620079859719
-81.7775,1.597111161284739,1.287957529083597
-81.776875,1.597111161284736,1.287620079859719
-81.77625,1.597445130062766,1.287620079859718
-81.77562500000001,1.597445130062768,1.287620079859718
-81.77500000000001,1.597779098840797,1.287957529083596
-81.77437500000001,1.597779098840799,1.287620079859721
-81.77375000000001,1.597779098840799,1.287620079859718
-81.77312500000001,1.598113067618828,1.287620079859718
-81.77250000000001,1.598113067618831,1.287620079859718
-81.77187500000001,1.597779098840803,1.287620079859718
-81.77124999999999,1.597779098840799,1.287620079859718
-81.770625,1.597779098840802,1.287620079859715
-81.77,1.598113067618837,1.287282630635838
-81.769375,1.598781005174894,1.287282630635838
-81.76875,1.598781005174891,1.287282630635838
-81.768125,1.59844703639686,1.28728263063584
-81.7675,1.598113067618831,1.287620079859718
-81.766875,1.598113067618831,1.287620079859718
-81.76625,1.598113067618831,1.287620079859719
-81.765625,1.598113067618832,1.287957529083598
-81.765,1.598447036396863,1.287957529083597
-81.764375,1.598781005174894,1.287282630635838
-81.76375,1.598781005174894,1.287620079859718
-81.763125,1.598781005174894,1.287282630635838
-81.7625,1.598447036396863,1.287620079859717
-81.761875,1.598447036396862,1.287620079859718
-81.76125,1.598447036396862,1.287620079859718
-81.760625,1.598781005174892,1.287620079859718
-81.76000000000001,1.598781005174894,1.287620079859718
-81.75937500000001,1.599114973952923,1.28728263063584
-81.75875000000001,1.599114973952925,1.287282630635838
-81.75812500000001,1.599114973952925,1.287620079859715
-81.75750000000001,1.598781005174897,1.287620079859718
-81.75687500000001,1.598447036396865,1.287620079859718
-81.75625000000001,1.598113067618834,1.287620079859718
-81.75562499999999,1.598113067618834,1.287957529083598
-81.755,1.598447036396862,1.287957529083595
-81.754375,1.598447036396862,1.287620079859721
-81.75375,1.598447036396865,1.287957529083598
-81.753125,1.598781005174896,1.287957529083598
-81.7525,1.599114973952925,1.287957529083596
-81.751875,1.599114973952925,1.287620079859718
-81.75125,1.599114973952924,1.287620079859718
-81.750625,1.598781005174894,1.287620079859718
-81.75,1.598781005174895,1.287620079859717
-81.749375,1.599114973952924,1.287282630635839
-81.74875,1.598781005174893,1.287620079859718
-81.748125,1.598447036396862,1.287620079859718
-81.7475,1.598781005174893,1.287282630635838
-81.746875,1.598781005174894,1.287282630635838
-81.74625,1.598781005174894,1.287282630635838
-81.745625,1.598447036396863,1.287282630635838
-81.745,1.598447036396862,1.287620079859717
-81.74437500000001,1.598447036396862,1.287957529083596
-81.74375000000001,1.598447036396862,1.287957529083598
-81.74312500000001,1.598113067618833,1.288294978307476
-81.74250000000001,1.597779098840802,1.288632427531355
-81.74187500000001,1.598113067618828,1.288294978307481
-81.74125000000001,1.597445130062774,1.288294978307478
-81.74062500000001,1.597445130062768,1.288294978307478
-81.73999999999999,1.597111161284736,1.288294978307482
-81.739375,1.59711116128474,1.288632427531351
-81.73875,1.597445130062771,1.287957529083595
-81.738125,1.597779098840802,1.287620079859721
-81.7375,1.598113067618831,1.287957529083596
-81.736875,1.598113067618831,1.287620079859718
-81.73625,1.598113067618829,1.28762007985972
-81.735625,1.597779098840801,1.2879575290836
-81.735,1.598113067618832,1.288294978307476
-81.734375,1.598447036396862,1.287620079859719
-81.73375,1.598447036396862,1.287957529083598
-81.733125,1.598447036396862,1.287957529083598
-81.7325,1.598447036396862,1.287957529083598
-81.731875,1.598781005174893,1.287957529083598
-81.73125,1.598781005174894,1.287957529083598
-81.730625,1.598781005174894,1.287957529083598
-81.73,1.598781005174894,1.287620079859719
-81.729375,1.598781005174894,1.287620079859718
-81.72875000000001,1.598447036396864,1.287620079859718
-81.72812500000001,1.598113067618833,1.28728263063584
-81.72750000000001,1.598113067618831,1.287282630635838
-81.72687500000001,1.597779098840802,1.287620079859715
-81.72625000000001,1.597779098840799,1.287620079859718
-81.72562500000001,1.597779098840799,1.287620079859718
-81.72500000000001,1.597445130062771,1.287957529083594
-81.72437499999999,1.597445130062771,1.288294978307474
-81.72375,1.597779098840799,1.287957529083598
-81.723125,1.597779098840799,1.287957529083598
-81.7225,1.597779098840805,1.287957529083593
-81.721875,1.598447036396862,1.287282630635836
-81.72125,1.598447036396862,1.286945181411958
-81.720625,1.598447036396862,1.286945181411958
-81.72,1.598447036396861,1.286945181411958
-81.719375,1.598113067618832,1.286945181411959
-81.71875,1.598447036396862,1.287282630635837
-81.718125,1.598447036396861,1.286945181411959
-81.7175,1.598113067618831,1.287282630635839
-81.716875,1.598113067618831,1.287957529083598
-81.71625,1.598113067618831,1.287620079859718
-81.715625,1.598113067618831,1.287620079859718
-81.715,1.598447036396861,1.287620079859718
-81.714375,1.597779098840802,1.287620079859718
-81.71375,1.597779098840799,1.28728263063584
-81.71312500000001,1.597445130062769,1.287620079859716
-81.71250000000001,1.597445130062768,1.287957529083596
-81.71187500000001,1.597445130062768,1.288294978307476
-81.71125000000001,1.597111161284739,1.288294978307478
-81.71062500000001,1.597111161284736,1.287957529083601
-81.71000000000001,1.597111161284736,1.287957529083598
-81.70937500000001,1.597111161284736,1.287620079859722
-81.70874999999999,1.597779098840799,1.287957529083594
-81.708125,1.597779098840796,1.287620079859721
-81.7075,1.597445130062771,1.287957529083595
-81.706875,1.597779098840799,1.287620079859715
-81.70625,1.597779098840797,1.287282630635841
-81.705625,1.597445130062768,1.287620079859718
-81.705,1.597445130062768,1.287620079859718
-81.704375,1.597445130062768,1.287620079859717
-81.70375,1.597445130062768,1.28728263063584
-81.703125,1.597445130062769,1.287620079859718
-81.7025,1.597779098840799,1.287620079859718
-81.701875,1.597779098840799,1.287620079859718
-81.70125,1.597779098840799,1.287620079859718
-81.700625,1.597779098840799,1.287957529083598
-81.7,1.597779098840799,1.287957529083598
-81.699375,1.597445130062769,1.288294978307477
-81.69875,1.597445130062768,1.288294978307478
-81.698125,1.597779098840798,1.2879575290836
-81.69750000000001,1.598113067618829,1.287957529083598
-81.69687500000001,1.597779098840801,1.28762007985972
-81.69625000000001,1.598113067618828,1.287282630635841
-81.69562500000001,1.597779098840802,1.287282630635838
-81.69500000000001,1.598113067618828,1.287282630635838
-81.69437500000001,1.598447036396859,1.287620079859715
-81.69375000000001,1.598113067618834,1.288294978307471
-81.69312499999999,1.598113067618831,1.288294978307482
-81.6925,1.598113067618827,1.288632427531355
-81.691875,1.597779098840799,1.288294978307478
-81.69125,1.597779098840805,1.288294978307478
-81.690625,1.598447036396862,1.288294978307478
-81.69,1.598447036396862,1.288294978307476
-81.689375,1.59844703639686,1.287957529083598
-81.68875,1.598113067618831,1.287957529083598
-81.688125,1.598113067618831,1.287957529083598
-81.6875,1.598113067618831,1.287957529083597
-81.686875,1.598113067618831,1.287620079859718
-81.68625,1.598113067618831,1.287620079859718
-81.685625,1.598113067618831,1.287620079859718
-81.685,1.598113067618831,1.287957529083598
-81.684375,1.598113067618831,1.287957529083598
-81.68375,1.598781005174892,1.28728263063584
-81.683125,1.598781005174894,1.286945181411959
-81.6825,1.598781005174894,1.286945181411958
-81.68187500000001,1.598447036396864,1.286945181411958
-81.68125000000001,1.598447036396862,1.287282630635836
-81.68062500000001,1.597779098840804,1.287282630635838
-81.68000000000001,1.597779098840799,1.287620079859715
-81.67937500000001,1.597779098840799,1.287957529083595
-81.67875000000001,1.598113067618827,1.287282630635845
-81.67812500000001,1.598113067618831,1.287620079859714
-81.67749999999999,1.598447036396859,1.287620079859722
-81.676875,1.598113067618827,1.287957529083595
-81.67625,1.597779098840799,1.287620079859715
-81.675625,1.597779098840805,1.287282630635838
-81.675,1.598447036396862,1.287282630635836
-81.674375,1.598447036396862,1.286945181411958
-81.67375,1.598447036396862,1.286945181411958
-81.673125,1.598447036396862,1.286945181411957
-81.6725,1.598447036396862,1.28660773218808
-81.671875,1.598447036396863,1.286945181411958
-81.67125,1.598781005174893,1.286945181411958
-81.670625,1.598447036396862,1.286945181411959
