BitnerPumpTests/BitnerPumpTest_2_Scope.csv

#Digilent WaveForms Oscilloscope Acquisition
#Device Name: Discovery2
#Serial Number: SN:210321A29E56
#Date Time: 2023-12-04 14:55:42.881
#Sample rate: 1600Hz
#Samples: 51268
#Trigger: Source: Channel 1 Type: Edge Condition: Rising Level: 0 V Hyst.: Auto HoldOff: 0 s
#Channel 1: Range: 500 mV/div Offset: 0 V Attenuation: 1 X Sample Mode: Average
#Channel 2: Range: 500 mV/div Offset: 0 V Attenuation: 1 X Sample Mode: Average

Time (s),Channel 1 (V),Channel 2 (V)
-81.92,1.355985703545995,1.706394566694746
-81.919375,1.531653280790403,1.927761257559796
-81.91875,1.531653280790563,1.928098706783877
-81.918125,1.531987249568593,1.927761257559998
-81.9175,1.531987249568594,1.927423808336119
-81.916875,1.531653280790564,1.927423808336118
-81.91625000000001,1.531319312012533,1.92708635911224
-81.91562500000001,1.531653280790561,1.927086359112238
-81.91500000000001,1.531987249568592,1.927086359112238
-81.91437500000001,1.531987249568594,1.927086359112238
-81.91375000000001,1.531987249568594,1.927086359112238
-81.91312500000001,1.532321218346622,1.927086359112238
-81.91250000000001,1.531987249568598,1.927086359112238
-81.91187499999999,1.531653280790563,1.927423808336118
-81.91125,1.531653280790556,1.927423808336114
-81.910625,1.530985343234494,1.927086359112235
-81.91,1.530317405678431,1.926748909888358
-81.909375,1.529649468122371,1.926748909888353
-81.90875,1.529315499344342,1.926074011440596
-81.908125,1.529315499344341,1.925736562216716
-81.9075,1.528981530566311,1.925399112992836
-81.906875,1.52898153056631,1.925061663768958
-81.90625,1.528647561788279,1.925061663768958
-81.905625,1.528647561788279,1.925061663768957
-81.905,1.528313593010248,1.924724214545077
-81.904375,1.527979624232216,1.924049316097318
-81.90375,1.527979624232216,1.923711866873438
-81.903125,1.527979624232216,1.924049316097317
-81.9025,1.528313593010247,1.924049316097318
-81.901875,1.528647561788278,1.924049316097318
-81.90125,1.528647561788279,1.924049316097318
-81.90062500000001,1.52831359301025,1.924386765321196
-81.90000000000001,1.528647561788277,1.924386765321198
-81.89937500000001,1.529315499344337,1.924386765321198
-81.89875000000001,1.528981530566313,1.924724214545075
-81.89812500000001,1.528981530566311,1.925061663768955
-81.89750000000001,1.528981530566311,1.924724214545081
-81.89687500000001,1.529649468122366,1.925399112992831
-81.89624999999999,1.530651374456472,1.925736562216725
-81.895625,1.5309853432345,1.926411460664478
-81.895,1.530985343234503,1.926411460664478
-81.894375,1.531319312012531,1.926411460664478
-81.89375,1.531319312012531,1.92641146066448
-81.893125,1.531319312012529,1.92674890988836
-81.8925,1.5309853432345,1.92708635911224
-81.891875,1.530985343234498,1.927423808336118
-81.89125,1.530651374456468,1.927423808336118
-81.890625,1.530651374456468,1.927423808336118
-81.89,1.530651374456468,1.927423808336118
-81.889375,1.530651374456468,1.927423808336117
-81.88875,1.530651374456468,1.927086359112238
-81.888125,1.530651374456468,1.927086359112238
-81.8875,1.530651374456468,1.926748909888358
-81.886875,1.530985343234499,1.926411460664479
-81.88625,1.5309853432345,1.926748909888356
-81.885625,1.53131931201253,1.926411460664479
-81.88500000000001,1.531319312012531,1.926411460664478
-81.88437500000001,1.531319312012531,1.926748909888355
-81.88375000000001,1.531319312012531,1.927086359112235
-81.88312500000001,1.53165328079056,1.927086359112238
-81.88250000000001,1.531987249568591,1.927086359112238
-81.88187500000001,1.531653280790566,1.927086359112238
-81.88125000000001,1.531987249568591,1.927423808336114
-81.88062499999999,1.531987249568594,1.927761257559998
-81.88,1.531987249568594,1.927761257559998
-81.879375,1.531987249568597,1.927761257559995
-81.87875,1.532321218346628,1.927423808336118
-81.878125,1.532655187124657,1.927423808336118
-81.8775,1.532655187124657,1.92742380833612
-81.876875,1.532655187124657,1.927761257559996
-81.87625,1.532655187124657,1.927423808336119
-81.875625,1.532655187124657,1.927761257559999
-81.875,1.532655187124655,1.928098706783878
-81.874375,1.531987249568594,1.928098706783878
-81.87375,1.531987249568594,1.928098706783878
-81.873125,1.531653280790563,1.928098706783878
-81.8725,1.531653280790563,1.928098706783878
-81.871875,1.531653280790563,1.927761257559998
-81.87125,1.531987249568593,1.928098706783877
-81.870625,1.531653280790564,1.928436156007756
-81.87,1.531653280790563,1.928436156007758
-81.86937500000001,1.531653280790563,1.928436156007758
-81.86875000000001,1.531987249568592,1.928436156007758
-81.86812500000001,1.531987249568594,1.92809870678388
-81.86750000000001,1.531653280790565,1.92776125756
-81.86687500000001,1.531319312012534,1.927761257559998
-81.86625000000001,1.531319312012531,1.927761257559998
-81.86562500000001,1.531653280790559,1.927761257559998
-81.86499999999999,1.531653280790559,1.927423808336118
-81.864375,1.531319312012535,1.927423808336118
-81.86375,1.531653280790566,1.927423808336121
-81.863125,1.531987249568597,1.927761257559998
-81.8625,1.532321218346623,1.927761257559998
-81.861875,1.531987249568594,1.92776125756
-81.86125,1.531987249568592,1.928098706783878
-81.860625,1.531653280790563,1.928098706783878
-81.86,1.531653280790563,1.928098706783876
-81.859375,1.531653280790562,1.927761257559998
-81.85875,1.531319312012531,1.927761257559998
-81.858125,1.531319312012531,1.927761257559998
-81.8575,1.5309853432345,1.927761257559998
-81.856875,1.5309853432345,1.928436156007757
-81.85625,1.5309853432345,1.928098706783878
-81.855625,1.53131931201253,1.927761257559998
-81.855,1.530985343234501,1.928098706783876
-81.854375,1.53131931201253,1.927761257559999
-81.85375000000001,1.531319312012531,1.927423808336119
-81.85312500000001,1.531319312012531,1.92708635911224
-81.85250000000001,1.530985343234502,1.927761257559993
-81.85187500000001,1.5309853432345,1.928098706783875
-81.85125000000001,1.531319312012528,1.928098706783878
-81.85062500000001,1.531319312012531,1.928436156007754
-81.85000000000001,1.531319312012531,1.928436156007758
-81.84937499999999,1.5309853432345,1.928436156007758
-81.84875,1.5309853432345,1.928436156007758
-81.848125,1.530985343234497,1.928436156007758
-81.8475,1.530651374456468,1.928436156007758
-81.846875,1.530651374456471,1.928436156007755
-81.84625,1.530985343234498,1.928098706783878
-81.845625,1.530651374456472,1.928098706783878
-81.845,1.531319312012533,1.928098706783874
-81.844375,1.531653280790563,1.927423808336118
-81.84375,1.531653280790564,1.927423808336119
-81.843125,1.531987249568594,1.927761257559998
-81.8425,1.531653280790563,1.927761257559997
-81.841875,1.531653280790563,1.927423808336118
-81.84125,1.531987249568594,1.927086359112238
-81.840625,1.531653280790563,1.927423808336117
-81.84,1.531653280790563,1.928098706783876
-81.839375,1.531653280790563,1.928098706783878
-81.83875,1.531653280790563,1.927761257559999
-81.83812500000001,1.531653280790563,1.927761257559998
-81.83750000000001,1.531653280790563,1.927761257559998
-81.83687500000001,1.531653280790563,1.928098706783875
-81.83625000000001,1.531653280790563,1.928436156007755
-81.83562500000001,1.531987249568591,1.928436156007758
-81.83500000000001,1.531653280790566,1.928098706783881
-81.83437500000001,1.531987249568591,1.928098706783878
-81.83374999999999,1.531987249568594,1.928098706783878
-81.833125,1.531987249568591,1.928098706783878
-81.8325,1.531653280790563,1.928098706783874
-81.831875,1.531653280790563,1.92776125756
-81.83125,1.531653280790563,1.92809870678388
-81.830625,1.531653280790563,1.928436156007755
-81.83,1.531653280790563,1.928098706783876
-81.829375,1.531653280790563,1.927761257559996
-81.82875,1.531653280790564,1.927423808336118
-81.828125,1.531987249568594,1.927423808336118
-81.8275,1.531987249568595,1.927423808336118
-81.826875,1.532321218346626,1.927423808336118
-81.82625,1.532321218346626,1.927423808336118
-81.825625,1.531987249568594,1.927423808336118
-81.825,1.532321218346625,1.927423808336118
-81.824375,1.531987249568595,1.927761257559997
-81.82375,1.532321218346625,1.927761257559998
-81.823125,1.532321218346626,1.927761257559998
-81.82250000000001,1.531987249568596,1.927761257559998
-81.82187500000001,1.531653280790565,1.927761257559998
-81.82125000000001,1.531653280790563,1.927761257559998
-81.82062500000001,1.531653280790563,1.927761257559998
-81.82000000000001,1.531653280790563,1.927761257559998
-81.81937500000001,1.531653280790563,1.928098706783874
-81.81875000000001,1.531653280790563,1.927761257560001
-81.81812499999999,1.531653280790555,1.926748909888354
-81.8175,1.530985343234493,1.926411460664468
-81.816875,1.530317405678434,1.925399112992838
-81.81625,1.529983436900403,1.925399112992832
-81.815625,1.529649468122374,1.924724214545076
-81.815,1.529649468122372,1.924386765321194
-81.814375,1.529315499344341,1.923711866873436
-81.81375,1.528981530566311,1.923374417649561
-81.813125,1.528981530566311,1.924049316097318
-81.8125,1.528981530566311,1.924049316097319
-81.811875,1.528981530566311,1.924386765321197
-81.81125,1.528981530566311,1.924049316097318
-81.810625,1.528981530566311,1.924049316097318
-81.81,1.52864756178828,1.923711866873438
-81.809375,1.528313593010248,1.924049316097317
-81.80875,1.528647561788278,1.924049316097318
-81.808125,1.528647561788279,1.924049316097318
-81.8075,1.528647561788279,1.924386765321197
-81.80687500000001,1.528647561788279,1.924386765321198
-81.80625000000001,1.529315499344338,1.924386765321198
-81.80562500000001,1.529315499344342,1.924386765321198
-81.80500000000001,1.528981530566313,1.925061663768952
-81.80437500000001,1.529649468122368,1.925399112992835
-81.80375000000001,1.53031740567843,1.925399112992838
-81.80312500000001,1.530651374456465,1.926074011440591
-81.80249999999999,1.5309853432345,1.926411460664482
-81.801875,1.5309853432345,1.926748909888361
-81.80125,1.530985343234503,1.927086359112238
-81.800625,1.531319312012534,1.927086359112238
-81.8,1.531653280790563,1.927086359112233
-81.799375,1.531653280790561,1.926411460664478
-81.79875,1.531319312012529,1.92641146066448
-81.798125,1.5309853432345,1.926748909888359
-81.7975,1.530985343234502,1.927086359112238
-81.796875,1.531653280790563,1.927086359112238
-81.79625,1.531653280790563,1.927086359112238
-81.795625,1.531653280790563,1.927423808336117
-81.795,1.531987249568594,1.927086359112238
-81.794375,1.531987249568594,1.927086359112238
-81.79375,1.531987249568594,1.927423808336117
-81.793125,1.531653280790564,1.927423808336118
-81.7925,1.531653280790563,1.927423808336118
-81.791875,1.531319312012533,1.927423808336118
-81.79125000000001,1.531319312012531,1.927761257559996
-81.79062500000001,1.530985343234502,1.928098706783875
-81.79000000000001,1.531319312012529,1.928098706783878
-81.78937500000001,1.530985343234502,1.92776125756
-81.78875000000001,1.531319312012528,1.927761257559998
-81.78812500000001,1.531319312012531,1.927423808336121
-81.78750000000001,1.531653280790559,1.927761257559994
-81.78687499999999,1.531653280790566,1.927423808336118
-81.78625,1.531987249568594,1.927423808336118
-81.785625,1.531987249568591,1.927423808336118
-81.785,1.53165328079056,1.927423808336118
-81.784375,1.531319312012529,1.927423808336118
-81.78375,1.5309853432345,1.927423808336118
-81.783125,1.530985343234502,1.927423808336119
-81.7825,1.531319312012533,1.927761257559998
-81.781875,1.531653280790563,1.927761257559996
-81.78125,1.531653280790563,1.927423808336118
-81.780625,1.531653280790563,1.927423808336118
-81.78,1.531653280790563,1.927423808336118
-81.779375,1.531319312012531,1.927761257559998
-81.77875,1.531653280790563,1.928098706783877
-81.778125,1.531987249568594,1.928098706783878
-81.7775,1.532321218346625,1.928098706783878
-81.776875,1.532321218346626,1.928098706783878
-81.77625,1.532321218346626,1.928098706783878
-81.77562500000001,1.531987249568596,1.928098706783878
-81.77500000000001,1.531653280790565,1.928098706783878
-81.77437500000001,1.531653280790563,1.928098706783878
-81.77375000000001,1.531319312012534,1.928436156007755
-81.77312500000001,1.531987249568588,1.928436156007758
-81.77250000000001,1.531653280790566,1.928436156007758
-81.77187500000001,1.531987249568591,1.928436156007758
-81.77124999999999,1.532321218346626,1.928436156007754
-81.770625,1.532321218346626,1.928098706783878
-81.77,1.532321218346626,1.928098706783874
-81.769375,1.532321218346626,1.927761257559998
-81.76875,1.532321218346626,1.92776125756
-81.768125,1.532321218346626,1.928098706783875
-81.7675,1.532321218346624,1.927761257559998
-81.766875,1.531987249568594,1.927761257559998
-81.76625,1.531987249568593,1.927761257559998
-81.765625,1.531653280790563,1.927761257559998
-81.765,1.531653280790563,1.928098706783878
-81.764375,1.531653280790563,1.928098706783878
-81.76375,1.531653280790563,1.928098706783878
-81.763125,1.531987249568594,1.927423808336118
-81.7625,1.531987249568594,1.927423808336118
-81.761875,1.531987249568594,1.927423808336118
-81.76125,1.531653280790564,1.927761257559996
-81.760625,1.531987249568593,1.927423808336119
-81.76000000000001,1.532321218346624,1.92708635911224
-81.75937500000001,1.532321218346626,1.927423808336115
-81.75875000000001,1.532321218346626,1.927423808336118
-81.75812500000001,1.532321218346626,1.927423808336118
-81.75750000000001,1.531653280790569,1.927423808336118
-81.75687500000001,1.531987249568591,1.927423808336118
-81.75625000000001,1.531653280790566,1.927423808336118
-81.75562499999999,1.531987249568594,1.927761257559998
-81.755,1.531987249568591,1.927761257559998
-81.754375,1.53165328079056,1.927761257559998
-81.75375,1.531319312012529,1.92776125756
-81.753125,1.5309853432345,1.928098706783875
-81.7525,1.530985343234502,1.927761257559995
-81.751875,1.531319312012529,1.927423808336116
-81.75125,1.5309853432345,1.927086359112238
-81.750625,1.5309853432345,1.927086359112239
-81.75,1.5309853432345,1.927423808336119
-81.749375,1.5309853432345,1.927761257559998
-81.74875,1.531319312012531,1.927761257559998
-81.748125,1.5309853432345,1.928436156007758
-81.7475,1.5309853432345,1.928773605231637
-81.746875,1.5309853432345,1.928436156007758
-81.74625,1.531653280790561,1.928436156007758
-81.745625,1.531987249568593,1.928098706783879
-81.745,1.531987249568594,1.928436156007756
-81.74437500000001,1.531653280790565,1.928436156007758
-81.74375000000001,1.531653280790563,1.928436156007758
-81.74312500000001,1.531319312012534,1.928436156007758
-81.74250000000001,1.53165328079056,1.928436156007758
-81.74187500000001,1.531653280790563,1.928098706783881
-81.74125000000001,1.531653280790563,1.927761257560001
-81.74062500000001,1.531653280790563,1.928098706783874
-81.73999999999999,1.531653280790563,1.928098706783874
-81.739375,1.531653280790559,1.927761257559994
-81.73875,1.531319312012534,1.927423808336118
-81.738125,1.531653280790563,1.92742380833612
-81.7375,1.531653280790563,1.927761257559998
-81.736875,1.531653280790563,1.927761257559995
-81.73625,1.531653280790565,1.927423808336118
-81.735625,1.531987249568594,1.927423808336118
-81.735,1.531987249568595,1.927423808336118
-81.734375,1.532321218346625,1.927423808336119
-81.73375,1.531987249568594,1.927761257559998
-81.733125,1.531653280790563,1.927761257559998
-81.7325,1.531653280790563,1.927761257559998
-81.731875,1.531987249568594,1.927423808336118
-81.73125,1.531987249568594,1.927423808336118
-81.730625,1.531987249568594,1.927423808336118
-81.73,1.531987249568594,1.927423808336118
-81.729375,1.531987249568594,1.927423808336118
-81.72875000000001,1.531653280790565,1.927761257559996
-81.72812500000001,1.531653280790563,1.927761257559998
-81.72750000000001,1.531987249568592,1.927761257559998
-81.72687500000001,1.531987249568594,1.927761257559998
-81.72625000000001,1.531319312012537,1.927423808336121
-81.72562500000001,1.530985343234503,1.927086359112241
-81.72500000000001,1.530317405678444,1.926411460664485
-81.72437499999999,1.529983436900398,1.925736562216711
-81.72375,1.529315499344339,1.925061663768958
-81.723125,1.528981530566311,1.925061663768958
-81.7225,1.528981530566308,1.925061663768955
-81.721875,1.528647561788277,1.924724214545078
-81.72125,1.528313593010248,1.924724214545076
-81.720625,1.52831359301025,1.924386765321198
-81.72,1.528647561788281,1.924386765321198
-81.719375,1.528981530566311,1.924386765321198
-81.71875,1.52898153056631,1.924386765321197
-81.718125,1.528647561788279,1.924049316097318
-81.7175,1.528313593010248,1.924049316097318
-81.716875,1.528981530566311,1.923711866873438
-81.71625,1.529315499344342,1.923711866873438
-81.715625,1.528981530566311,1.923711866873438
-81.715,1.528981530566311,1.923711866873438
-81.714375,1.529315499344341,1.924049316097317
-81.71375,1.528981530566312,1.924049316097318
-81.71312500000001,1.528981530566311,1.924049316097318
-81.71250000000001,1.52931549934434,1.924386765321196
-81.71187500000001,1.529649468122371,1.925061663768953
-81.71125000000001,1.529983436900403,1.925399112992835
-81.71062500000001,1.530651374456462,1.925736562216715
-81.71000000000001,1.530985343234496,1.926411460664471
-81.70937500000001,1.531319312012528,1.926411460664478
-81.70874999999999,1.531319312012535,1.926074011440602
-81.708125,1.531653280790563,1.926411460664481
-81.7075,1.531653280790563,1.926748909888361
-81.706875,1.531653280790563,1.92708635911224
-81.70625,1.531653280790563,1.927423808336118
-81.705625,1.531653280790563,1.92742380833612
-81.705,1.531653280790561,1.927761257559998
-81.704375,1.531319312012533,1.927761257559998
-81.70375,1.531653280790564,1.927761257559998
-81.703125,1.531987249568595,1.927761257559998
-81.7025,1.532321218346626,1.927761257559998
-81.701875,1.532321218346626,1.927761257559998
-81.70125,1.532321218346626,1.927761257559998
-81.700625,1.532655187124657,1.927761257559998
-81.7,1.532655187124657,1.927761257559998
-81.699375,1.532321218346627,1.928098706783877
-81.69875,1.531987249568595,1.928098706783878
-81.698125,1.531987249568594,1.928098706783878
-81.69750000000001,1.531987249568594,1.928098706783878
-81.69687500000001,1.531987249568594,1.928098706783878
-81.69625000000001,1.531987249568594,1.928098706783878
-81.69562500000001,1.531653280790565,1.928098706783878
-81.69500000000001,1.531319312012534,1.928436156007755
-81.69437500000001,1.530651374456475,1.928098706783881
-81.69375000000001,1.530651374456468,1.928098706783878
-81.69312499999999,1.530651374456472,1.928098706783881
-81.6925,1.5309853432345,1.928436156007758
-81.691875,1.530985343234503,1.928436156007761
-81.69125,1.531319312012534,1.928773605231635
-81.690625,1.531653280790563,1.928436156007758
-81.69,1.531653280790565,1.928436156007755
-81.689375,1.531987249568594,1.928098706783878
-81.68875,1.531987249568593,1.928098706783878
-81.688125,1.531653280790563,1.928098706783876
-81.6875,1.531653280790563,1.927761257559998
-81.686875,1.531653280790562,1.927761257559998
-81.68625,1.531319312012531,1.928098706783878
-81.685625,1.531319312012531,1.928098706783878
-81.685,1.531319312012531,1.928098706783878
-81.684375,1.531653280790562,1.928098706783878
-81.68375,1.531319312012532,1.928436156007757
-81.683125,1.531319312012531,1.928436156007758
-81.6825,1.531653280790561,1.928436156007758
-81.68187500000001,1.531319312012533,1.928098706783879
-81.68125000000001,1.531319312012531,1.928098706783878
-81.68062500000001,1.53165328079056,1.928436156007755
-81.68000000000001,1.531653280790563,1.92809870678388
-81.67937500000001,1.531987249568591,1.927761257560001
-81.67875000000001,1.531987249568594,1.927761257559998
-81.67812500000001,1.532321218346622,1.927423808336121
-81.67749999999999,1.532321218346626,1.927761257559994
-81.676875,1.532321218346626,1.927423808336121
-81.67625,1.532321218346626,1.927761257560001
-81.675625,1.532321218346626,1.928098706783878
-81.675,1.532321218346628,1.92809870678388
-81.674375,1.532655187124655,1.928436156007758
-81.67375,1.532321218346626,1.928436156007758
-81.673125,1.532321218346626,1.928436156007758
-81.6725,1.532321218346625,1.928436156007759
-81.671875,1.531987249568594,1.928773605231638
-81.67125,1.531987249568594,1.928773605231638
-81.670625,1.531987249568594,1.929111054455517
-81.67,1.531653280790563,1.929111054455517
