BitnerPumpTests/BitnerPumpTest_4_Scope.csv

#Digilent WaveForms Oscilloscope Acquisition
#Device Name: Discovery2
#Serial Number: SN:210321A29E56
#Date Time: 2023-12-04 15:17:30.773
#Sample rate: 1600Hz
#Samples: 55095
#Trigger: Source: Channel 1 Type: Edge Condition: Rising Level: 0 V Hyst.: Auto HoldOff: 0 s
#Channel 1: Range: 500 mV/div Offset: 0 V Attenuation: 1 X Sample Mode: Average
#Channel 2: Range: 500 mV/div Offset: 0 V Attenuation: 1 X Sample Mode: Average

Time (s),Channel 1 (V),Channel 2 (V)
-81.92,0.5287450403619778,0.5374704551745725
-81.919375,1.813856898226009,1.843061502364941
-81.91875,1.813188960671116,1.843398951590008
-81.918125,1.813522929449145,1.843736400813887
-81.9175,1.813188960671116,1.84339895159001
-81.916875,1.813188960671115,1.843398951590008
-81.91625000000001,1.813522929449144,1.84306150236613
-81.91562500000001,1.813856898227175,1.843061502366128
-81.91500000000001,1.813856898227178,1.843061502366128
-81.91437500000001,1.813522929449149,1.843061502366128
-81.91375000000001,1.813188960671118,1.843398951590005
-81.91312500000001,1.813522929449143,1.843398951590008
-81.91250000000001,1.813188960671118,1.843736400813884
-81.91187499999999,1.813188960671111,1.843061502366125
-81.91125,1.812854991893077,1.842724053142245
-81.910625,1.812187054337014,1.842386603918365
-81.91,1.811519116780952,1.84204915469448
-81.909375,1.810851179224894,1.841036807022846
-81.90875,1.810851179224892,1.840699357798971
-81.908125,1.810517210446863,1.841036807022847
-81.9075,1.810517210446861,1.840699357798967
-81.906875,1.810183241668832,1.840361908575089
-81.90625,1.810517210446861,1.84036190857509
-81.905625,1.809849272890799,1.840699357798969
-81.905,1.809515304112768,1.840699357798969
-81.904375,1.809181335334737,1.841036807022848
-81.90375,1.809181335334737,1.840699357798969
-81.903125,1.809181335334737,1.840699357798969
-81.9025,1.809181335334737,1.840699357798969
-81.901875,1.809181335334737,1.840699357798969
-81.90125,1.809181335334737,1.840699357798969
-81.90062500000001,1.809515304112766,1.84036190857509
-81.90000000000001,1.809849272890797,1.840361908575089
-81.89937500000001,1.8098492728908,1.840361908575089
-81.89875000000001,1.810183241668828,1.840361908575089
-81.89812500000001,1.810183241668831,1.840024459351212
-81.89750000000001,1.810183241668831,1.839687010127332
-81.89687500000001,1.811185148002915,1.839687010127329
-81.89624999999999,1.811853085558996,1.840361908575096
-81.895625,1.812521023115052,1.841036807022859
-81.895,1.812521023115055,1.842049154694491
-81.894375,1.812854991893086,1.842386603918368
-81.89375,1.813188960671117,1.842386603918371
-81.893125,1.81352292944915,1.842724053142248
-81.8925,1.814190867005209,1.842724053142248
-81.891875,1.814190867005212,1.842724053142247
-81.89125,1.814858804561272,1.842386603918368
-81.890625,1.814858804561271,1.842386603918368
-81.89,1.814524835783241,1.842386603918369
-81.889375,1.814524835783241,1.842724053142248
-81.88875,1.814524835783241,1.842386603918368
-81.888125,1.814190867005209,1.842049154694489
-81.8875,1.81452483578324,1.842049154694488
-81.886875,1.814858804561271,1.842049154694488
-81.88625,1.813856898227181,1.842386603918367
-81.885625,1.813856898227178,1.842386603918368
-81.88500000000001,1.813856898227178,1.842386603918368
-81.88437500000001,1.814190867005207,1.842386603918368
-81.88375000000001,1.814190867005209,1.842386603918368
-81.88312500000001,1.814190867005209,1.842386603918368
-81.88250000000001,1.813856898227181,1.842386603918368
-81.88187500000001,1.814190867005206,1.842386603918368
-81.88125000000001,1.814524835783237,1.84137425624674
-81.88062499999999,1.814858804561276,1.841036807022856
-81.88,1.815192773339307,1.841711705470608
-81.879375,1.815526742117335,1.841711705470608
-81.87875,1.815526742117332,1.841711705470608
-81.878125,1.815192773339304,1.841711705470611
-81.8775,1.815192773339304,1.842049154694488
-81.876875,1.815192773339304,1.842049154694487
-81.87625,1.815192773339302,1.841711705470608
-81.875625,1.814858804561272,1.84171170547061
-81.875,1.814858804561272,1.842049154694488
-81.874375,1.814858804561272,1.842049154694488
-81.87375,1.814858804561272,1.841711705470609
-81.873125,1.815192773339304,1.842049154694488
-81.8725,1.815192773339304,1.841711705470609
-81.871875,1.815192773339304,1.841711705470608
-81.87125,1.815192773339304,1.841711705470608
-81.870625,1.815526742117334,1.841711705470608
-81.87,1.815192773339305,1.841711705470608
-81.86937500000001,1.815526742117333,1.842386603918365
-81.86875000000001,1.816194679673394,1.842386603918368
-81.86812500000001,1.816862617229456,1.842724053142246
-81.86750000000001,1.816862617229461,1.842386603918371
-81.86687500000001,1.816194679673404,1.842386603918368
-81.86625000000001,1.816194679673398,1.842049154694492
-81.86562500000001,1.816194679673398,1.841711705470612
-81.86499999999999,1.81652864845143,1.841036807022848
-81.864375,1.816528648451436,1.841036807022852
-81.86375,1.817196586007499,1.841374256246732
-81.863125,1.817864523563556,1.841711705470603
-81.8625,1.817864523563543,1.841036807022841
-81.861875,1.816194679673392,1.840024459351196
-81.86125,1.815192773339302,1.837999764007918
-81.860625,1.814858804561275,1.835975068664648
-81.86,1.815526742117339,1.835637619440771
-81.859375,1.81652864845143,1.835975068664653
-81.85875,1.816862617229461,1.837324865560171
-81.858125,1.81686261722946,1.83867466245569
-81.8575,1.815526742117335,1.839687010127329
-81.856875,1.81419086700521,1.840361908575088
-81.85625,1.813856898227178,1.840024459351209
-81.855625,1.813522929449147,1.840024459351209
-81.855,1.813522929449146,1.840361908575087
-81.854375,1.813522929449146,1.841036807022845
-81.85375000000001,1.813522929449146,1.841711705470605
-81.85312500000001,1.813522929449146,1.841374256246731
-81.85250000000001,1.813522929449146,1.840361908575096
-81.85187500000001,1.814190867005204,1.840024459351211
-81.85125000000001,1.815526742117323,1.839349560903455
-81.85062500000001,1.816862617229448,1.838674662455696
-81.85000000000001,1.817530554785517,1.837999764007936
-81.84937499999999,1.817196586007489,1.837324865560169
-81.84875,1.816862617229464,1.837324865560172
-81.848125,1.817196586007496,1.837662314784052
-81.8475,1.817530554785524,1.837999764007932
-81.846875,1.817530554785529,1.838337213231809
-81.84625,1.818198492341591,1.838337213231805
-81.845625,1.818866429897654,1.837662314784045
-81.845,1.819534367453715,1.836987416336286
-81.844375,1.819868336231744,1.836312517888527
-81.84375,1.819868336231746,1.835637619440768
-81.843125,1.820536273787809,1.834962720993008
-81.8425,1.821538180121903,1.833950373321368
-81.841875,1.822874055234028,1.83293802564973
-81.84125,1.822874055234028,1.83260057642585
-81.840625,1.822540086455997,1.831588228754212
-81.84,1.822540086455997,1.831250779530331
-81.839375,1.823541992790088,1.830913330306451
-81.83875,1.825211836680241,1.830238431858693
-81.83812500000001,1.826881680570397,1.83023843185869
-81.83750000000001,1.828551524460553,1.83023843185869
-81.83687500000001,1.82988739957268,1.829900982634812
-81.83625000000001,1.831557243462833,1.829563533410933
-81.83562500000001,1.832559149796932,1.828551185739299
-81.83500000000001,1.832225181018913,1.82753883806766
-81.83437500000001,1.831223274684826,1.827201388843774
-81.83374999999999,1.83022136835071,1.826863939619883
-81.833125,1.829219462016616,1.826189041172124
-81.8325,1.828217555682526,1.825514142724364
-81.831875,1.827549618126461,1.824839244276608
-81.83125,1.826547711792367,1.824501795052736
-81.830625,1.825545805458272,1.825176693500497
-81.83,1.824209930346147,1.826189041172132
-81.829375,1.822874055234022,1.82652649039601
-81.82875,1.821538180121897,1.826526490396012
-81.828125,1.820202305009772,1.826863939619892
-81.8275,1.818866429897647,1.827538838067652
-81.826875,1.817196586007491,1.828551185739292
-81.82625,1.815860710895367,1.82990098263481
-81.825625,1.814524835783242,1.831250779530328
-81.825,1.81419086700521,1.832263127201968
-81.824375,1.814190867005209,1.832600576425849
-81.82375,1.813856898227179,1.833275474873607
-81.823125,1.813522929449148,1.833950373321366
-81.82250000000001,1.813188960671116,1.834287822545248
-81.82187500000001,1.813188960671115,1.834287822545249
-81.82125000000001,1.812521023115057,1.831925677978107
-81.82062500000001,1.812521023115052,1.830238431858704
-81.82000000000001,1.813188960671109,1.829563533410936
-81.81937500000001,1.813856898227171,1.82956353341093
-81.81875000000001,1.815526742117317,1.828888634963177
-81.81812499999999,1.817196586007518,1.828213736515395
-81.8175,1.81953436745374,1.8268639396199
-81.816875,1.822206117677989,1.827876287291521
-81.81625,1.824877867902236,1.826863939619901
-81.815625,1.827215649348452,1.828213736515405
-81.815,1.829219462016635,1.827538838067652
-81.814375,1.83055533712876,1.827876287291534
-81.81375,1.83189121224088,1.828551185739287
-81.813125,1.83222518101891,1.827876287291533
-81.8125,1.832225181018908,1.828551185739285
-81.811875,1.831557243462846,1.826526490396014
-81.81125,1.830889305906783,1.828551185739289
-81.810625,1.829553430794658,1.82720138884377
-81.81,1.828217555682533,1.82686393961989
-81.809375,1.826547711792378,1.825851591948252
-81.80875,1.825211836680252,1.827876287291525
-81.808125,1.823875961568127,1.828888634963166
-81.8075,1.823208024012063,1.829226084187048
-81.80687500000001,1.822206117677971,1.828888634963172
-81.80625000000001,1.820870242565847,1.829226084187048
-81.80562500000001,1.819534367453723,1.829563533410927
-81.80500000000001,1.818866429897656,1.832600576425825
-81.80437500000001,1.818198492341593,1.836649967112372
-81.80375000000001,1.817530554785531,1.836649967112409
-81.80312500000001,1.815860710895385,1.833612924097523
-81.80249999999999,1.814190867005194,1.829900982634824
-81.801875,1.812854991893077,1.831250779530384
-81.80125,1.81218705433702,1.836649967112434
-81.800625,1.812187054337023,1.839349560903418
-81.8,1.812521023115054,1.835637619440745
-81.799375,1.812854991893083,1.83226312720195
-81.79875,1.812854991893087,1.829226084187057
-81.798125,1.813522929449152,1.830575881082599
-81.7975,1.814858804561279,1.836987416336298
-81.796875,1.816862617229466,1.839349560903441
-81.79625,1.818532461119623,1.836649967112406
-81.795625,1.820870242565841,1.834962720993006
-81.795,1.822874055234028,1.83125077953033
-81.794375,1.82354199279009,1.834962720993006
-81.79375,1.823541992790091,1.840361908575079
-81.793125,1.824877867902214,1.842049154694484
-81.7925,1.826547711792369,1.840699357798973
-81.791875,1.827883586904494,1.835300170216914
-81.79125000000001,1.827215649348441,1.830913330306474
-81.79062500000001,1.824543899124203,1.834287822545228
-81.79000000000001,1.821538180121924,1.835975068664637
-81.78937500000001,1.819534367453729,1.835300170216895
-81.78875000000001,1.818198492341599,1.832600576425874
-81.78812500000001,1.816528648451446,1.824839244276688
-81.78750000000001,1.814524835783262,1.823489447381105
-81.78687499999999,1.811853085558974,1.82686393961992
-81.78625,1.810517210446839,1.82956353341094
-81.785625,1.808179429000624,1.830575881082527
-81.785,1.806175616332437,1.825851591948204
-81.784375,1.804171803664252,1.820114955142323
-81.78375,1.802501959774103,1.824501795052769
-81.783125,1.801834022218042,1.830575881082597
-81.7825,1.801500053440011,1.835637619440786
-81.781875,1.80116608466198,1.83934956090343
-81.78125,1.800832115883951,1.834287822545244
-81.780625,1.801500053440012,1.832263127201978
-81.78,1.80116608466198,1.836987416336292
-81.779375,1.800498147105918,1.840699357798969
-81.77875,1.800498147105918,1.841711705470608
-81.778125,1.801500053440011,1.838337213231815
-81.7775,1.805507678776379,1.831250779530349
-81.776875,1.807511491444572,1.830238431858694
-81.77625,1.809515304112759,1.837324865560137
-81.77562500000001,1.810183241668827,1.839349560903438
-81.77500000000001,1.811853085558978,1.840024459351205
-81.77437500000001,1.815860710895338,1.835975068664679
-81.77375000000001,1.818532461119597,1.827201388843842
-81.77312500000001,1.819534367453704,1.827538838067647
-81.77250000000001,1.820536273787797,1.831250779530293
-81.77187500000001,1.821872148899919,1.834625271769093
-81.77124999999999,1.823875961568133,1.837999764007859
-81.770625,1.824877867902217,1.831588228754136
-81.77,1.824877867902211,1.824164345828894
-81.769375,1.824209930346138,1.828888634963231
-81.76875,1.822206117677965,1.836312517888549
-81.768125,1.822206117677952,1.839012111679565
-81.7675,1.820202305009767,1.838337213231765
-81.766875,1.818532461119613,1.830238431858679
-81.76625,1.817196586007483,1.82787628729156
-81.765625,1.81452483578323,1.835975068664666
-81.765,1.810517210446859,1.84204915469449
-81.764375,1.808179429000641,1.843061502366126
-81.76375,1.806843553888516,1.840361908575089
-81.763125,1.806175616332454,1.833275474873616
-81.7625,1.805841647554422,1.835300170216885
-81.761875,1.801500053440024,1.844748748485502
-81.76125,1.798160365659709,1.847785791500437
-81.760625,1.799496240771817,1.847110893052691
-81.76000000000001,1.799830209549853,1.840024459351247
-81.75937500000001,1.801500053440002,1.835975068664675
-81.75875000000001,1.801834022218041,1.841036807022812
-81.75812500000001,1.798494334437756,1.846773443828761
-81.75750000000001,1.799496240771814,1.848123240724315
-81.75687500000001,1.801500053439992,1.843736400813932
-81.75625000000001,1.803837834886207,1.831588228754342
-81.75562499999999,1.807177522666548,1.832938025649788
-81.755,1.807177522666551,1.838337213231832
-81.754375,1.807511491444597,1.840699357798953
-81.75375,1.809515304112782,1.839012111679525
-81.753125,1.81118514800294,1.833612924097433
-81.7525,1.81318896067113,1.825851591948257
-81.751875,1.815526742117333,1.826863939619942
-81.75125,1.815192773339298,1.83631251788854
-81.750625,1.813856898227178,1.838674662455683
-81.75,1.813856898227179,1.836987416336276
-81.749375,1.814190867005209,1.832263127201957
-81.74875,1.814190867005209,1.825176693500497
-81.748125,1.814190867005209,1.83226312720197
-81.7475,1.809515304112772,1.839349560903442
-81.746875,1.807177522666552,1.840024459351207
-81.74625,1.806509585110486,1.842724053142241
-81.745625,1.805173709998364,1.830913330306493
-81.745,1.805841647554419,1.831925677978085
-81.74437500000001,1.802167990996095,1.840024459351165
-81.74375000000001,1.798160365659723,1.846098545381009
-81.74312500000001,1.798160365659697,1.84576109615717
-81.74250000000001,1.798828303215755,1.844748748485536
-81.74187500000001,1.79882830321576,1.83698741633636
-81.74125000000001,1.799162271993789,1.836312517888536
-81.74062500000001,1.796824490547597,1.845423646933189
-81.73999999999999,1.795154646657436,1.851160283739244
-81.739375,1.797158459325609,1.850822834515293
-81.73875,1.797826396881681,1.843398951589922
-81.738125,1.799496240771832,1.833950373321408
-81.7375,1.800498147105918,1.838674662455763
-81.736875,1.800498147105926,1.8487981391721
-81.73625,1.801834022218053,1.850822834515354
-81.735625,1.80350386610821,1.848460689948162
-81.735,1.805507678776401,1.838337213231783
-81.734375,1.808513397778677,1.831250779530354
-81.73375,1.809849272890798,1.840024459351225
-81.733125,1.809181335334736,1.848798139172087
-81.7325,1.808513397778674,1.848123240724328
-81.731875,1.810517210446861,1.843736400813892
-81.73125,1.812854991893079,1.834287822545267
-81.730625,1.813856898227175,1.833275474873612
-81.73,1.811519116780966,1.84103680702282
-81.729375,1.808847366556717,1.85149773296308
-81.72875000000001,1.807845460222616,1.850147936067615
-81.72812500000001,1.809849272890787,1.841711705470662
-81.72750000000001,1.811185148002916,1.834287822545303
-81.72687500000001,1.809181335334753,1.837999764007898
-81.72625000000001,1.805173709998395,1.847448342276482
-81.72562500000001,1.802167990996105,1.853859877530223
-81.72500000000001,1.802501959774103,1.852172631410905
-81.72437499999999,1.804505772442285,1.845086197709338
-81.72375,1.803503866108188,1.838674662455712
-81.723125,1.802167990996051,1.841036807022965
-81.7225,1.79949624077181,1.853859877530306
-81.721875,1.797826396881683,1.856222022097447
-81.72125,1.80016417832788,1.856222022097348
-81.720625,1.799162271993801,1.840699357798954
-81.72,1.800832115883946,1.837999764007964
-81.719375,1.800164178327877,1.845761096157211
-81.71875,1.797492428103638,1.85757181899297
-81.718125,1.798828303215761,1.858921615888467
-81.7175,1.799162271993795,1.848460689948201
-81.716875,1.802167990996075,1.841036807022848
-81.71625,1.804839741220325,1.837999764007932
-81.715625,1.801500053440018,1.844073850037757
-81.715,1.801500053440012,1.856222022097413
-81.714375,1.802167990996073,1.854872225201932
-81.71375,1.802501959774105,1.848798139172115
-81.71312500000001,1.804839741220315,1.835975068664719
-81.71250000000001,1.804839741220327,1.833950373321382
-81.71187500000001,1.804839741220327,1.847785791500347
-81.71125000000001,1.804839741220327,1.860608862007781
-81.71062500000001,1.802835928552156,1.857571818992994
-81.71000000000001,1.802835928552138,1.848460689948299
-81.70937500000001,1.80417180366425,1.835975068664786
-81.70874999999999,1.803169897330155,1.835637619440906
-81.708125,1.801834022218037,1.848123240724496
-81.7075,1.801166084661935,1.864995701918215
-81.706875,1.79615655299153,1.852847529858575
-81.70625,1.798828303215768,1.844073850037712
-81.705625,1.799830209549834,1.836312517888531
-81.705,1.796490521769529,1.836649967112497
-81.704375,1.794486709101345,1.852847529858689
-81.70375,1.793150833989226,1.861958658903385
-81.703125,1.793484802767263,1.856222022097411
-81.7025,1.795822584213477,1.843061502366116
-81.701875,1.795822584213473,1.836312517888534
-81.70125,1.791814958877099,1.841374256246729
-81.700625,1.789143208652849,1.857234369769072
-81.7,1.79047908376497,1.868370194157105
-81.699375,1.79482067787937,1.857571818992996
-81.69875,1.797826396881655,1.841374256246787
-81.698125,1.796156552991516,1.838337213231823
-81.69750000000001,1.793484802767271,1.846773443828762
-81.69687500000001,1.792148927655139,1.86330845579882
-81.69625000000001,1.793484802767247,1.866345498813823
-81.69562500000001,1.797158459325573,1.852847529858758
-81.69500000000001,1.798494334437716,1.83732486556031
-81.69437500000001,1.798494334437729,1.836649967112416
-81.69375000000001,1.796490521769561,1.844411299261564
-81.69312499999999,1.794486709101358,1.859259065112377
-81.6925,1.79515464665744,1.860271412783881
-81.691875,1.797826396881675,1.84778579150034
-81.69125,1.798828303215763,1.835975068664657
-81.690625,1.799162271993772,1.836987416336412
-81.69,1.796490521769514,1.853859877530367
-81.689375,1.792482896433167,1.866345498813818
-81.68875,1.793484802767262,1.861283760455574
-81.688125,1.794820677879387,1.845423646933254
-81.6875,1.796156552991506,1.835975068664665
-81.686875,1.795154646657406,1.841711705470641
-81.68625,1.790813052543002,1.859596514336256
-81.685625,1.787807333540721,1.870394889500405
-81.685,1.790145114986939,1.861283760455654
-81.684375,1.792148927655127,1.8440738500378
-81.68375,1.792816865211192,1.835637619440792
-81.683125,1.790479083764981,1.846773443828767
-81.6825,1.787473364762703,1.866682948037635
-81.68187500000001,1.784467645760422,1.86938254182875
-81.68125000000001,1.786137489650553,1.854534775978141
-81.68062500000001,1.789477177430854,1.837999764008049
-81.68000000000001,1.788141302318763,1.834962720993034
-81.67937500000001,1.786137489650582,1.850147936067469
-81.67875000000001,1.782797801870282,1.868032744933066
-81.67812500000001,1.781127957980109,1.864658252694482
-81.67749999999999,1.785135583316494,1.848123240724165
-81.676875,1.787473364762683,1.833275474873637
-81.67625,1.786805427206608,1.835975068664809
-81.675625,1.784801614538424,1.85352242830652
-81.675,1.783131770648285,1.867357846485439
-81.674375,1.783799708204366,1.860946311231661
-81.67375,1.787473364762693,1.844411299261567
-81.673125,1.788141302318746,1.829563533410971
-81.6725,1.786805427206618,1.838674662455772
-81.671875,1.784467645760398,1.861621209679553
-81.67125,1.781461926758125,1.8717446863959
-81.670625,1.782797801870251,1.858246717440708
-81.67,1.7854695520945,1.837662314784049
